G95 module created on Mon Sep 10 20:08:55 2018 from fft.f95
If you edit this, you'll get what you deserve.
module-version 9
(() () () () () () () () () () () () () () () () () () () () ())

()

()

()

()

(2 'bitrv2' 'fft' 1 ((PROCEDURE UNKNOWN MODULE-PROC DECL NONE NONE
SUBROUTINE INVOKED) (PROCEDURE 0) 0 0 (3 NONE 4 NONE 5 NONE) () () '' ()
())
6 'bitrv208' 'fft' 1 ((PROCEDURE UNKNOWN MODULE-PROC DECL NONE NONE
SUBROUTINE INVOKED) (PROCEDURE 0) 0 0 (7 NONE) () () '' () ())
8 'bitrv208neg' 'fft' 1 ((PROCEDURE UNKNOWN MODULE-PROC DECL NONE NONE
SUBROUTINE INVOKED) (PROCEDURE 0) 0 0 (9 NONE) () () '' () ())
10 'bitrv216' 'fft' 1 ((PROCEDURE UNKNOWN MODULE-PROC DECL NONE NONE
SUBROUTINE INVOKED) (PROCEDURE 0) 0 0 (11 NONE) () () '' () ())
12 'bitrv216neg' 'fft' 1 ((PROCEDURE UNKNOWN MODULE-PROC DECL NONE NONE
SUBROUTINE INVOKED) (PROCEDURE 0) 0 0 (13 NONE) () () '' () ())
14 'bitrv2conj' 'fft' 1 ((PROCEDURE UNKNOWN MODULE-PROC DECL NONE NONE
SUBROUTINE INVOKED) (PROCEDURE 0) 0 0 (15 NONE 16 NONE 17 NONE) () () ''
() ())
18 'cdft' 'fft' 1 ((PROCEDURE UNKNOWN MODULE-PROC DECL NONE NONE
SUBROUTINE) (PROCEDURE 0) 0 0 (19 NONE 20 NONE 21 NONE 22 NONE 23 NONE)
() () '' () ())
24 'cftb040' 'fft' 1 ((PROCEDURE UNKNOWN MODULE-PROC DECL NONE NONE
SUBROUTINE INVOKED) (PROCEDURE 0) 0 0 (25 NONE) () () '' () ())
26 'cftb1st' 'fft' 1 ((PROCEDURE UNKNOWN MODULE-PROC DECL NONE NONE
SUBROUTINE INVOKED) (PROCEDURE 0) 0 0 (27 NONE 28 NONE 29 NONE) () () ''
() ())
30 'cftbsub' 'fft' 1 ((PROCEDURE UNKNOWN MODULE-PROC DECL NONE NONE
SUBROUTINE INVOKED) (PROCEDURE 0) 0 0 (31 NONE 32 NONE 33 NONE 34 NONE
35 NONE) () () '' () ())
36 'cftf040' 'fft' 1 ((PROCEDURE UNKNOWN MODULE-PROC DECL NONE NONE
SUBROUTINE INVOKED) (PROCEDURE 0) 0 0 (37 NONE) () () '' () ())
38 'cftf081' 'fft' 1 ((PROCEDURE UNKNOWN MODULE-PROC DECL NONE NONE
SUBROUTINE INVOKED) (PROCEDURE 0) 0 0 (39 NONE 40 NONE) () () '' () ())
41 'cftf082' 'fft' 1 ((PROCEDURE UNKNOWN MODULE-PROC DECL NONE NONE
SUBROUTINE INVOKED) (PROCEDURE 0) 0 0 (42 NONE 43 NONE) () () '' () ())
44 'cftf161' 'fft' 1 ((PROCEDURE UNKNOWN MODULE-PROC DECL NONE NONE
SUBROUTINE INVOKED) (PROCEDURE 0) 0 0 (45 NONE 46 NONE) () () '' () ())
47 'cftf162' 'fft' 1 ((PROCEDURE UNKNOWN MODULE-PROC DECL NONE NONE
SUBROUTINE INVOKED) (PROCEDURE 0) 0 0 (48 NONE 49 NONE) () () '' () ())
50 'cftf1st' 'fft' 1 ((PROCEDURE UNKNOWN MODULE-PROC DECL NONE NONE
SUBROUTINE INVOKED) (PROCEDURE 0) 0 0 (51 NONE 52 NONE 53 NONE) () () ''
() ())
54 'cftfsub' 'fft' 1 ((PROCEDURE UNKNOWN MODULE-PROC DECL NONE NONE
SUBROUTINE INVOKED) (PROCEDURE 0) 0 0 (55 NONE 56 NONE 57 NONE 58 NONE
59 NONE) () () '' () ())
60 'cftfx41' 'fft' 1 ((PROCEDURE UNKNOWN MODULE-PROC DECL NONE NONE
SUBROUTINE INVOKED) (PROCEDURE 0) 0 0 (61 NONE 62 NONE 63 NONE 64 NONE)
() () '' () ())
65 'cftleaf' 'fft' 1 ((PROCEDURE UNKNOWN MODULE-PROC DECL NONE NONE
SUBROUTINE INVOKED) (PROCEDURE 0) 0 0 (66 NONE 67 NONE 68 NONE 69 NONE
70 NONE) () () '' () ())
71 'cftmdl1' 'fft' 1 ((PROCEDURE UNKNOWN MODULE-PROC DECL NONE NONE
SUBROUTINE INVOKED) (PROCEDURE 0) 0 0 (72 NONE 73 NONE 74 NONE) () () ''
() ())
75 'cftmdl2' 'fft' 1 ((PROCEDURE UNKNOWN MODULE-PROC DECL NONE NONE
SUBROUTINE INVOKED) (PROCEDURE 0) 0 0 (76 NONE 77 NONE 78 NONE) () () ''
() ())
79 'cftrec4' 'fft' 1 ((PROCEDURE UNKNOWN MODULE-PROC DECL NONE NONE
SUBROUTINE INVOKED) (PROCEDURE 0) 0 0 (80 NONE 81 NONE 82 NONE 83 NONE)
() () '' () ())
84 'cfttree' 'fft' 1 ((PROCEDURE UNKNOWN MODULE-PROC DECL NONE NONE
FUNCTION INVOKED) (INTEGER 4) 0 0 (85 NONE 86 NONE 87 NONE 88 NONE 89
NONE 90 NONE) () () '' () ())
91 'cftx020' 'fft' 1 ((PROCEDURE UNKNOWN MODULE-PROC DECL NONE NONE
SUBROUTINE INVOKED) (PROCEDURE 0) 0 0 (92 NONE) () () '' () ())
93 'dctsub' 'fft' 1 ((PROCEDURE UNKNOWN MODULE-PROC DECL NONE NONE
SUBROUTINE INVOKED) (PROCEDURE 0) 0 0 (94 NONE 95 NONE 96 NONE 97 NONE)
() () '' () ())
98 'ddct' 'fft' 1 ((PROCEDURE UNKNOWN MODULE-PROC DECL NONE NONE
SUBROUTINE) (PROCEDURE 0) 0 0 (99 NONE 100 NONE 101 NONE 102 NONE 103
NONE) () () '' () ())
104 'ddst' 'fft' 1 ((PROCEDURE UNKNOWN MODULE-PROC DECL NONE NONE
SUBROUTINE) (PROCEDURE 0) 0 0 (105 NONE 106 NONE 107 NONE 108 NONE 109
NONE) () () '' () ())
110 'dfct' 'fft' 1 ((PROCEDURE UNKNOWN MODULE-PROC DECL NONE NONE
SUBROUTINE) (PROCEDURE 0) 0 0 (111 NONE 112 NONE 113 NONE 114 NONE 115
NONE) () () '' () ())
116 'dfst' 'fft' 1 ((PROCEDURE UNKNOWN MODULE-PROC DECL NONE NONE
SUBROUTINE) (PROCEDURE 0) 0 0 (117 NONE 118 NONE 119 NONE 120 NONE 121
NONE) () () '' () ())
122 'dstsub' 'fft' 1 ((PROCEDURE UNKNOWN MODULE-PROC DECL NONE NONE
SUBROUTINE INVOKED) (PROCEDURE 0) 0 0 (123 NONE 124 NONE 125 NONE 126
NONE) () () '' () ())
127 'fft' 'fft' 1 ((MODULE UNKNOWN UNKNOWN UNKNOWN NONE NONE) (UNKNOWN)
0 0 () () () '' () ())
128 'makect' 'fft' 1 ((PROCEDURE UNKNOWN MODULE-PROC DECL NONE NONE
SUBROUTINE INVOKED) (PROCEDURE 0) 0 0 (129 NONE 130 NONE 131 NONE) () ()
'' () ())
132 'makeipt' 'fft' 1 ((PROCEDURE UNKNOWN MODULE-PROC DECL NONE NONE
SUBROUTINE INVOKED) (PROCEDURE 0) 0 0 (133 NONE 134 NONE) () () '' () ())
135 'makewt' 'fft' 1 ((PROCEDURE UNKNOWN MODULE-PROC DECL NONE NONE
SUBROUTINE INVOKED) (PROCEDURE 0) 0 0 (136 NONE 137 NONE 138 NONE) () ()
'' () ())
139 'rdft' 'fft' 1 ((PROCEDURE UNKNOWN MODULE-PROC DECL NONE NONE
SUBROUTINE) (PROCEDURE 0) 0 0 (140 NONE 141 NONE 142 NONE 143 NONE 144
NONE) () () '' () ())
145 'rftbsub' 'fft' 1 ((PROCEDURE UNKNOWN MODULE-PROC DECL NONE NONE
SUBROUTINE INVOKED) (PROCEDURE 0) 0 0 (146 NONE 147 NONE 148 NONE 149
NONE) () () '' () ())
150 'rftfsub' 'fft' 1 ((PROCEDURE UNKNOWN MODULE-PROC DECL NONE NONE
SUBROUTINE INVOKED) (PROCEDURE 0) 0 0 (151 NONE 152 NONE 153 NONE 154
NONE) () () '' () ())
154 'c' '' 155 ((VARIABLE UNKNOWN UNKNOWN UNKNOWN NONE NONE DIMENSION
DUMMY) (REAL 8) 0 0 () (1 EXPLICIT (CONSTANT (INTEGER 4) 0 '0') (OP (
INTEGER 4) 0 MINUS (VARIABLE (INTEGER 4) 0 153 ()) (CONSTANT (INTEGER 4)
0 '1'))) () '' () ())
153 'nc' '' 155 ((VARIABLE UNKNOWN UNKNOWN UNKNOWN NONE NONE DUMMY) (
INTEGER 4) 0 0 () () () '' () ())
152 'a' '' 155 ((VARIABLE UNKNOWN UNKNOWN UNKNOWN NONE NONE DIMENSION
DUMMY) (REAL 8) 0 0 () (1 EXPLICIT (CONSTANT (INTEGER 4) 0 '0') (OP (
INTEGER 4) 0 MINUS (VARIABLE (INTEGER 4) 0 151 ()) (CONSTANT (INTEGER 4)
0 '1'))) () '' () ())
151 'n' '' 155 ((VARIABLE UNKNOWN UNKNOWN UNKNOWN NONE NONE DUMMY) (
INTEGER 4) 0 0 () () () '' () ())
149 'c' '' 156 ((VARIABLE UNKNOWN UNKNOWN UNKNOWN NONE NONE DIMENSION
DUMMY) (REAL 8) 0 0 () (1 EXPLICIT (CONSTANT (INTEGER 4) 0 '0') (OP (
INTEGER 4) 0 MINUS (VARIABLE (INTEGER 4) 0 148 ()) (CONSTANT (INTEGER 4)
0 '1'))) () '' () ())
148 'nc' '' 156 ((VARIABLE UNKNOWN UNKNOWN UNKNOWN NONE NONE DUMMY) (
INTEGER 4) 0 0 () () () '' () ())
147 'a' '' 156 ((VARIABLE UNKNOWN UNKNOWN UNKNOWN NONE NONE DIMENSION
DUMMY) (REAL 8) 0 0 () (1 EXPLICIT (CONSTANT (INTEGER 4) 0 '0') (OP (
INTEGER 4) 0 MINUS (VARIABLE (INTEGER 4) 0 146 ()) (CONSTANT (INTEGER 4)
0 '1'))) () '' () ())
146 'n' '' 156 ((VARIABLE UNKNOWN UNKNOWN UNKNOWN NONE NONE DUMMY) (
INTEGER 4) 0 0 () () () '' () ())
144 'w' '' 157 ((VARIABLE UNKNOWN UNKNOWN UNKNOWN NONE NONE DIMENSION
DUMMY) (REAL 8) 0 0 () (1 ASSUMED_SIZE (CONSTANT (INTEGER 4) 0 '0') ())
() '' () ())
143 'ip' '' 157 ((VARIABLE UNKNOWN UNKNOWN UNKNOWN NONE NONE DIMENSION
DUMMY) (INTEGER 4) 0 0 () (1 ASSUMED_SIZE (CONSTANT (INTEGER 4) 0 '0') ())
() '' () ())
142 'a' '' 157 ((VARIABLE UNKNOWN UNKNOWN UNKNOWN NONE NONE DIMENSION
DUMMY) (REAL 8) 0 0 () (1 EXPLICIT (CONSTANT (INTEGER 4) 0 '0') (OP (
INTEGER 4) 0 MINUS (VARIABLE (INTEGER 4) 0 140 ()) (CONSTANT (INTEGER 4)
0 '1'))) () '' () ())
141 'isgn' '' 157 ((VARIABLE UNKNOWN UNKNOWN UNKNOWN NONE NONE DUMMY) (
INTEGER 4) 0 0 () () () '' () ())
140 'n' '' 157 ((VARIABLE UNKNOWN UNKNOWN UNKNOWN NONE NONE DUMMY) (
INTEGER 4) 0 0 () () () '' () ())
138 'w' '' 158 ((VARIABLE UNKNOWN UNKNOWN UNKNOWN NONE NONE DIMENSION
DUMMY) (REAL 8) 0 0 () (1 EXPLICIT (CONSTANT (INTEGER 4) 0 '0') (OP (
INTEGER 4) 0 MINUS (VARIABLE (INTEGER 4) 0 136 ()) (CONSTANT (INTEGER 4)
0 '1'))) () '' () ())
137 'ip' '' 158 ((VARIABLE UNKNOWN UNKNOWN UNKNOWN NONE NONE DIMENSION
DUMMY) (INTEGER 4) 0 0 () (1 ASSUMED_SIZE (CONSTANT (INTEGER 4) 0 '0') ())
() '' () ())
136 'nw' '' 158 ((VARIABLE UNKNOWN UNKNOWN UNKNOWN NONE NONE DUMMY) (
INTEGER 4) 0 0 () () () '' () ())
134 'ip' '' 159 ((VARIABLE UNKNOWN UNKNOWN UNKNOWN NONE NONE DIMENSION
DUMMY) (INTEGER 4) 0 0 () (1 ASSUMED_SIZE (CONSTANT (INTEGER 4) 0 '0') ())
() '' () ())
133 'nw' '' 159 ((VARIABLE UNKNOWN UNKNOWN UNKNOWN NONE NONE DUMMY) (
INTEGER 4) 0 0 () () () '' () ())
131 'c' '' 160 ((VARIABLE UNKNOWN UNKNOWN UNKNOWN NONE NONE DIMENSION
DUMMY) (REAL 8) 0 0 () (1 EXPLICIT (CONSTANT (INTEGER 4) 0 '0') (OP (
INTEGER 4) 0 MINUS (VARIABLE (INTEGER 4) 0 129 ()) (CONSTANT (INTEGER 4)
0 '1'))) () '' () ())
130 'ip' '' 160 ((VARIABLE UNKNOWN UNKNOWN UNKNOWN NONE NONE DIMENSION
DUMMY) (INTEGER 4) 0 0 () (1 ASSUMED_SIZE (CONSTANT (INTEGER 4) 0 '0') ())
() '' () ())
129 'nc' '' 160 ((VARIABLE UNKNOWN UNKNOWN UNKNOWN NONE NONE DUMMY) (
INTEGER 4) 0 0 () () () '' () ())
126 'c' '' 161 ((VARIABLE UNKNOWN UNKNOWN UNKNOWN NONE NONE DIMENSION
DUMMY) (REAL 8) 0 0 () (1 EXPLICIT (CONSTANT (INTEGER 4) 0 '0') (OP (
INTEGER 4) 0 MINUS (VARIABLE (INTEGER 4) 0 125 ()) (CONSTANT (INTEGER 4)
0 '1'))) () '' () ())
125 'nc' '' 161 ((VARIABLE UNKNOWN UNKNOWN UNKNOWN NONE NONE DUMMY) (
INTEGER 4) 0 0 () () () '' () ())
124 'a' '' 161 ((VARIABLE UNKNOWN UNKNOWN UNKNOWN NONE NONE DIMENSION
DUMMY) (REAL 8) 0 0 () (1 EXPLICIT (CONSTANT (INTEGER 4) 0 '0') (OP (
INTEGER 4) 0 MINUS (VARIABLE (INTEGER 4) 0 123 ()) (CONSTANT (INTEGER 4)
0 '1'))) () '' () ())
123 'n' '' 161 ((VARIABLE UNKNOWN UNKNOWN UNKNOWN NONE NONE DUMMY) (
INTEGER 4) 0 0 () () () '' () ())
121 'w' '' 162 ((VARIABLE UNKNOWN UNKNOWN UNKNOWN NONE NONE DIMENSION
DUMMY) (REAL 8) 0 0 () (1 ASSUMED_SIZE (CONSTANT (INTEGER 4) 0 '0') ())
() '' () ())
120 'ip' '' 162 ((VARIABLE UNKNOWN UNKNOWN UNKNOWN NONE NONE DIMENSION
DUMMY) (INTEGER 4) 0 0 () (1 ASSUMED_SIZE (CONSTANT (INTEGER 4) 0 '0') ())
() '' () ())
119 't' '' 162 ((VARIABLE UNKNOWN UNKNOWN UNKNOWN NONE NONE DIMENSION
DUMMY) (REAL 8) 0 0 () (1 EXPLICIT (CONSTANT (INTEGER 4) 0 '0') (OP (
INTEGER 4) 0 MINUS (OP (INTEGER 4) 0 DIVIDE (VARIABLE (INTEGER 4) 0 117
()) (CONSTANT (INTEGER 4) 0 '2')) (CONSTANT (INTEGER 4) 0 '1'))) () '' ()
())
118 'a' '' 162 ((VARIABLE UNKNOWN UNKNOWN UNKNOWN NONE NONE DIMENSION
DUMMY) (REAL 8) 0 0 () (1 EXPLICIT (CONSTANT (INTEGER 4) 0 '0') (OP (
INTEGER 4) 0 MINUS (VARIABLE (INTEGER 4) 0 117 ()) (CONSTANT (INTEGER 4)
0 '1'))) () '' () ())
117 'n' '' 162 ((VARIABLE UNKNOWN UNKNOWN UNKNOWN NONE NONE DUMMY) (
INTEGER 4) 0 0 () () () '' () ())
115 'w' '' 163 ((VARIABLE UNKNOWN UNKNOWN UNKNOWN NONE NONE DIMENSION
DUMMY) (REAL 8) 0 0 () (1 ASSUMED_SIZE (CONSTANT (INTEGER 4) 0 '0') ())
() '' () ())
114 'ip' '' 163 ((VARIABLE UNKNOWN UNKNOWN UNKNOWN NONE NONE DIMENSION
DUMMY) (INTEGER 4) 0 0 () (1 ASSUMED_SIZE (CONSTANT (INTEGER 4) 0 '0') ())
() '' () ())
113 't' '' 163 ((VARIABLE UNKNOWN UNKNOWN UNKNOWN NONE NONE DIMENSION
DUMMY) (REAL 8) 0 0 () (1 EXPLICIT (CONSTANT (INTEGER 4) 0 '0') (OP (
INTEGER 4) 0 DIVIDE (VARIABLE (INTEGER 4) 0 111 ()) (CONSTANT (INTEGER 4)
0 '2'))) () '' () ())
112 'a' '' 163 ((VARIABLE UNKNOWN UNKNOWN UNKNOWN NONE NONE DIMENSION
DUMMY) (REAL 8) 0 0 () (1 EXPLICIT (CONSTANT (INTEGER 4) 0 '0') (
VARIABLE (INTEGER 4) 0 111 ())) () '' () ())
111 'n' '' 163 ((VARIABLE UNKNOWN UNKNOWN UNKNOWN NONE NONE DUMMY) (
INTEGER 4) 0 0 () () () '' () ())
109 'w' '' 164 ((VARIABLE UNKNOWN UNKNOWN UNKNOWN NONE NONE DIMENSION
DUMMY) (REAL 8) 0 0 () (1 ASSUMED_SIZE (CONSTANT (INTEGER 4) 0 '0') ())
() '' () ())
108 'ip' '' 164 ((VARIABLE UNKNOWN UNKNOWN UNKNOWN NONE NONE DIMENSION
DUMMY) (INTEGER 4) 0 0 () (1 ASSUMED_SIZE (CONSTANT (INTEGER 4) 0 '0') ())
() '' () ())
107 'a' '' 164 ((VARIABLE UNKNOWN UNKNOWN UNKNOWN NONE NONE DIMENSION
DUMMY) (REAL 8) 0 0 () (1 EXPLICIT (CONSTANT (INTEGER 4) 0 '0') (OP (
INTEGER 4) 0 MINUS (VARIABLE (INTEGER 4) 0 105 ()) (CONSTANT (INTEGER 4)
0 '1'))) () '' () ())
106 'isgn' '' 164 ((VARIABLE UNKNOWN UNKNOWN UNKNOWN NONE NONE DUMMY) (
INTEGER 4) 0 0 () () () '' () ())
105 'n' '' 164 ((VARIABLE UNKNOWN UNKNOWN UNKNOWN NONE NONE DUMMY) (
INTEGER 4) 0 0 () () () '' () ())
103 'w' '' 165 ((VARIABLE UNKNOWN UNKNOWN UNKNOWN NONE NONE DIMENSION
DUMMY) (REAL 8) 0 0 () (1 ASSUMED_SIZE (CONSTANT (INTEGER 4) 0 '0') ())
() '' () ())
102 'ip' '' 165 ((VARIABLE UNKNOWN UNKNOWN UNKNOWN NONE NONE DIMENSION
DUMMY) (INTEGER 4) 0 0 () (1 ASSUMED_SIZE (CONSTANT (INTEGER 4) 0 '0') ())
() '' () ())
101 'a' '' 165 ((VARIABLE UNKNOWN UNKNOWN UNKNOWN NONE NONE DIMENSION
DUMMY) (REAL 8) 0 0 () (1 EXPLICIT (CONSTANT (INTEGER 4) 0 '0') (OP (
INTEGER 4) 0 MINUS (VARIABLE (INTEGER 4) 0 99 ()) (CONSTANT (INTEGER 4)
0 '1'))) () '' () ())
100 'isgn' '' 165 ((VARIABLE UNKNOWN UNKNOWN UNKNOWN NONE NONE DUMMY) (
INTEGER 4) 0 0 () () () '' () ())
99 'n' '' 165 ((VARIABLE UNKNOWN UNKNOWN UNKNOWN NONE NONE DUMMY) (
INTEGER 4) 0 0 () () () '' () ())
97 'c' '' 166 ((VARIABLE UNKNOWN UNKNOWN UNKNOWN NONE NONE DIMENSION
DUMMY) (REAL 8) 0 0 () (1 EXPLICIT (CONSTANT (INTEGER 4) 0 '0') (OP (
INTEGER 4) 0 MINUS (VARIABLE (INTEGER 4) 0 96 ()) (CONSTANT (INTEGER 4)
0 '1'))) () '' () ())
96 'nc' '' 166 ((VARIABLE UNKNOWN UNKNOWN UNKNOWN NONE NONE DUMMY) (
INTEGER 4) 0 0 () () () '' () ())
95 'a' '' 166 ((VARIABLE UNKNOWN UNKNOWN UNKNOWN NONE NONE DIMENSION
DUMMY) (REAL 8) 0 0 () (1 EXPLICIT (CONSTANT (INTEGER 4) 0 '0') (OP (
INTEGER 4) 0 MINUS (VARIABLE (INTEGER 4) 0 94 ()) (CONSTANT (INTEGER 4)
0 '1'))) () '' () ())
94 'n' '' 166 ((VARIABLE UNKNOWN UNKNOWN UNKNOWN NONE NONE DUMMY) (
INTEGER 4) 0 0 () () () '' () ())
92 'a' '' 167 ((VARIABLE UNKNOWN UNKNOWN UNKNOWN NONE NONE DIMENSION
DUMMY) (REAL 8) 0 0 () (1 EXPLICIT (CONSTANT (INTEGER 4) 0 '0') (
CONSTANT (INTEGER 4) 0 '3')) () '' () ())
90 'w' '' 168 ((VARIABLE UNKNOWN UNKNOWN UNKNOWN NONE NONE DIMENSION
DUMMY) (REAL 8) 0 0 () (1 EXPLICIT (CONSTANT (INTEGER 4) 0 '0') (OP (
INTEGER 4) 0 MINUS (VARIABLE (INTEGER 4) 0 89 ()) (CONSTANT (INTEGER 4)
0 '1'))) () '' () ())
89 'nw' '' 168 ((VARIABLE UNKNOWN UNKNOWN UNKNOWN NONE NONE DUMMY) (
INTEGER 4) 0 0 () () () '' () ())
88 'a' '' 168 ((VARIABLE UNKNOWN UNKNOWN UNKNOWN NONE NONE DIMENSION
DUMMY) (REAL 8) 0 0 () (1 EXPLICIT (CONSTANT (INTEGER 4) 0 '0') (OP (
INTEGER 4) 0 MINUS (VARIABLE (INTEGER 4) 0 86 ()) (CONSTANT (INTEGER 4)
0 '1'))) () '' () ())
87 'k' '' 168 ((VARIABLE UNKNOWN UNKNOWN UNKNOWN NONE NONE DUMMY) (
INTEGER 4) 0 0 () () () '' () ())
86 'j' '' 168 ((VARIABLE UNKNOWN UNKNOWN UNKNOWN NONE NONE DUMMY) (
INTEGER 4) 0 0 () () () '' () ())
85 'n' '' 168 ((VARIABLE UNKNOWN UNKNOWN UNKNOWN NONE NONE DUMMY) (
INTEGER 4) 0 0 () () () '' () ())
83 'w' '' 169 ((VARIABLE UNKNOWN UNKNOWN UNKNOWN NONE NONE DIMENSION
DUMMY) (REAL 8) 0 0 () (1 EXPLICIT (CONSTANT (INTEGER 4) 0 '0') (OP (
INTEGER 4) 0 MINUS (VARIABLE (INTEGER 4) 0 82 ()) (CONSTANT (INTEGER 4)
0 '1'))) () '' () ())
82 'nw' '' 169 ((VARIABLE UNKNOWN UNKNOWN UNKNOWN NONE NONE DUMMY) (
INTEGER 4) 0 0 () () () '' () ())
81 'a' '' 169 ((VARIABLE UNKNOWN UNKNOWN UNKNOWN NONE NONE DIMENSION
DUMMY) (REAL 8) 0 0 () (1 EXPLICIT (CONSTANT (INTEGER 4) 0 '0') (OP (
INTEGER 4) 0 MINUS (VARIABLE (INTEGER 4) 0 80 ()) (CONSTANT (INTEGER 4)
0 '1'))) () '' () ())
80 'n' '' 169 ((VARIABLE UNKNOWN UNKNOWN UNKNOWN NONE NONE DUMMY) (
INTEGER 4) 0 0 () () () '' () ())
78 'w' '' 170 ((VARIABLE UNKNOWN UNKNOWN UNKNOWN NONE NONE DIMENSION
DUMMY) (REAL 8) 0 0 () (1 ASSUMED_SIZE (CONSTANT (INTEGER 4) 0 '0') ())
() '' () ())
77 'a' '' 170 ((VARIABLE UNKNOWN UNKNOWN UNKNOWN NONE NONE DIMENSION
DUMMY) (REAL 8) 0 0 () (1 EXPLICIT (CONSTANT (INTEGER 4) 0 '0') (OP (
INTEGER 4) 0 MINUS (VARIABLE (INTEGER 4) 0 76 ()) (CONSTANT (INTEGER 4)
0 '1'))) () '' () ())
76 'n' '' 170 ((VARIABLE UNKNOWN UNKNOWN UNKNOWN NONE NONE DUMMY) (
INTEGER 4) 0 0 () () () '' () ())
74 'w' '' 171 ((VARIABLE UNKNOWN UNKNOWN UNKNOWN NONE NONE DIMENSION
DUMMY) (REAL 8) 0 0 () (1 ASSUMED_SIZE (CONSTANT (INTEGER 4) 0 '0') ())
() '' () ())
73 'a' '' 171 ((VARIABLE UNKNOWN UNKNOWN UNKNOWN NONE NONE DIMENSION
DUMMY) (REAL 8) 0 0 () (1 EXPLICIT (CONSTANT (INTEGER 4) 0 '0') (OP (
INTEGER 4) 0 MINUS (VARIABLE (INTEGER 4) 0 72 ()) (CONSTANT (INTEGER 4)
0 '1'))) () '' () ())
72 'n' '' 171 ((VARIABLE UNKNOWN UNKNOWN UNKNOWN NONE NONE DUMMY) (
INTEGER 4) 0 0 () () () '' () ())
70 'w' '' 172 ((VARIABLE UNKNOWN UNKNOWN UNKNOWN NONE NONE DIMENSION
DUMMY) (REAL 8) 0 0 () (1 EXPLICIT (CONSTANT (INTEGER 4) 0 '0') (OP (
INTEGER 4) 0 MINUS (VARIABLE (INTEGER 4) 0 69 ()) (CONSTANT (INTEGER 4)
0 '1'))) () '' () ())
69 'nw' '' 172 ((VARIABLE UNKNOWN UNKNOWN UNKNOWN NONE NONE DUMMY) (
INTEGER 4) 0 0 () () () '' () ())
68 'a' '' 172 ((VARIABLE UNKNOWN UNKNOWN UNKNOWN NONE NONE DIMENSION
DUMMY) (REAL 8) 0 0 () (1 EXPLICIT (CONSTANT (INTEGER 4) 0 '0') (OP (
INTEGER 4) 0 MINUS (VARIABLE (INTEGER 4) 0 66 ()) (CONSTANT (INTEGER 4)
0 '1'))) () '' () ())
67 'isplt' '' 172 ((VARIABLE UNKNOWN UNKNOWN UNKNOWN NONE NONE DUMMY) (
INTEGER 4) 0 0 () () () '' () ())
66 'n' '' 172 ((VARIABLE UNKNOWN UNKNOWN UNKNOWN NONE NONE DUMMY) (
INTEGER 4) 0 0 () () () '' () ())
64 'w' '' 173 ((VARIABLE UNKNOWN UNKNOWN UNKNOWN NONE NONE DIMENSION
DUMMY) (REAL 8) 0 0 () (1 EXPLICIT (CONSTANT (INTEGER 4) 0 '0') (OP (
INTEGER 4) 0 MINUS (VARIABLE (INTEGER 4) 0 63 ()) (CONSTANT (INTEGER 4)
0 '1'))) () '' () ())
63 'nw' '' 173 ((VARIABLE UNKNOWN UNKNOWN UNKNOWN NONE NONE DUMMY) (
INTEGER 4) 0 0 () () () '' () ())
62 'a' '' 173 ((VARIABLE UNKNOWN UNKNOWN UNKNOWN NONE NONE DIMENSION
DUMMY) (REAL 8) 0 0 () (1 EXPLICIT (CONSTANT (INTEGER 4) 0 '0') (OP (
INTEGER 4) 0 MINUS (VARIABLE (INTEGER 4) 0 61 ()) (CONSTANT (INTEGER 4)
0 '1'))) () '' () ())
61 'n' '' 173 ((VARIABLE UNKNOWN UNKNOWN UNKNOWN NONE NONE DUMMY) (
INTEGER 4) 0 0 () () () '' () ())
59 'w' '' 174 ((VARIABLE UNKNOWN UNKNOWN UNKNOWN NONE NONE DIMENSION
DUMMY) (REAL 8) 0 0 () (1 EXPLICIT (CONSTANT (INTEGER 4) 0 '0') (OP (
INTEGER 4) 0 MINUS (VARIABLE (INTEGER 4) 0 58 ()) (CONSTANT (INTEGER 4)
0 '1'))) () '' () ())
58 'nw' '' 174 ((VARIABLE UNKNOWN UNKNOWN UNKNOWN NONE NONE DUMMY) (
INTEGER 4) 0 0 () () () '' () ())
57 'ip' '' 174 ((VARIABLE UNKNOWN UNKNOWN UNKNOWN NONE NONE DIMENSION
DUMMY) (INTEGER 4) 0 0 () (1 ASSUMED_SIZE (CONSTANT (INTEGER 4) 0 '0') ())
() '' () ())
56 'a' '' 174 ((VARIABLE UNKNOWN UNKNOWN UNKNOWN NONE NONE DIMENSION
DUMMY) (REAL 8) 0 0 () (1 EXPLICIT (CONSTANT (INTEGER 4) 0 '0') (OP (
INTEGER 4) 0 MINUS (VARIABLE (INTEGER 4) 0 55 ()) (CONSTANT (INTEGER 4)
0 '1'))) () '' () ())
55 'n' '' 174 ((VARIABLE UNKNOWN UNKNOWN UNKNOWN NONE NONE DUMMY) (
INTEGER 4) 0 0 () () () '' () ())
53 'w' '' 175 ((VARIABLE UNKNOWN UNKNOWN UNKNOWN NONE NONE DIMENSION
DUMMY) (REAL 8) 0 0 () (1 ASSUMED_SIZE (CONSTANT (INTEGER 4) 0 '0') ())
() '' () ())
52 'a' '' 175 ((VARIABLE UNKNOWN UNKNOWN UNKNOWN NONE NONE DIMENSION
DUMMY) (REAL 8) 0 0 () (1 EXPLICIT (CONSTANT (INTEGER 4) 0 '0') (OP (
INTEGER 4) 0 MINUS (VARIABLE (INTEGER 4) 0 51 ()) (CONSTANT (INTEGER 4)
0 '1'))) () '' () ())
51 'n' '' 175 ((VARIABLE UNKNOWN UNKNOWN UNKNOWN NONE NONE DUMMY) (
INTEGER 4) 0 0 () () () '' () ())
49 'w' '' 176 ((VARIABLE UNKNOWN UNKNOWN UNKNOWN NONE NONE DIMENSION
DUMMY) (REAL 8) 0 0 () (1 ASSUMED_SIZE (CONSTANT (INTEGER 4) 0 '0') ())
() '' () ())
48 'a' '' 176 ((VARIABLE UNKNOWN UNKNOWN UNKNOWN NONE NONE DIMENSION
DUMMY) (REAL 8) 0 0 () (1 EXPLICIT (CONSTANT (INTEGER 4) 0 '0') (
CONSTANT (INTEGER 4) 0 '31')) () '' () ())
46 'w' '' 177 ((VARIABLE UNKNOWN UNKNOWN UNKNOWN NONE NONE DIMENSION
DUMMY) (REAL 8) 0 0 () (1 ASSUMED_SIZE (CONSTANT (INTEGER 4) 0 '0') ())
() '' () ())
45 'a' '' 177 ((VARIABLE UNKNOWN UNKNOWN UNKNOWN NONE NONE DIMENSION
DUMMY) (REAL 8) 0 0 () (1 EXPLICIT (CONSTANT (INTEGER 4) 0 '0') (
CONSTANT (INTEGER 4) 0 '31')) () '' () ())
43 'w' '' 178 ((VARIABLE UNKNOWN UNKNOWN UNKNOWN NONE NONE DIMENSION
DUMMY) (REAL 8) 0 0 () (1 ASSUMED_SIZE (CONSTANT (INTEGER 4) 0 '0') ())
() '' () ())
42 'a' '' 178 ((VARIABLE UNKNOWN UNKNOWN UNKNOWN NONE NONE DIMENSION
DUMMY) (REAL 8) 0 0 () (1 EXPLICIT (CONSTANT (INTEGER 4) 0 '0') (
CONSTANT (INTEGER 4) 0 '15')) () '' () ())
40 'w' '' 179 ((VARIABLE UNKNOWN UNKNOWN UNKNOWN NONE NONE DIMENSION
DUMMY) (REAL 8) 0 0 () (1 ASSUMED_SIZE (CONSTANT (INTEGER 4) 0 '0') ())
() '' () ())
39 'a' '' 179 ((VARIABLE UNKNOWN UNKNOWN UNKNOWN NONE NONE DIMENSION
DUMMY) (REAL 8) 0 0 () (1 EXPLICIT (CONSTANT (INTEGER 4) 0 '0') (
CONSTANT (INTEGER 4) 0 '15')) () '' () ())
37 'a' '' 180 ((VARIABLE UNKNOWN UNKNOWN UNKNOWN NONE NONE DIMENSION
DUMMY) (REAL 8) 0 0 () (1 EXPLICIT (CONSTANT (INTEGER 4) 0 '0') (
CONSTANT (INTEGER 4) 0 '7')) () '' () ())
35 'w' '' 181 ((VARIABLE UNKNOWN UNKNOWN UNKNOWN NONE NONE DIMENSION
DUMMY) (REAL 8) 0 0 () (1 EXPLICIT (CONSTANT (INTEGER 4) 0 '0') (OP (
INTEGER 4) 0 MINUS (VARIABLE (INTEGER 4) 0 34 ()) (CONSTANT (INTEGER 4)
0 '1'))) () '' () ())
34 'nw' '' 181 ((VARIABLE UNKNOWN UNKNOWN UNKNOWN NONE NONE DUMMY) (
INTEGER 4) 0 0 () () () '' () ())
33 'ip' '' 181 ((VARIABLE UNKNOWN UNKNOWN UNKNOWN NONE NONE DIMENSION
DUMMY) (INTEGER 4) 0 0 () (1 ASSUMED_SIZE (CONSTANT (INTEGER 4) 0 '0') ())
() '' () ())
32 'a' '' 181 ((VARIABLE UNKNOWN UNKNOWN UNKNOWN NONE NONE DIMENSION
DUMMY) (REAL 8) 0 0 () (1 EXPLICIT (CONSTANT (INTEGER 4) 0 '0') (OP (
INTEGER 4) 0 MINUS (VARIABLE (INTEGER 4) 0 31 ()) (CONSTANT (INTEGER 4)
0 '1'))) () '' () ())
31 'n' '' 181 ((VARIABLE UNKNOWN UNKNOWN UNKNOWN NONE NONE DUMMY) (
INTEGER 4) 0 0 () () () '' () ())
29 'w' '' 182 ((VARIABLE UNKNOWN UNKNOWN UNKNOWN NONE NONE DIMENSION
DUMMY) (REAL 8) 0 0 () (1 ASSUMED_SIZE (CONSTANT (INTEGER 4) 0 '0') ())
() '' () ())
28 'a' '' 182 ((VARIABLE UNKNOWN UNKNOWN UNKNOWN NONE NONE DIMENSION
DUMMY) (REAL 8) 0 0 () (1 EXPLICIT (CONSTANT (INTEGER 4) 0 '0') (OP (
INTEGER 4) 0 MINUS (VARIABLE (INTEGER 4) 0 27 ()) (CONSTANT (INTEGER 4)
0 '1'))) () '' () ())
27 'n' '' 182 ((VARIABLE UNKNOWN UNKNOWN UNKNOWN NONE NONE DUMMY) (
INTEGER 4) 0 0 () () () '' () ())
25 'a' '' 183 ((VARIABLE UNKNOWN UNKNOWN UNKNOWN NONE NONE DIMENSION
DUMMY) (REAL 8) 0 0 () (1 EXPLICIT (CONSTANT (INTEGER 4) 0 '0') (
CONSTANT (INTEGER 4) 0 '7')) () '' () ())
23 'w' '' 184 ((VARIABLE UNKNOWN UNKNOWN UNKNOWN NONE NONE DIMENSION
DUMMY) (REAL 8) 0 0 () (1 ASSUMED_SIZE (CONSTANT (INTEGER 4) 0 '0') ())
() '' () ())
22 'ip' '' 184 ((VARIABLE UNKNOWN UNKNOWN UNKNOWN NONE NONE DIMENSION
DUMMY) (INTEGER 4) 0 0 () (1 ASSUMED_SIZE (CONSTANT (INTEGER 4) 0 '0') ())
() '' () ())
21 'a' '' 184 ((VARIABLE UNKNOWN UNKNOWN UNKNOWN NONE NONE DIMENSION
DUMMY) (REAL 8) 0 0 () (1 EXPLICIT (CONSTANT (INTEGER 4) 0 '0') (OP (
INTEGER 4) 0 MINUS (VARIABLE (INTEGER 4) 0 19 ()) (CONSTANT (INTEGER 4)
0 '1'))) () '' () ())
20 'isgn' '' 184 ((VARIABLE UNKNOWN UNKNOWN UNKNOWN NONE NONE DUMMY) (
INTEGER 4) 0 0 () () () '' () ())
19 'n' '' 184 ((VARIABLE UNKNOWN UNKNOWN UNKNOWN NONE NONE DUMMY) (
INTEGER 4) 0 0 () () () '' () ())
17 'a' '' 185 ((VARIABLE UNKNOWN UNKNOWN UNKNOWN NONE NONE DIMENSION
DUMMY) (REAL 8) 0 0 () (1 EXPLICIT (CONSTANT (INTEGER 4) 0 '0') (OP (
INTEGER 4) 0 MINUS (VARIABLE (INTEGER 4) 0 15 ()) (CONSTANT (INTEGER 4)
0 '1'))) () '' () ())
16 'ip' '' 185 ((VARIABLE UNKNOWN UNKNOWN UNKNOWN NONE NONE DIMENSION
DUMMY) (INTEGER 4) 0 0 () (1 ASSUMED_SIZE (CONSTANT (INTEGER 4) 0 '0') ())
() '' () ())
15 'n' '' 185 ((VARIABLE UNKNOWN UNKNOWN UNKNOWN NONE NONE DUMMY) (
INTEGER 4) 0 0 () () () '' () ())
13 'a' '' 186 ((VARIABLE UNKNOWN UNKNOWN UNKNOWN NONE NONE DIMENSION
DUMMY) (REAL 8) 0 0 () (1 EXPLICIT (CONSTANT (INTEGER 4) 0 '0') (
CONSTANT (INTEGER 4) 0 '31')) () '' () ())
11 'a' '' 187 ((VARIABLE UNKNOWN UNKNOWN UNKNOWN NONE NONE DIMENSION
DUMMY) (REAL 8) 0 0 () (1 EXPLICIT (CONSTANT (INTEGER 4) 0 '0') (
CONSTANT (INTEGER 4) 0 '31')) () '' () ())
9 'a' '' 188 ((VARIABLE UNKNOWN UNKNOWN UNKNOWN NONE NONE DIMENSION
DUMMY) (REAL 8) 0 0 () (1 EXPLICIT (CONSTANT (INTEGER 4) 0 '0') (
CONSTANT (INTEGER 4) 0 '15')) () '' () ())
7 'a' '' 189 ((VARIABLE UNKNOWN UNKNOWN UNKNOWN NONE NONE DIMENSION
DUMMY) (REAL 8) 0 0 () (1 EXPLICIT (CONSTANT (INTEGER 4) 0 '0') (
CONSTANT (INTEGER 4) 0 '15')) () '' () ())
5 'a' '' 190 ((VARIABLE UNKNOWN UNKNOWN UNKNOWN NONE NONE DIMENSION
DUMMY) (REAL 8) 0 0 () (1 EXPLICIT (CONSTANT (INTEGER 4) 0 '0') (OP (
INTEGER 4) 0 MINUS (VARIABLE (INTEGER 4) 0 3 ()) (CONSTANT (INTEGER 4) 0
'1'))) () '' () ())
4 'ip' '' 190 ((VARIABLE UNKNOWN UNKNOWN UNKNOWN NONE NONE DIMENSION
DUMMY) (INTEGER 4) 0 0 () (1 ASSUMED_SIZE (CONSTANT (INTEGER 4) 0 '0') ())
() '' () ())
3 'n' '' 190 ((VARIABLE UNKNOWN UNKNOWN UNKNOWN NONE NONE DUMMY) (
INTEGER 4) 0 0 () () () '' () ())
)

('bitrv2' 0 2 'bitrv208' 0 6 'bitrv208neg' 0 8 'bitrv216' 0 10
'bitrv216neg' 0 12 'bitrv2conj' 0 14 'cdft' 0 18 'cftb040' 0 24 'cftb1st'
0 26 'cftbsub' 0 30 'cftf040' 0 36 'cftf081' 0 38 'cftf082' 0 41 'cftf161'
0 44 'cftf162' 0 47 'cftf1st' 0 50 'cftfsub' 0 54 'cftfx41' 0 60 'cftleaf'
0 65 'cftmdl1' 0 71 'cftmdl2' 0 75 'cftrec4' 0 79 'cfttree' 0 84 'cftx020'
0 91 'dctsub' 0 93 'ddct' 0 98 'ddst' 0 104 'dfct' 0 110 'dfst' 0 116
'dstsub' 0 122 'fft' 0 127 'makect' 0 128 'makeipt' 0 132 'makewt' 0 135
'rdft' 0 139 'rftbsub' 0 145 'rftfsub' 0 150)
