﻿ibin04_x5,x=(MAXX*ibin)/NBIN04_x5,P(x)04_x5,x/sigma04_x5,P*sigma04_x5
-2.000000E+02,-3.000000E+01,0.000000E+00,-5.314620E+00,0.000000E+00
-1.990000E+02,-2.985000E+01,0.000000E+00,-5.288040E+00,0.000000E+00
-1.980000E+02,-2.970000E+01,0.000000E+00,-5.261470E+00,0.000000E+00
-1.970000E+02,-2.955000E+01,0.000000E+00,-5.234900E+00,0.000000E+00
-1.960000E+02,-2.940000E+01,0.000000E+00,-5.208320E+00,0.000000E+00
-1.950000E+02,-2.925000E+01,0.000000E+00,-5.181750E+00,0.000000E+00
-1.940000E+02,-2.910000E+01,0.000000E+00,-5.155180E+00,0.000000E+00
-1.930000E+02,-2.895000E+01,0.000000E+00,-5.128600E+00,0.000000E+00
-1.920000E+02,-2.880000E+01,0.000000E+00,-5.102030E+00,0.000000E+00
-1.910000E+02,-2.865000E+01,0.000000E+00,-5.075460E+00,0.000000E+00
-1.900000E+02,-2.850000E+01,0.000000E+00,-5.048890E+00,0.000000E+00
-1.890000E+02,-2.835000E+01,0.000000E+00,-5.022310E+00,0.000000E+00
-1.880000E+02,-2.820000E+01,0.000000E+00,-4.995740E+00,0.000000E+00
-1.870000E+02,-2.805000E+01,0.000000E+00,-4.969170E+00,0.000000E+00
-1.860000E+02,-2.790000E+01,0.000000E+00,-4.942590E+00,0.000000E+00
-1.850000E+02,-2.775000E+01,0.000000E+00,-4.916020E+00,0.000000E+00
-1.840000E+02,-2.760000E+01,0.000000E+00,-4.889450E+00,0.000000E+00
-1.830000E+02,-2.745000E+01,0.000000E+00,-4.862870E+00,0.000000E+00
-1.820000E+02,-2.730000E+01,0.000000E+00,-4.836300E+00,0.000000E+00
-1.810000E+02,-2.715000E+01,0.000000E+00,-4.809730E+00,0.000000E+00
-1.800000E+02,-2.700000E+01,0.000000E+00,-4.783150E+00,0.000000E+00
-1.790000E+02,-2.685000E+01,0.000000E+00,-4.756580E+00,0.000000E+00
-1.780000E+02,-2.670000E+01,0.000000E+00,-4.730010E+00,0.000000E+00
-1.770000E+02,-2.655000E+01,0.000000E+00,-4.703440E+00,0.000000E+00
-1.760000E+02,-2.640000E+01,0.000000E+00,-4.676860E+00,0.000000E+00
-1.750000E+02,-2.625000E+01,0.000000E+00,-4.650290E+00,0.000000E+00
-1.740000E+02,-2.610000E+01,0.000000E+00,-4.623720E+00,0.000000E+00
-1.730000E+02,-2.595000E+01,0.000000E+00,-4.597140E+00,0.000000E+00
-1.720000E+02,-2.580000E+01,0.000000E+00,-4.570570E+00,0.000000E+00
-1.710000E+02,-2.565000E+01,0.000000E+00,-4.544000E+00,0.000000E+00
-1.700000E+02,-2.550000E+01,0.000000E+00,-4.517420E+00,0.000000E+00
-1.690000E+02,-2.535000E+01,0.000000E+00,-4.490850E+00,0.000000E+00
-1.680000E+02,-2.520000E+01,0.000000E+00,-4.464280E+00,0.000000E+00
-1.670000E+02,-2.505000E+01,0.000000E+00,-4.437700E+00,0.000000E+00
-1.660000E+02,-2.490000E+01,0.000000E+00,-4.411130E+00,0.000000E+00
-1.650000E+02,-2.475000E+01,0.000000E+00,-4.384560E+00,0.000000E+00
-1.640000E+02,-2.460000E+01,0.000000E+00,-4.357990E+00,0.000000E+00
-1.630000E+02,-2.445000E+01,0.000000E+00,-4.331410E+00,0.000000E+00
-1.620000E+02,-2.430000E+01,0.000000E+00,-4.304840E+00,0.000000E+00
-1.610000E+02,-2.415000E+01,0.000000E+00,-4.278270E+00,0.000000E+00
-1.600000E+02,-2.400000E+01,0.000000E+00,-4.251690E+00,0.000000E+00
-1.590000E+02,-2.385000E+01,0.000000E+00,-4.225120E+00,0.000000E+00
-1.580000E+02,-2.370000E+01,0.000000E+00,-4.198550E+00,0.000000E+00
-1.570000E+02,-2.355000E+01,0.000000E+00,-4.171970E+00,0.000000E+00
-1.560000E+02,-2.340000E+01,0.000000E+00,-4.145400E+00,0.000000E+00
-1.550000E+02,-2.325000E+01,0.000000E+00,-4.118830E+00,0.000000E+00
-1.540000E+02,-2.310000E+01,0.000000E+00,-4.092250E+00,0.000000E+00
-1.530000E+02,-2.295000E+01,0.000000E+00,-4.065680E+00,0.000000E+00
-1.520000E+02,-2.280000E+01,0.000000E+00,-4.039110E+00,0.000000E+00
-1.510000E+02,-2.265000E+01,0.000000E+00,-4.012540E+00,0.000000E+00
-1.500000E+02,-2.250000E+01,0.000000E+00,-3.985960E+00,0.000000E+00
-1.490000E+02,-2.235000E+01,0.000000E+00,-3.959390E+00,0.000000E+00
-1.480000E+02,-2.220000E+01,0.000000E+00,-3.932820E+00,0.000000E+00
-1.470000E+02,-2.205000E+01,0.000000E+00,-3.906240E+00,0.000000E+00
-1.460000E+02,-2.190000E+01,0.000000E+00,-3.879670E+00,0.000000E+00
-1.450000E+02,-2.175000E+01,0.000000E+00,-3.853100E+00,0.000000E+00
-1.440000E+02,-2.160000E+01,0.000000E+00,-3.826520E+00,0.000000E+00
-1.430000E+02,-2.145000E+01,0.000000E+00,-3.799950E+00,0.000000E+00
-1.420000E+02,-2.130000E+01,0.000000E+00,-3.773380E+00,0.000000E+00
-1.410000E+02,-2.115000E+01,0.000000E+00,-3.746800E+00,0.000000E+00
-1.400000E+02,-2.100000E+01,0.000000E+00,-3.720230E+00,0.000000E+00
-1.390000E+02,-2.085000E+01,0.000000E+00,-3.693660E+00,0.000000E+00
-1.380000E+02,-2.070000E+01,0.000000E+00,-3.667090E+00,0.000000E+00
-1.370000E+02,-2.055000E+01,0.000000E+00,-3.640510E+00,0.000000E+00
-1.360000E+02,-2.040000E+01,0.000000E+00,-3.613940E+00,0.000000E+00
-1.350000E+02,-2.025000E+01,0.000000E+00,-3.587370E+00,0.000000E+00
-1.340000E+02,-2.010000E+01,0.000000E+00,-3.560790E+00,0.000000E+00
-1.330000E+02,-1.995000E+01,0.000000E+00,-3.534220E+00,0.000000E+00
-1.320000E+02,-1.980000E+01,0.000000E+00,-3.507650E+00,0.000000E+00
-1.310000E+02,-1.965000E+01,0.000000E+00,-3.481070E+00,0.000000E+00
-1.300000E+02,-1.950000E+01,0.000000E+00,-3.454500E+00,0.000000E+00
-1.290000E+02,-1.935000E+01,0.000000E+00,-3.427930E+00,0.000000E+00
-1.280000E+02,-1.920000E+01,0.000000E+00,-3.401350E+00,0.000000E+00
-1.270000E+02,-1.905000E+01,0.000000E+00,-3.374780E+00,0.000000E+00
-1.260000E+02,-1.890000E+01,0.000000E+00,-3.348210E+00,0.000000E+00
-1.250000E+02,-1.875000E+01,0.000000E+00,-3.321630E+00,0.000000E+00
-1.240000E+02,-1.860000E+01,0.000000E+00,-3.295060E+00,0.000000E+00
-1.230000E+02,-1.845000E+01,0.000000E+00,-3.268490E+00,0.000000E+00
-1.220000E+02,-1.830000E+01,0.000000E+00,-3.241920E+00,0.000000E+00
-1.210000E+02,-1.815000E+01,0.000000E+00,-3.215340E+00,0.000000E+00
-1.200000E+02,-1.800000E+01,0.000000E+00,-3.188770E+00,0.000000E+00
-1.190000E+02,-1.785000E+01,0.000000E+00,-3.162200E+00,0.000000E+00
-1.180000E+02,-1.770000E+01,0.000000E+00,-3.135620E+00,0.000000E+00
-1.170000E+02,-1.755000E+01,0.000000E+00,-3.109050E+00,0.000000E+00
-1.160000E+02,-1.740000E+01,0.000000E+00,-3.082480E+00,0.000000E+00
-1.150000E+02,-1.725000E+01,0.000000E+00,-3.055900E+00,0.000000E+00
-1.140000E+02,-1.710000E+01,0.000000E+00,-3.029330E+00,0.000000E+00
-1.130000E+02,-1.695000E+01,0.000000E+00,-3.002760E+00,0.000000E+00
-1.120000E+02,-1.680000E+01,0.000000E+00,-2.976180E+00,0.000000E+00
-1.110000E+02,-1.665000E+01,0.000000E+00,-2.949610E+00,0.000000E+00
-1.100000E+02,-1.650000E+01,0.000000E+00,-2.923040E+00,0.000000E+00
-1.090000E+02,-1.635000E+01,0.000000E+00,-2.896470E+00,0.000000E+00
-1.080000E+02,-1.620000E+01,0.000000E+00,-2.869890E+00,0.000000E+00
-1.070000E+02,-1.605000E+01,0.000000E+00,-2.843320E+00,0.000000E+00
-1.060000E+02,-1.590000E+01,0.000000E+00,-2.816750E+00,0.000000E+00
-1.050000E+02,-1.575000E+01,0.000000E+00,-2.790170E+00,0.000000E+00
-1.040000E+02,-1.560000E+01,0.000000E+00,-2.763600E+00,0.000000E+00
-1.030000E+02,-1.545000E+01,0.000000E+00,-2.737030E+00,0.000000E+00
-1.020000E+02,-1.530000E+01,0.000000E+00,-2.710450E+00,0.000000E+00
-1.010000E+02,-1.515000E+01,0.000000E+00,-2.683880E+00,0.000000E+00
-1.000000E+02,-1.500000E+01,0.000000E+00,-2.657310E+00,0.000000E+00
-9.900000E+01,-1.485000E+01,0.000000E+00,-2.630730E+00,0.000000E+00
-9.800000E+01,-1.470000E+01,0.000000E+00,-2.604160E+00,0.000000E+00
-9.700000E+01,-1.455000E+01,0.000000E+00,-2.577590E+00,0.000000E+00
-9.600000E+01,-1.440000E+01,0.000000E+00,-2.551020E+00,0.000000E+00
-9.500000E+01,-1.425000E+01,0.000000E+00,-2.524440E+00,0.000000E+00
-9.400000E+01,-1.410000E+01,0.000000E+00,-2.497870E+00,0.000000E+00
-9.300000E+01,-1.395000E+01,0.000000E+00,-2.471300E+00,0.000000E+00
-9.200000E+01,-1.380000E+01,0.000000E+00,-2.444720E+00,0.000000E+00
-9.100000E+01,-1.365000E+01,0.000000E+00,-2.418150E+00,0.000000E+00
-9.000000E+01,-1.350000E+01,0.000000E+00,-2.391580E+00,0.000000E+00
-8.900000E+01,-1.335000E+01,0.000000E+00,-2.365000E+00,0.000000E+00
-8.800000E+01,-1.320000E+01,0.000000E+00,-2.338430E+00,0.000000E+00
-8.700000E+01,-1.305000E+01,0.000000E+00,-2.311860E+00,0.000000E+00
-8.600000E+01,-1.290000E+01,0.000000E+00,-2.285280E+00,0.000000E+00
-8.500000E+01,-1.275000E+01,0.000000E+00,-2.258710E+00,0.000000E+00
-8.400000E+01,-1.260000E+01,0.000000E+00,-2.232140E+00,0.000000E+00
-8.300000E+01,-1.245000E+01,0.000000E+00,-2.205570E+00,0.000000E+00
-8.200000E+01,-1.230000E+01,0.000000E+00,-2.178990E+00,0.000000E+00
-8.100000E+01,-1.215000E+01,0.000000E+00,-2.152420E+00,0.000000E+00
-8.000000E+01,-1.200000E+01,0.000000E+00,-2.125850E+00,0.000000E+00
-7.900000E+01,-1.185000E+01,0.000000E+00,-2.099270E+00,0.000000E+00
-7.800000E+01,-1.170000E+01,0.000000E+00,-2.072700E+00,0.000000E+00
-7.700000E+01,-1.155000E+01,0.000000E+00,-2.046130E+00,0.000000E+00
-7.600000E+01,-1.140000E+01,0.000000E+00,-2.019550E+00,0.000000E+00
-7.500000E+01,-1.125000E+01,0.000000E+00,-1.992980E+00,0.000000E+00
-7.400000E+01,-1.110000E+01,0.000000E+00,-1.966410E+00,0.000000E+00
-7.300000E+01,-1.095000E+01,0.000000E+00,-1.939830E+00,0.000000E+00
-7.200000E+01,-1.080000E+01,0.000000E+00,-1.913260E+00,0.000000E+00
-7.100000E+01,-1.065000E+01,0.000000E+00,-1.886690E+00,0.000000E+00
-7.000000E+01,-1.050000E+01,0.000000E+00,-1.860120E+00,0.000000E+00
-6.900000E+01,-1.035000E+01,0.000000E+00,-1.833540E+00,0.000000E+00
-6.800000E+01,-1.020000E+01,0.000000E+00,-1.806970E+00,0.000000E+00
-6.700000E+01,-1.005000E+01,0.000000E+00,-1.780400E+00,0.000000E+00
-6.600000E+01,-9.900000E+00,0.000000E+00,-1.753820E+00,0.000000E+00
-6.500000E+01,-9.750000E+00,0.000000E+00,-1.727250E+00,0.000000E+00
-6.400000E+01,-9.600000E+00,0.000000E+00,-1.700680E+00,0.000000E+00
-6.300000E+01,-9.450000E+00,0.000000E+00,-1.674100E+00,0.000000E+00
-6.200000E+01,-9.300000E+00,0.000000E+00,-1.647530E+00,0.000000E+00
-6.100000E+01,-9.150000E+00,0.000000E+00,-1.620960E+00,0.000000E+00
-6.000000E+01,-9.000000E+00,0.000000E+00,-1.594380E+00,0.000000E+00
-5.900000E+01,-8.850000E+00,0.000000E+00,-1.567810E+00,0.000000E+00
-5.800000E+01,-8.700000E+00,0.000000E+00,-1.541240E+00,0.000000E+00
-5.700000E+01,-8.550000E+00,0.000000E+00,-1.514670E+00,0.000000E+00
-5.600000E+01,-8.400000E+00,0.000000E+00,-1.488090E+00,0.000000E+00
-5.500000E+01,-8.250000E+00,0.000000E+00,-1.461520E+00,0.000000E+00
-5.400000E+01,-8.100000E+00,0.000000E+00,-1.434950E+00,0.000000E+00
-5.300000E+01,-7.950000E+00,0.000000E+00,-1.408370E+00,0.000000E+00
-5.200000E+01,-7.800000E+00,0.000000E+00,-1.381800E+00,0.000000E+00
-5.100000E+01,-7.650000E+00,0.000000E+00,-1.355230E+00,0.000000E+00
-5.000000E+01,-7.500000E+00,0.000000E+00,-1.328650E+00,0.000000E+00
-4.900000E+01,-7.350000E+00,0.000000E+00,-1.302080E+00,0.000000E+00
-4.800000E+01,-7.200000E+00,0.000000E+00,-1.275510E+00,0.000000E+00
-4.700000E+01,-7.050000E+00,0.000000E+00,-1.248930E+00,0.000000E+00
-4.600000E+01,-6.900000E+00,0.000000E+00,-1.222360E+00,0.000000E+00
-4.500000E+01,-6.750000E+00,0.000000E+00,-1.195790E+00,0.000000E+00
-4.400000E+01,-6.600000E+00,0.000000E+00,-1.169220E+00,0.000000E+00
-4.300000E+01,-6.450000E+00,0.000000E+00,-1.142640E+00,0.000000E+00
-4.200000E+01,-6.300000E+00,0.000000E+00,-1.116070E+00,0.000000E+00
-4.100000E+01,-6.150000E+00,0.000000E+00,-1.089500E+00,0.000000E+00
-4.000000E+01,-6.000000E+00,0.000000E+00,-1.062920E+00,0.000000E+00
-3.900000E+01,-5.850000E+00,0.000000E+00,-1.036350E+00,0.000000E+00
-3.800000E+01,-5.700000E+00,0.000000E+00,-1.009780E+00,0.000000E+00
-3.700000E+01,-5.550000E+00,0.000000E+00,-9.832040E-01,0.000000E+00
-3.600000E+01,-5.400000E+00,0.000000E+00,-9.566310E-01,0.000000E+00
-3.500000E+01,-5.250000E+00,0.000000E+00,-9.300580E-01,0.000000E+00
-3.400000E+01,-5.100000E+00,0.000000E+00,-9.034850E-01,0.000000E+00
-3.300000E+01,-4.950000E+00,0.000000E+00,-8.769120E-01,0.000000E+00
-3.200000E+01,-4.800000E+00,0.000000E+00,-8.503390E-01,0.000000E+00
-3.100000E+01,-4.650000E+00,0.000000E+00,-8.237650E-01,0.000000E+00
-3.000000E+01,-4.500000E+00,0.000000E+00,-7.971920E-01,0.000000E+00
-2.900000E+01,-4.350000E+00,0.000000E+00,-7.706190E-01,0.000000E+00
-2.800000E+01,-4.200000E+00,0.000000E+00,-7.440460E-01,0.000000E+00
-2.700000E+01,-4.050000E+00,0.000000E+00,-7.174730E-01,0.000000E+00
-2.600000E+01,-3.900000E+00,0.000000E+00,-6.909000E-01,0.000000E+00
-2.500000E+01,-3.750000E+00,0.000000E+00,-6.643270E-01,0.000000E+00
-2.400000E+01,-3.600000E+00,0.000000E+00,-6.377540E-01,0.000000E+00
-2.300000E+01,-3.450000E+00,0.000000E+00,-6.111810E-01,0.000000E+00
-2.200000E+01,-3.300000E+00,0.000000E+00,-5.846080E-01,0.000000E+00
-2.100000E+01,-3.150000E+00,0.000000E+00,-5.580350E-01,0.000000E+00
-2.000000E+01,-3.000000E+00,0.000000E+00,-5.314620E-01,0.000000E+00
-1.900000E+01,-2.850000E+00,0.000000E+00,-5.048890E-01,0.000000E+00
-1.800000E+01,-2.700000E+00,0.000000E+00,-4.783150E-01,0.000000E+00
-1.700000E+01,-2.550000E+00,0.000000E+00,-4.517420E-01,0.000000E+00
-1.600000E+01,-2.400000E+00,0.000000E+00,-4.251690E-01,0.000000E+00
-1.500000E+01,-2.250000E+00,0.000000E+00,-3.985960E-01,0.000000E+00
-1.400000E+01,-2.100000E+00,0.000000E+00,-3.720230E-01,0.000000E+00
-1.300000E+01,-1.950000E+00,0.000000E+00,-3.454500E-01,0.000000E+00
-1.200000E+01,-1.800000E+00,0.000000E+00,-3.188770E-01,0.000000E+00
-1.100000E+01,-1.650000E+00,0.000000E+00,-2.923040E-01,0.000000E+00
-1.000000E+01,-1.500000E+00,0.000000E+00,-2.657310E-01,0.000000E+00
-9.000000E+00,-1.350000E+00,0.000000E+00,-2.391580E-01,0.000000E+00
-8.000000E+00,-1.200000E+00,0.000000E+00,-2.125850E-01,0.000000E+00
-7.000000E+00,-1.050000E+00,0.000000E+00,-1.860120E-01,0.000000E+00
-6.000000E+00,-9.000000E-01,0.000000E+00,-1.594380E-01,0.000000E+00
-5.000000E+00,-7.500000E-01,0.000000E+00,-1.328650E-01,0.000000E+00
-4.000000E+00,-6.000000E-01,1.333330E-04,-1.062920E-01,7.526410E-04
-3.000000E+00,-4.500000E-01,1.933330E-03,-7.971920E-02,1.091330E-02
-2.000000E+00,-3.000000E-01,7.933330E-03,-5.314620E-02,4.478220E-02
-1.000000E+00,-1.500000E-01,1.660000E-02,-2.657310E-02,9.370390E-02
0.000000E+00,0.000000E+00,2.200000E-02,0.000000E+00,1.241860E-01
1.000000E+00,1.500000E-01,2.740000E-02,2.657310E-02,1.546680E-01
2.000000E+00,3.000000E-01,3.266670E-02,5.314620E-02,1.843970E-01
3.000000E+00,4.500000E-01,3.926670E-02,7.971920E-02,2.216530E-01
4.000000E+00,6.000000E-01,4.193330E-02,1.062920E-01,2.367060E-01
5.000000E+00,7.500000E-01,4.833330E-02,1.328650E-01,2.728330E-01
6.000000E+00,9.000000E-01,5.286670E-02,1.594380E-01,2.984220E-01
7.000000E+00,1.050000E+00,5.333330E-02,1.860120E-01,3.010570E-01
8.000000E+00,1.200000E+00,6.286670E-02,2.125850E-01,3.548700E-01
9.000000E+00,1.350000E+00,6.593330E-02,2.391580E-01,3.721810E-01
1.000000E+01,1.500000E+00,6.586670E-02,2.657310E-01,3.718050E-01
1.100000E+01,1.650000E+00,7.186670E-02,2.923040E-01,4.056740E-01
1.200000E+01,1.800000E+00,8.066670E-02,3.188770E-01,4.553480E-01
1.300000E+01,1.950000E+00,8.293330E-02,3.454500E-01,4.681430E-01
1.400000E+01,2.100000E+00,8.880000E-02,3.720230E-01,5.012590E-01
1.500000E+01,2.250000E+00,9.200000E-02,3.985960E-01,5.193230E-01
1.600000E+01,2.400000E+00,9.580000E-02,4.251690E-01,5.407730E-01
1.700000E+01,2.550000E+00,1.054670E-01,4.517420E-01,5.953390E-01
1.800000E+01,2.700000E+00,1.066670E-01,4.783150E-01,6.021130E-01
1.900000E+01,2.850000E+00,1.103330E-01,5.048890E-01,6.228110E-01
2.000000E+01,3.000000E+00,1.180000E-01,5.314620E-01,6.660880E-01
2.100000E+01,3.150000E+00,1.184670E-01,5.580350E-01,6.687220E-01
2.200000E+01,3.300000E+00,1.250000E-01,5.846080E-01,7.056010E-01
2.300000E+01,3.450000E+00,1.341330E-01,6.111810E-01,7.571570E-01
2.400000E+01,3.600000E+00,1.382670E-01,6.377540E-01,7.804890E-01
2.500000E+01,3.750000E+00,1.368000E-01,6.643270E-01,7.722100E-01
2.600000E+01,3.900000E+00,1.474000E-01,6.909000E-01,8.320450E-01
2.700000E+01,4.050000E+00,1.446670E-01,7.174730E-01,8.166160E-01
2.800000E+01,4.200000E+00,1.445330E-01,7.440460E-01,8.158630E-01
2.900000E+01,4.350000E+00,1.546000E-01,7.706190E-01,8.726880E-01
3.000000E+01,4.500000E+00,1.500670E-01,7.971920E-01,8.470980E-01
3.100000E+01,4.650000E+00,1.529330E-01,8.237650E-01,8.632800E-01
3.200000E+01,4.800000E+00,1.553330E-01,8.503390E-01,8.768270E-01
3.300000E+01,4.950000E+00,1.536670E-01,8.769120E-01,8.674190E-01
3.400000E+01,5.100000E+00,1.518000E-01,9.034850E-01,8.568820E-01
3.500000E+01,5.250000E+00,1.550670E-01,9.300580E-01,8.753220E-01
3.600000E+01,5.400000E+00,1.522000E-01,9.566310E-01,8.591400E-01
3.700000E+01,5.550000E+00,1.576670E-01,9.832040E-01,8.899980E-01
3.800000E+01,5.700000E+00,1.474670E-01,1.009780E+00,8.324210E-01
3.900000E+01,5.850000E+00,1.487330E-01,1.036350E+00,8.395710E-01
4.000000E+01,6.000000E+00,1.434000E-01,1.062920E+00,8.094660E-01
4.100000E+01,6.150000E+00,1.406670E-01,1.089500E+00,7.940370E-01
4.200000E+01,6.300000E+00,1.304000E-01,1.116070E+00,7.360830E-01
4.300000E+01,6.450000E+00,1.275330E-01,1.142640E+00,7.199010E-01
4.400000E+01,6.600000E+00,1.288000E-01,1.169220E+00,7.270520E-01
4.500000E+01,6.750000E+00,1.235330E-01,1.195790E+00,6.973220E-01
4.600000E+01,6.900000E+00,1.172670E-01,1.222360E+00,6.619480E-01
4.700000E+01,7.050000E+00,1.152670E-01,1.248930E+00,6.506580E-01
4.800000E+01,7.200000E+00,1.060670E-01,1.275510E+00,5.987260E-01
4.900000E+01,7.350000E+00,9.993330E-02,1.302080E+00,5.641050E-01
5.000000E+01,7.500000E+00,1.036000E-01,1.328650E+00,5.848020E-01
5.100000E+01,7.650000E+00,8.953330E-02,1.355230E+00,5.053990E-01
5.200000E+01,7.800000E+00,8.986670E-02,1.381800E+00,5.072800E-01
5.300000E+01,7.950000E+00,7.986670E-02,1.408370E+00,4.508320E-01
5.400000E+01,8.100000E+00,7.513330E-02,1.434950E+00,4.241130E-01
5.500000E+01,8.250000E+00,7.086670E-02,1.461520E+00,4.000290E-01
5.600000E+01,8.400000E+00,6.386670E-02,1.488090E+00,3.605150E-01
5.700000E+01,8.550000E+00,5.853330E-02,1.514670E+00,3.304100E-01
5.800000E+01,8.700000E+00,5.513330E-02,1.541240E+00,3.112170E-01
5.900000E+01,8.850000E+00,5.246670E-02,1.567810E+00,2.961640E-01
6.000000E+01,9.000000E+00,4.680000E-02,1.594380E+00,2.641770E-01
6.100000E+01,9.150000E+00,4.140000E-02,1.620960E+00,2.336950E-01
6.200000E+01,9.300000E+00,4.173330E-02,1.647530E+00,2.355770E-01
6.300000E+01,9.450000E+00,3.673330E-02,1.674100E+00,2.073530E-01
6.400000E+01,9.600000E+00,3.300000E-02,1.700680E+00,1.862790E-01
6.500000E+01,9.750000E+00,2.933330E-02,1.727250E+00,1.655810E-01
6.600000E+01,9.900000E+00,2.473330E-02,1.753820E+00,1.396150E-01
6.700000E+01,1.005000E+01,2.493330E-02,1.780400E+00,1.407440E-01
6.800000E+01,1.020000E+01,1.946670E-02,1.806970E+00,1.098860E-01
6.900000E+01,1.035000E+01,1.806670E-02,1.833540E+00,1.019830E-01
7.000000E+01,1.050000E+01,1.546670E-02,1.860120E+00,8.730640E-02
7.100000E+01,1.065000E+01,1.326670E-02,1.886690E+00,7.488780E-02
7.200000E+01,1.080000E+01,1.446670E-02,1.913260E+00,8.166160E-02
7.300000E+01,1.095000E+01,1.086670E-02,1.939830E+00,6.134030E-02
7.400000E+01,1.110000E+01,9.733330E-03,1.966410E+00,5.494280E-02
7.500000E+01,1.125000E+01,8.266670E-03,1.992980E+00,4.666380E-02
7.600000E+01,1.140000E+01,7.533330E-03,2.019550E+00,4.252420E-02
7.700000E+01,1.155000E+01,6.000000E-03,2.046130E+00,3.386890E-02
7.800000E+01,1.170000E+01,5.000000E-03,2.072700E+00,2.822410E-02
7.900000E+01,1.185000E+01,4.066670E-03,2.099270E+00,2.295560E-02
8.000000E+01,1.200000E+01,3.000000E-03,2.125850E+00,1.693440E-02
8.100000E+01,1.215000E+01,3.866670E-03,2.152420E+00,2.182660E-02
8.200000E+01,1.230000E+01,2.533330E-03,2.178990E+00,1.430020E-02
8.300000E+01,1.245000E+01,2.266670E-03,2.205570E+00,1.279490E-02
8.400000E+01,1.260000E+01,2.466670E-03,2.232140E+00,1.392390E-02
8.500000E+01,1.275000E+01,1.933330E-03,2.258710E+00,1.091330E-02
8.600000E+01,1.290000E+01,1.000000E-03,2.285280E+00,5.644810E-03
8.700000E+01,1.305000E+01,1.266670E-03,2.311860E+00,7.150090E-03
8.800000E+01,1.320000E+01,9.333330E-04,2.338430E+00,5.268490E-03
8.900000E+01,1.335000E+01,8.000000E-04,2.365000E+00,4.515850E-03
9.000000E+01,1.350000E+01,1.000000E-03,2.391580E+00,5.644810E-03
9.100000E+01,1.365000E+01,1.333330E-04,2.418150E+00,7.526410E-04
9.200000E+01,1.380000E+01,5.333330E-04,2.444720E+00,3.010570E-03
9.300000E+01,1.395000E+01,4.000000E-04,2.471300E+00,2.257920E-03
9.400000E+01,1.410000E+01,2.666670E-04,2.497870E+00,1.505280E-03
9.500000E+01,1.425000E+01,2.666670E-04,2.524440E+00,1.505280E-03
9.600000E+01,1.440000E+01,1.333330E-04,2.551020E+00,7.526410E-04
9.700000E+01,1.455000E+01,2.000000E-04,2.577590E+00,1.128960E-03
9.800000E+01,1.470000E+01,1.333330E-04,2.604160E+00,7.526410E-04
9.900000E+01,1.485000E+01,1.333330E-04,2.630730E+00,7.526410E-04
1.000000E+02,1.500000E+01,6.666670E-05,2.657310E+00,3.763210E-04
1.010000E+02,1.515000E+01,2.000000E-04,2.683880E+00,1.128960E-03
1.020000E+02,1.530000E+01,6.666670E-05,2.710450E+00,3.763210E-04
1.030000E+02,1.545000E+01,0.000000E+00,2.737030E+00,0.000000E+00
1.040000E+02,1.560000E+01,0.000000E+00,2.763600E+00,0.000000E+00
1.050000E+02,1.575000E+01,6.666670E-05,2.790170E+00,3.763210E-04
1.060000E+02,1.590000E+01,0.000000E+00,2.816750E+00,0.000000E+00
1.070000E+02,1.605000E+01,0.000000E+00,2.843320E+00,0.000000E+00
1.080000E+02,1.620000E+01,0.000000E+00,2.869890E+00,0.000000E+00
1.090000E+02,1.635000E+01,0.000000E+00,2.896470E+00,0.000000E+00
1.100000E+02,1.650000E+01,0.000000E+00,2.923040E+00,0.000000E+00
1.110000E+02,1.665000E+01,0.000000E+00,2.949610E+00,0.000000E+00
1.120000E+02,1.680000E+01,0.000000E+00,2.976180E+00,0.000000E+00
1.130000E+02,1.695000E+01,0.000000E+00,3.002760E+00,0.000000E+00
1.140000E+02,1.710000E+01,0.000000E+00,3.029330E+00,0.000000E+00
1.150000E+02,1.725000E+01,0.000000E+00,3.055900E+00,0.000000E+00
1.160000E+02,1.740000E+01,0.000000E+00,3.082480E+00,0.000000E+00
1.170000E+02,1.755000E+01,0.000000E+00,3.109050E+00,0.000000E+00
1.180000E+02,1.770000E+01,0.000000E+00,3.135620E+00,0.000000E+00
1.190000E+02,1.785000E+01,0.000000E+00,3.162200E+00,0.000000E+00
1.200000E+02,1.800000E+01,0.000000E+00,3.188770E+00,0.000000E+00
1.210000E+02,1.815000E+01,0.000000E+00,3.215340E+00,0.000000E+00
1.220000E+02,1.830000E+01,0.000000E+00,3.241920E+00,0.000000E+00
1.230000E+02,1.845000E+01,0.000000E+00,3.268490E+00,0.000000E+00
1.240000E+02,1.860000E+01,0.000000E+00,3.295060E+00,0.000000E+00
1.250000E+02,1.875000E+01,0.000000E+00,3.321630E+00,0.000000E+00
1.260000E+02,1.890000E+01,0.000000E+00,3.348210E+00,0.000000E+00
1.270000E+02,1.905000E+01,0.000000E+00,3.374780E+00,0.000000E+00
1.280000E+02,1.920000E+01,0.000000E+00,3.401350E+00,0.000000E+00
1.290000E+02,1.935000E+01,0.000000E+00,3.427930E+00,0.000000E+00
1.300000E+02,1.950000E+01,0.000000E+00,3.454500E+00,0.000000E+00
1.310000E+02,1.965000E+01,0.000000E+00,3.481070E+00,0.000000E+00
1.320000E+02,1.980000E+01,0.000000E+00,3.507650E+00,0.000000E+00
1.330000E+02,1.995000E+01,0.000000E+00,3.534220E+00,0.000000E+00
1.340000E+02,2.010000E+01,0.000000E+00,3.560790E+00,0.000000E+00
1.350000E+02,2.025000E+01,0.000000E+00,3.587370E+00,0.000000E+00
1.360000E+02,2.040000E+01,0.000000E+00,3.613940E+00,0.000000E+00
1.370000E+02,2.055000E+01,0.000000E+00,3.640510E+00,0.000000E+00
1.380000E+02,2.070000E+01,0.000000E+00,3.667090E+00,0.000000E+00
1.390000E+02,2.085000E+01,0.000000E+00,3.693660E+00,0.000000E+00
1.400000E+02,2.100000E+01,0.000000E+00,3.720230E+00,0.000000E+00
1.410000E+02,2.115000E+01,0.000000E+00,3.746800E+00,0.000000E+00
1.420000E+02,2.130000E+01,0.000000E+00,3.773380E+00,0.000000E+00
1.430000E+02,2.145000E+01,0.000000E+00,3.799950E+00,0.000000E+00
1.440000E+02,2.160000E+01,0.000000E+00,3.826520E+00,0.000000E+00
1.450000E+02,2.175000E+01,0.000000E+00,3.853100E+00,0.000000E+00
1.460000E+02,2.190000E+01,0.000000E+00,3.879670E+00,0.000000E+00
1.470000E+02,2.205000E+01,0.000000E+00,3.906240E+00,0.000000E+00
1.480000E+02,2.220000E+01,0.000000E+00,3.932820E+00,0.000000E+00
1.490000E+02,2.235000E+01,0.000000E+00,3.959390E+00,0.000000E+00
1.500000E+02,2.250000E+01,0.000000E+00,3.985960E+00,0.000000E+00
1.510000E+02,2.265000E+01,0.000000E+00,4.012540E+00,0.000000E+00
1.520000E+02,2.280000E+01,0.000000E+00,4.039110E+00,0.000000E+00
1.530000E+02,2.295000E+01,0.000000E+00,4.065680E+00,0.000000E+00
1.540000E+02,2.310000E+01,0.000000E+00,4.092250E+00,0.000000E+00
1.550000E+02,2.325000E+01,0.000000E+00,4.118830E+00,0.000000E+00
1.560000E+02,2.340000E+01,0.000000E+00,4.145400E+00,0.000000E+00
1.570000E+02,2.355000E+01,0.000000E+00,4.171970E+00,0.000000E+00
1.580000E+02,2.370000E+01,0.000000E+00,4.198550E+00,0.000000E+00
1.590000E+02,2.385000E+01,0.000000E+00,4.225120E+00,0.000000E+00
1.600000E+02,2.400000E+01,0.000000E+00,4.251690E+00,0.000000E+00
1.610000E+02,2.415000E+01,0.000000E+00,4.278270E+00,0.000000E+00
1.620000E+02,2.430000E+01,0.000000E+00,4.304840E+00,0.000000E+00
1.630000E+02,2.445000E+01,0.000000E+00,4.331410E+00,0.000000E+00
1.640000E+02,2.460000E+01,0.000000E+00,4.357990E+00,0.000000E+00
1.650000E+02,2.475000E+01,0.000000E+00,4.384560E+00,0.000000E+00
1.660000E+02,2.490000E+01,0.000000E+00,4.411130E+00,0.000000E+00
1.670000E+02,2.505000E+01,0.000000E+00,4.437700E+00,0.000000E+00
1.680000E+02,2.520000E+01,0.000000E+00,4.464280E+00,0.000000E+00
1.690000E+02,2.535000E+01,0.000000E+00,4.490850E+00,0.000000E+00
1.700000E+02,2.550000E+01,0.000000E+00,4.517420E+00,0.000000E+00
1.710000E+02,2.565000E+01,0.000000E+00,4.544000E+00,0.000000E+00
1.720000E+02,2.580000E+01,0.000000E+00,4.570570E+00,0.000000E+00
1.730000E+02,2.595000E+01,0.000000E+00,4.597140E+00,0.000000E+00
1.740000E+02,2.610000E+01,0.000000E+00,4.623720E+00,0.000000E+00
1.750000E+02,2.625000E+01,0.000000E+00,4.650290E+00,0.000000E+00
1.760000E+02,2.640000E+01,0.000000E+00,4.676860E+00,0.000000E+00
1.770000E+02,2.655000E+01,0.000000E+00,4.703440E+00,0.000000E+00
1.780000E+02,2.670000E+01,0.000000E+00,4.730010E+00,0.000000E+00
1.790000E+02,2.685000E+01,0.000000E+00,4.756580E+00,0.000000E+00
1.800000E+02,2.700000E+01,0.000000E+00,4.783150E+00,0.000000E+00
1.810000E+02,2.715000E+01,0.000000E+00,4.809730E+00,0.000000E+00
1.820000E+02,2.730000E+01,0.000000E+00,4.836300E+00,0.000000E+00
1.830000E+02,2.745000E+01,0.000000E+00,4.862870E+00,0.000000E+00
1.840000E+02,2.760000E+01,0.000000E+00,4.889450E+00,0.000000E+00
1.850000E+02,2.775000E+01,0.000000E+00,4.916020E+00,0.000000E+00
1.860000E+02,2.790000E+01,0.000000E+00,4.942590E+00,0.000000E+00
1.870000E+02,2.805000E+01,0.000000E+00,4.969170E+00,0.000000E+00
1.880000E+02,2.820000E+01,0.000000E+00,4.995740E+00,0.000000E+00
1.890000E+02,2.835000E+01,0.000000E+00,5.022310E+00,0.000000E+00
1.900000E+02,2.850000E+01,0.000000E+00,5.048890E+00,0.000000E+00
1.910000E+02,2.865000E+01,0.000000E+00,5.075460E+00,0.000000E+00
1.920000E+02,2.880000E+01,0.000000E+00,5.102030E+00,0.000000E+00
1.930000E+02,2.895000E+01,0.000000E+00,5.128600E+00,0.000000E+00
1.940000E+02,2.910000E+01,0.000000E+00,5.155180E+00,0.000000E+00
1.950000E+02,2.925000E+01,0.000000E+00,5.181750E+00,0.000000E+00
1.960000E+02,2.940000E+01,0.000000E+00,5.208320E+00,0.000000E+00
1.970000E+02,2.955000E+01,0.000000E+00,5.234900E+00,0.000000E+00
1.980000E+02,2.970000E+01,0.000000E+00,5.261470E+00,0.000000E+00
1.990000E+02,2.985000E+01,0.000000E+00,5.288040E+00,0.000000E+00
2.000000E+02,3.000000E+01,0.000000E+00,5.314620E+00,0.000000E+00
