   2500000.00000000     
   2502977.15094511     
   2534118.40429337     
   2602909.93634697     
   2682908.24764312     
   2743673.57176344     
   2775907.96602646     
   2787082.24870272     
   2789056.66498641     
   2788635.17251426     
   2790888.85764768     
   2798050.15842552     
   2808673.86570028     
   2821744.94208188     
   2835716.54715394     
   2849702.29182368     
   2861317.57525681     
   2870134.23558644     
   2876967.71833707     
   2883779.88478220     
   2891096.71540169     
   2897873.94717905     
   2904051.15934956     
   2910743.82005197     
   2918421.53955017     
   2927856.44346547     
   2936528.71799145     
   2942744.67436652     
   2948649.46306316     
   2956504.46628069     
   2965992.72538981     
   2972434.29667448     
   2978862.18605390     
   2992426.51974085     
   3008179.53638869     
   3018005.93125921     
   3024882.58005284     
   3034039.77493486     
   3043564.11537462     
   3053707.92043727     
   3068950.82848238     
   3080609.84222819     
   3080777.74504413     
   3092197.53188390     
   3111320.29787206     
   3132018.91674383     
   3138717.93919969     
   3157345.69581648     
   3173902.25720375     
   3182056.12130672     
   3190720.91672775     
   3212539.02350952     
   3231501.38212780     
   3246427.35352725     
   3256105.92075985     
   3271813.66296294     
   3278179.08490082     
   3299286.22142019     
   3319630.94292264     
   3336230.27918009     
   3355729.81243199     
   3383130.85217541     
   3391381.90125067     
   3423424.37574271     
   3436568.61712005     
   3444329.56128568     
   3461995.78552565     
   3477623.21348981     
   3501499.22975180     
   3523937.93988932     
   3530402.72154844     
   3554888.56542017     
   3570649.50717759     
   3600833.94774048     
   3620612.30718188     
   3648825.82324033     
   3663254.74887547     
   3680557.02144486     
   3718306.35911404     
   3741788.55132848     
   3766010.88441845     
   3778989.52848750     
   3808559.10716655     
   3829374.98663831     
   3859856.46827368     
   3889987.51364680     
   3931298.34913936     
   3970446.23921097     
   3993764.74818312     
   4033091.81846921     
   4064810.57715716     
   4097515.86754023     
   4120511.55599454     
   4162628.05534826     
   4178321.17426672     
   4228598.25481149     
   4262051.80427167     
   4288825.83746757     
   4331924.55499229     
   4367202.72042902     
   4394640.18397391     
   4422979.19166422     
   4469238.49615880     
   4499431.90219607     
   4532434.79112642     
   4569151.66360385     
   4611841.53836973     
   4668821.85268298     
   4700678.98125190     
   4724320.41914945     
   4795498.26069406     
   4840187.37906746     
   4888532.34095515     
   4943062.65781094     
   4979105.56080258     
   5032175.76107098     
   5076288.67188514     
   5142799.50029527     
   5171808.04055580     
   5226798.66385596     
   5281526.03106600     
   5346320.22916626     
   5394725.70477161     
   5445622.06749548     
   5487805.85058830     
   5544622.46533700     
   5613492.45547774     
   5690597.42460267     
   5736991.01844603     
   5809294.87318690     
   5859369.96522592     
   5918549.50453140     
   5985631.96124564     
   6061822.01397327     
   6140356.44820030     
   6194818.20289005     
   6261752.39955056     
   6350980.49307645     
   6430806.04594657     
   6474684.97566221     
   6539937.51762343     
   6635064.87182856     
   6726732.12886541     
   6808970.34189692     
   6888448.68045559     
   6972779.60134707     
   7059392.10470532     
   7181618.78461901     
   7257287.90728808     
   7314367.00345084     
   7392989.33860364     
   7503658.48171518     
   7570655.34593946     
   7703318.45684692     
   7774924.71038221     
   7916053.50653709     
   7982707.05185924     
   8093234.92706960     
   8208000.24192734     
   8325810.93797902     
   8433689.65566002     
   8514442.50242242     
   8648380.70308686     
   8734536.78565982     
   8840393.25438862     
   8973897.01494522     
   9123439.60587841     
   9247349.93725530     
   9351249.42603512     
   9473953.38954327     
   9616679.09620032     
   9712875.61176500     
   9858543.96045487     
   9983602.44273106     
   10124172.1227291     
   10297331.9814504     
   10411690.1893692     
   10551918.3189449     
