﻿ibin08,x=(MAXX*ibin)/NBIN08,Ni08,P(x)08,x/sigma08,P*sigma08,
-2.000000E+02,-2.500000E+02,0.000000E+00,0.000000E+00,-3.146852E+00,0.000000E+00,
-1.990000E+02,-2.487500E+02,0.000000E+00,0.000000E+00,-3.131117E+00,0.000000E+00,79.4444803
-1.980000E+02,-2.475000E+02,0.000000E+00,0.000000E+00,-3.115383E+00,0.000000E+00,79.4444803
-1.970000E+02,-2.462500E+02,0.000000E+00,0.000000E+00,-3.099649E+00,0.000000E+00,
-1.960000E+02,-2.450000E+02,0.000000E+00,0.000000E+00,-3.083915E+00,0.000000E+00,
-1.950000E+02,-2.437500E+02,0.000000E+00,0.000000E+00,-3.068180E+00,0.000000E+00,
-1.940000E+02,-2.425000E+02,0.000000E+00,0.000000E+00,-3.052446E+00,0.000000E+00,
-1.930000E+02,-2.412500E+02,0.000000E+00,0.000000E+00,-3.036712E+00,0.000000E+00,
-1.920000E+02,-2.400000E+02,0.000000E+00,0.000000E+00,-3.020978E+00,0.000000E+00,
-1.910000E+02,-2.387500E+02,0.000000E+00,0.000000E+00,-3.005243E+00,0.000000E+00,
-1.900000E+02,-2.375000E+02,0.000000E+00,0.000000E+00,-2.989509E+00,0.000000E+00,
-1.890000E+02,-2.362500E+02,0.000000E+00,0.000000E+00,-2.973775E+00,0.000000E+00,
-1.880000E+02,-2.350000E+02,0.000000E+00,0.000000E+00,-2.958041E+00,0.000000E+00,
-1.870000E+02,-2.337500E+02,0.000000E+00,0.000000E+00,-2.942306E+00,0.000000E+00,
-1.860000E+02,-2.325000E+02,0.000000E+00,0.000000E+00,-2.926572E+00,0.000000E+00,
-1.850000E+02,-2.312500E+02,0.000000E+00,0.000000E+00,-2.910838E+00,0.000000E+00,
-1.840000E+02,-2.300000E+02,0.000000E+00,0.000000E+00,-2.895104E+00,0.000000E+00,
-1.830000E+02,-2.287500E+02,0.000000E+00,0.000000E+00,-2.879369E+00,0.000000E+00,
-1.820000E+02,-2.275000E+02,0.000000E+00,0.000000E+00,-2.863635E+00,0.000000E+00,
-1.810000E+02,-2.262500E+02,0.000000E+00,0.000000E+00,-2.847901E+00,0.000000E+00,
-1.800000E+02,-2.250000E+02,0.000000E+00,0.000000E+00,-2.832167E+00,0.000000E+00,
-1.790000E+02,-2.237500E+02,0.000000E+00,0.000000E+00,-2.816432E+00,0.000000E+00,
-1.780000E+02,-2.225000E+02,0.000000E+00,0.000000E+00,-2.800698E+00,0.000000E+00,
-1.770000E+02,-2.212500E+02,0.000000E+00,0.000000E+00,-2.784964E+00,0.000000E+00,
-1.760000E+02,-2.200000E+02,0.000000E+00,0.000000E+00,-2.769230E+00,0.000000E+00,
-1.750000E+02,-2.187500E+02,0.000000E+00,0.000000E+00,-2.753495E+00,0.000000E+00,
-1.740000E+02,-2.175000E+02,0.000000E+00,0.000000E+00,-2.737761E+00,0.000000E+00,
-1.730000E+02,-2.162500E+02,0.000000E+00,0.000000E+00,-2.722027E+00,0.000000E+00,
-1.720000E+02,-2.150000E+02,0.000000E+00,0.000000E+00,-2.706292E+00,0.000000E+00,
-1.710000E+02,-2.137500E+02,0.000000E+00,0.000000E+00,-2.690558E+00,0.000000E+00,
-1.700000E+02,-2.125000E+02,0.000000E+00,0.000000E+00,-2.674824E+00,0.000000E+00,
-1.690000E+02,-2.112500E+02,0.000000E+00,0.000000E+00,-2.659090E+00,0.000000E+00,
-1.680000E+02,-2.100000E+02,0.000000E+00,0.000000E+00,-2.643355E+00,0.000000E+00,
-1.670000E+02,-2.087500E+02,0.000000E+00,0.000000E+00,-2.627621E+00,0.000000E+00,
-1.660000E+02,-2.075000E+02,0.000000E+00,0.000000E+00,-2.611887E+00,0.000000E+00,
-1.650000E+02,-2.062500E+02,0.000000E+00,0.000000E+00,-2.596153E+00,0.000000E+00,
-1.640000E+02,-2.050000E+02,0.000000E+00,0.000000E+00,-2.580418E+00,0.000000E+00,
-1.630000E+02,-2.037500E+02,0.000000E+00,0.000000E+00,-2.564684E+00,0.000000E+00,
-1.620000E+02,-2.025000E+02,0.000000E+00,0.000000E+00,-2.548950E+00,0.000000E+00,
-1.610000E+02,-2.012500E+02,0.000000E+00,0.000000E+00,-2.533216E+00,0.000000E+00,
-1.600000E+02,-2.000000E+02,0.000000E+00,0.000000E+00,-2.517481E+00,0.000000E+00,
-1.590000E+02,-1.987500E+02,0.000000E+00,0.000000E+00,-2.501747E+00,0.000000E+00,
-1.580000E+02,-1.975000E+02,0.000000E+00,0.000000E+00,-2.486013E+00,0.000000E+00,
-1.570000E+02,-1.962500E+02,0.000000E+00,0.000000E+00,-2.470279E+00,0.000000E+00,
-1.560000E+02,-1.950000E+02,0.000000E+00,0.000000E+00,-2.454544E+00,0.000000E+00,
-1.550000E+02,-1.937500E+02,0.000000E+00,0.000000E+00,-2.438810E+00,0.000000E+00,
-1.540000E+02,-1.925000E+02,0.000000E+00,0.000000E+00,-2.423076E+00,0.000000E+00,
-1.530000E+02,-1.912500E+02,0.000000E+00,0.000000E+00,-2.407342E+00,0.000000E+00,
-1.520000E+02,-1.900000E+02,0.000000E+00,0.000000E+00,-2.391607E+00,0.000000E+00,
-1.510000E+02,-1.887500E+02,0.000000E+00,0.000000E+00,-2.375873E+00,0.000000E+00,
-1.500000E+02,-1.875000E+02,0.000000E+00,0.000000E+00,-2.360139E+00,0.000000E+00,
-1.490000E+02,-1.862500E+02,0.000000E+00,0.000000E+00,-2.344405E+00,0.000000E+00,
-1.480000E+02,-1.850000E+02,0.000000E+00,0.000000E+00,-2.328670E+00,0.000000E+00,
-1.470000E+02,-1.837500E+02,0.000000E+00,0.000000E+00,-2.312936E+00,0.000000E+00,
-1.460000E+02,-1.825000E+02,0.000000E+00,0.000000E+00,-2.297202E+00,0.000000E+00,
-1.450000E+02,-1.812500E+02,0.000000E+00,0.000000E+00,-2.281468E+00,0.000000E+00,
-1.440000E+02,-1.800000E+02,0.000000E+00,0.000000E+00,-2.265733E+00,0.000000E+00,
-1.430000E+02,-1.787500E+02,0.000000E+00,0.000000E+00,-2.249999E+00,0.000000E+00,
-1.420000E+02,-1.775000E+02,0.000000E+00,0.000000E+00,-2.234265E+00,0.000000E+00,
-1.410000E+02,-1.762500E+02,0.000000E+00,0.000000E+00,-2.218530E+00,0.000000E+00,
-1.400000E+02,-1.750000E+02,0.000000E+00,0.000000E+00,-2.202796E+00,0.000000E+00,
-1.390000E+02,-1.737500E+02,0.000000E+00,0.000000E+00,-2.187062E+00,0.000000E+00,
-1.380000E+02,-1.725000E+02,0.000000E+00,0.000000E+00,-2.171328E+00,0.000000E+00,
-1.370000E+02,-1.712500E+02,0.000000E+00,0.000000E+00,-2.155593E+00,0.000000E+00,
-1.360000E+02,-1.700000E+02,0.000000E+00,0.000000E+00,-2.139859E+00,0.000000E+00,
-1.350000E+02,-1.687500E+02,0.000000E+00,0.000000E+00,-2.124125E+00,0.000000E+00,
-1.340000E+02,-1.675000E+02,0.000000E+00,0.000000E+00,-2.108391E+00,0.000000E+00,
-1.330000E+02,-1.662500E+02,0.000000E+00,0.000000E+00,-2.092656E+00,0.000000E+00,
-1.320000E+02,-1.650000E+02,0.000000E+00,0.000000E+00,-2.076922E+00,0.000000E+00,
-1.310000E+02,-1.637500E+02,0.000000E+00,0.000000E+00,-2.061188E+00,0.000000E+00,
-1.300000E+02,-1.625000E+02,0.000000E+00,0.000000E+00,-2.045454E+00,0.000000E+00,
-1.290000E+02,-1.612500E+02,0.000000E+00,0.000000E+00,-2.029719E+00,0.000000E+00,
-1.280000E+02,-1.600000E+02,0.000000E+00,0.000000E+00,-2.013985E+00,0.000000E+00,
-1.270000E+02,-1.587500E+02,0.000000E+00,0.000000E+00,-1.998251E+00,0.000000E+00,
-1.260000E+02,-1.575000E+02,0.000000E+00,0.000000E+00,-1.982517E+00,0.000000E+00,
-1.250000E+02,-1.562500E+02,0.000000E+00,0.000000E+00,-1.966782E+00,0.000000E+00,
-1.240000E+02,-1.550000E+02,0.000000E+00,0.000000E+00,-1.951048E+00,0.000000E+00,
-1.230000E+02,-1.537500E+02,0.000000E+00,0.000000E+00,-1.935314E+00,0.000000E+00,
-1.220000E+02,-1.525000E+02,0.000000E+00,0.000000E+00,-1.919580E+00,0.000000E+00,
-1.210000E+02,-1.512500E+02,0.000000E+00,0.000000E+00,-1.903845E+00,0.000000E+00,
-1.200000E+02,-1.500000E+02,0.000000E+00,0.000000E+00,-1.888111E+00,0.000000E+00,
-1.190000E+02,-1.487500E+02,0.000000E+00,0.000000E+00,-1.872377E+00,0.000000E+00,
-1.180000E+02,-1.475000E+02,0.000000E+00,0.000000E+00,-1.856643E+00,0.000000E+00,
-1.170000E+02,-1.462500E+02,0.000000E+00,0.000000E+00,-1.840908E+00,0.000000E+00,
-1.160000E+02,-1.450000E+02,0.000000E+00,0.000000E+00,-1.825174E+00,0.000000E+00,
-1.150000E+02,-1.437500E+02,0.000000E+00,0.000000E+00,-1.809440E+00,0.000000E+00,
-1.140000E+02,-1.425000E+02,0.000000E+00,0.000000E+00,-1.793705E+00,0.000000E+00,
-1.130000E+02,-1.412500E+02,0.000000E+00,0.000000E+00,-1.777971E+00,0.000000E+00,
-1.120000E+02,-1.400000E+02,0.000000E+00,0.000000E+00,-1.762237E+00,0.000000E+00,
-1.110000E+02,-1.387500E+02,0.000000E+00,0.000000E+00,-1.746503E+00,0.000000E+00,
-1.100000E+02,-1.375000E+02,0.000000E+00,0.000000E+00,-1.730768E+00,0.000000E+00,
-1.090000E+02,-1.362500E+02,0.000000E+00,0.000000E+00,-1.715034E+00,0.000000E+00,
-1.080000E+02,-1.350000E+02,0.000000E+00,0.000000E+00,-1.699300E+00,0.000000E+00,
-1.070000E+02,-1.337500E+02,0.000000E+00,0.000000E+00,-1.683566E+00,0.000000E+00,
-1.060000E+02,-1.325000E+02,0.000000E+00,0.000000E+00,-1.667831E+00,0.000000E+00,
-1.050000E+02,-1.312500E+02,0.000000E+00,0.000000E+00,-1.652097E+00,0.000000E+00,
-1.040000E+02,-1.300000E+02,0.000000E+00,0.000000E+00,-1.636363E+00,0.000000E+00,
-1.030000E+02,-1.287500E+02,0.000000E+00,0.000000E+00,-1.620629E+00,0.000000E+00,
-1.020000E+02,-1.275000E+02,0.000000E+00,0.000000E+00,-1.604894E+00,0.000000E+00,
-1.010000E+02,-1.262500E+02,0.000000E+00,0.000000E+00,-1.589160E+00,0.000000E+00,
-1.000000E+02,-1.250000E+02,0.000000E+00,0.000000E+00,-1.573426E+00,0.000000E+00,
-9.900000E+01,-1.237500E+02,0.000000E+00,0.000000E+00,-1.557692E+00,0.000000E+00,
-9.800000E+01,-1.225000E+02,0.000000E+00,0.000000E+00,-1.541957E+00,0.000000E+00,
-9.700000E+01,-1.212500E+02,0.000000E+00,0.000000E+00,-1.526223E+00,0.000000E+00,
-9.600000E+01,-1.200000E+02,0.000000E+00,0.000000E+00,-1.510489E+00,0.000000E+00,
-9.500000E+01,-1.187500E+02,0.000000E+00,0.000000E+00,-1.494755E+00,0.000000E+00,
-9.400000E+01,-1.175000E+02,0.000000E+00,0.000000E+00,-1.479020E+00,0.000000E+00,
-9.300000E+01,-1.162500E+02,0.000000E+00,0.000000E+00,-1.463286E+00,0.000000E+00,
-9.200000E+01,-1.150000E+02,0.000000E+00,0.000000E+00,-1.447552E+00,0.000000E+00,
-9.100000E+01,-1.137500E+02,0.000000E+00,0.000000E+00,-1.431818E+00,0.000000E+00,
-9.000000E+01,-1.125000E+02,0.000000E+00,0.000000E+00,-1.416083E+00,0.000000E+00,
-8.900000E+01,-1.112500E+02,0.000000E+00,0.000000E+00,-1.400349E+00,0.000000E+00,
-8.800000E+01,-1.100000E+02,0.000000E+00,0.000000E+00,-1.384615E+00,0.000000E+00,
-8.700000E+01,-1.087500E+02,0.000000E+00,0.000000E+00,-1.368881E+00,0.000000E+00,
-8.600000E+01,-1.075000E+02,0.000000E+00,0.000000E+00,-1.353146E+00,0.000000E+00,
-8.500000E+01,-1.062500E+02,0.000000E+00,0.000000E+00,-1.337412E+00,0.000000E+00,
-8.400000E+01,-1.050000E+02,0.000000E+00,0.000000E+00,-1.321678E+00,0.000000E+00,
-8.300000E+01,-1.037500E+02,0.000000E+00,0.000000E+00,-1.305943E+00,0.000000E+00,
-8.200000E+01,-1.025000E+02,0.000000E+00,0.000000E+00,-1.290209E+00,0.000000E+00,
-8.100000E+01,-1.012500E+02,0.000000E+00,0.000000E+00,-1.274475E+00,0.000000E+00,
-8.000000E+01,-1.000000E+02,0.000000E+00,0.000000E+00,-1.258741E+00,0.000000E+00,
-7.900000E+01,-9.875000E+01,0.000000E+00,0.000000E+00,-1.243006E+00,0.000000E+00,
-7.800000E+01,-9.750000E+01,0.000000E+00,0.000000E+00,-1.227272E+00,0.000000E+00,
-7.700000E+01,-9.625000E+01,0.000000E+00,0.000000E+00,-1.211538E+00,0.000000E+00,
-7.600000E+01,-9.500000E+01,0.000000E+00,0.000000E+00,-1.195804E+00,0.000000E+00,
-7.500000E+01,-9.375000E+01,0.000000E+00,0.000000E+00,-1.180069E+00,0.000000E+00,
-7.400000E+01,-9.250000E+01,0.000000E+00,0.000000E+00,-1.164335E+00,0.000000E+00,
-7.300000E+01,-9.125000E+01,0.000000E+00,0.000000E+00,-1.148601E+00,0.000000E+00,
-7.200000E+01,-9.000000E+01,0.000000E+00,0.000000E+00,-1.132867E+00,0.000000E+00,
-7.100000E+01,-8.875000E+01,0.000000E+00,0.000000E+00,-1.117132E+00,0.000000E+00,
-7.000000E+01,-8.750000E+01,0.000000E+00,0.000000E+00,-1.101398E+00,0.000000E+00,
-6.900000E+01,-8.625000E+01,0.000000E+00,0.000000E+00,-1.085664E+00,0.000000E+00,
-6.800000E+01,-8.500000E+01,0.000000E+00,0.000000E+00,-1.069930E+00,0.000000E+00,
-6.700000E+01,-8.375000E+01,0.000000E+00,0.000000E+00,-1.054195E+00,0.000000E+00,
-6.600000E+01,-8.250000E+01,0.000000E+00,0.000000E+00,-1.038461E+00,0.000000E+00,
-6.500000E+01,-8.125000E+01,0.000000E+00,0.000000E+00,-1.022727E+00,0.000000E+00,
-6.400000E+01,-8.000000E+01,0.000000E+00,0.000000E+00,-1.006993E+00,0.000000E+00,
-6.300000E+01,-7.875000E+01,0.000000E+00,0.000000E+00,-9.912583E-01,0.000000E+00,
-6.200000E+01,-7.750000E+01,0.000000E+00,0.000000E+00,-9.755240E-01,0.000000E+00,
-6.100000E+01,-7.625000E+01,0.000000E+00,0.000000E+00,-9.597898E-01,0.000000E+00,
-6.000000E+01,-7.500000E+01,0.000000E+00,0.000000E+00,-9.440555E-01,0.000000E+00,
-5.900000E+01,-7.375000E+01,0.000000E+00,0.000000E+00,-9.283213E-01,0.000000E+00,
-5.800000E+01,-7.250000E+01,0.000000E+00,0.000000E+00,-9.125870E-01,0.000000E+00,
-5.700000E+01,-7.125000E+01,0.000000E+00,0.000000E+00,-8.968527E-01,0.000000E+00,
-5.600000E+01,-7.000000E+01,0.000000E+00,0.000000E+00,-8.811185E-01,0.000000E+00,
-5.500000E+01,-6.875000E+01,0.000000E+00,0.000000E+00,-8.653842E-01,0.000000E+00,
-5.400000E+01,-6.750000E+01,0.000000E+00,0.000000E+00,-8.496500E-01,0.000000E+00,
-5.300000E+01,-6.625000E+01,0.000000E+00,0.000000E+00,-8.339157E-01,0.000000E+00,
-5.200000E+01,-6.500000E+01,0.000000E+00,0.000000E+00,-8.181814E-01,0.000000E+00,
-5.100000E+01,-6.375000E+01,0.000000E+00,0.000000E+00,-8.024472E-01,0.000000E+00,
-5.000000E+01,-6.250000E+01,0.000000E+00,0.000000E+00,-7.867129E-01,0.000000E+00,
-4.900000E+01,-6.125000E+01,0.000000E+00,0.000000E+00,-7.709787E-01,0.000000E+00,
-4.800000E+01,-6.000000E+01,0.000000E+00,0.000000E+00,-7.552444E-01,0.000000E+00,
-4.700000E+01,-5.875000E+01,0.000000E+00,0.000000E+00,-7.395102E-01,0.000000E+00,
-4.600000E+01,-5.750000E+01,0.000000E+00,0.000000E+00,-7.237759E-01,0.000000E+00,
-4.500000E+01,-5.625000E+01,0.000000E+00,0.000000E+00,-7.080416E-01,0.000000E+00,
-4.400000E+01,-5.500000E+01,0.000000E+00,0.000000E+00,-6.923074E-01,0.000000E+00,
-4.300000E+01,-5.375000E+01,0.000000E+00,0.000000E+00,-6.765731E-01,0.000000E+00,
-4.200000E+01,-5.250000E+01,0.000000E+00,0.000000E+00,-6.608389E-01,0.000000E+00,
-4.100000E+01,-5.125000E+01,0.000000E+00,0.000000E+00,-6.451046E-01,0.000000E+00,
-4.000000E+01,-5.000000E+01,0.000000E+00,0.000000E+00,-6.293703E-01,0.000000E+00,
-3.900000E+01,-4.875000E+01,0.000000E+00,0.000000E+00,-6.136361E-01,0.000000E+00,
-3.800000E+01,-4.750000E+01,0.000000E+00,0.000000E+00,-5.979018E-01,0.000000E+00,
-3.700000E+01,-4.625000E+01,0.000000E+00,0.000000E+00,-5.821676E-01,0.000000E+00,
-3.600000E+01,-4.500000E+01,0.000000E+00,0.000000E+00,-5.664333E-01,0.000000E+00,
-3.500000E+01,-4.375000E+01,0.000000E+00,0.000000E+00,-5.506991E-01,0.000000E+00,
-3.400000E+01,-4.250000E+01,0.000000E+00,0.000000E+00,-5.349648E-01,0.000000E+00,
-3.300000E+01,-4.125000E+01,0.000000E+00,0.000000E+00,-5.192305E-01,0.000000E+00,
-3.200000E+01,-4.000000E+01,0.000000E+00,0.000000E+00,-5.034963E-01,0.000000E+00,
-3.100000E+01,-3.875000E+01,0.000000E+00,0.000000E+00,-4.877620E-01,0.000000E+00,
-3.000000E+01,-3.750000E+01,0.000000E+00,0.000000E+00,-4.720278E-01,0.000000E+00,
-2.900000E+01,-3.625000E+01,0.000000E+00,0.000000E+00,-4.562935E-01,0.000000E+00,
-2.800000E+01,-3.500000E+01,0.000000E+00,0.000000E+00,-4.405592E-01,0.000000E+00,
-2.700000E+01,-3.375000E+01,0.000000E+00,0.000000E+00,-4.248250E-01,0.000000E+00,
-2.600000E+01,-3.250000E+01,0.000000E+00,0.000000E+00,-4.090907E-01,0.000000E+00,
-2.500000E+01,-3.125000E+01,0.000000E+00,0.000000E+00,-3.933565E-01,0.000000E+00,
-2.400000E+01,-3.000000E+01,0.000000E+00,0.000000E+00,-3.776222E-01,0.000000E+00,
-2.300000E+01,-2.875000E+01,0.000000E+00,0.000000E+00,-3.618879E-01,0.000000E+00,
-2.200000E+01,-2.750000E+01,0.000000E+00,0.000000E+00,-3.461537E-01,0.000000E+00,
-2.100000E+01,-2.625000E+01,0.000000E+00,0.000000E+00,-3.304194E-01,0.000000E+00,
-2.000000E+01,-2.500000E+01,0.000000E+00,0.000000E+00,-3.146852E-01,0.000000E+00,
-1.900000E+01,-2.375000E+01,0.000000E+00,0.000000E+00,-2.989509E-01,0.000000E+00,
-1.800000E+01,-2.250000E+01,0.000000E+00,0.000000E+00,-2.832167E-01,0.000000E+00,
-1.700000E+01,-2.125000E+01,0.000000E+00,0.000000E+00,-2.674824E-01,0.000000E+00,
-1.600000E+01,-2.000000E+01,0.000000E+00,0.000000E+00,-2.517481E-01,0.000000E+00,
-1.500000E+01,-1.875000E+01,0.000000E+00,0.000000E+00,-2.360139E-01,0.000000E+00,
-1.400000E+01,-1.750000E+01,0.000000E+00,0.000000E+00,-2.202796E-01,0.000000E+00,
-1.300000E+01,-1.625000E+01,0.000000E+00,0.000000E+00,-2.045454E-01,0.000000E+00,
-1.200000E+01,-1.500000E+01,0.000000E+00,0.000000E+00,-1.888111E-01,0.000000E+00,
-1.100000E+01,-1.375000E+01,0.000000E+00,0.000000E+00,-1.730768E-01,0.000000E+00,
-1.000000E+01,-1.250000E+01,0.000000E+00,0.000000E+00,-1.573426E-01,0.000000E+00,
-9.000000E+00,-1.125000E+01,0.000000E+00,0.000000E+00,-1.416083E-01,0.000000E+00,
-8.000000E+00,-1.000000E+01,0.000000E+00,0.000000E+00,-1.258741E-01,0.000000E+00,
-7.000000E+00,-8.750000E+00,0.000000E+00,0.000000E+00,-1.101398E-01,0.000000E+00,
-6.000000E+00,-7.500000E+00,0.000000E+00,0.000000E+00,-9.440555E-02,0.000000E+00,
-5.000000E+00,-6.250000E+00,0.000000E+00,0.000000E+00,-7.867129E-02,0.000000E+00,
-4.000000E+00,-5.000000E+00,0.000000E+00,0.000000E+00,-6.293703E-02,0.000000E+00,
-3.000000E+00,-3.750000E+00,0.000000E+00,0.000000E+00,-4.720278E-02,0.000000E+00,
-2.000000E+00,-2.500000E+00,0.000000E+00,0.000000E+00,-3.146852E-02,0.000000E+00,
-1.000000E+00,-1.250000E+00,0.000000E+00,0.000000E+00,-1.573426E-02,0.000000E+00,
0.000000E+00,0.000000E+00,3.241400E+04,8.652964E-03,0.000000E+00,6.874303E-01,
1.000000E+00,1.250000E+00,4.199498E+04,1.121062E-02,1.573426E-02,8.906217E-01,
2.000000E+00,2.500000E+00,4.118309E+04,1.099388E-02,3.146852E-02,8.734034E-01,
3.000000E+00,3.750000E+00,4.154504E+04,1.109051E-02,4.720278E-02,8.810797E-01,
4.000000E+00,5.000000E+00,4.102494E+04,1.095166E-02,6.293703E-02,8.700493E-01,
5.000000E+00,6.250000E+00,4.077495E+04,1.088493E-02,7.867129E-02,8.647477E-01,
6.000000E+00,7.500000E+00,4.070796E+04,1.086705E-02,9.440555E-02,8.633269E-01,
7.000000E+00,8.750000E+00,4.036904E+04,1.077657E-02,1.101398E-01,8.561393E-01,
8.000000E+00,1.000000E+01,4.006798E+04,1.069620E-02,1.258741E-01,8.497543E-01,
9.000000E+00,1.125000E+01,3.958493E+04,1.056725E-02,1.416083E-01,8.395100E-01,
1.000000E+01,1.250000E+01,3.943690E+04,1.052774E-02,1.573426E-01,8.363706E-01,
1.100000E+01,1.375000E+01,3.946004E+04,1.053391E-02,1.730768E-01,8.368614E-01,
1.200000E+01,1.500000E+01,3.922694E+04,1.047169E-02,1.888111E-01,8.319177E-01,
1.300000E+01,1.625000E+01,3.841601E+04,1.025521E-02,2.045454E-01,8.147197E-01,
1.400000E+01,1.750000E+01,3.893292E+04,1.039320E-02,2.202796E-01,8.256822E-01,
1.500000E+01,1.875000E+01,3.833098E+04,1.023251E-02,2.360139E-01,8.129164E-01,
1.600000E+01,2.000000E+01,3.786500E+04,1.010812E-02,2.517481E-01,8.030340E-01,
1.700000E+01,2.125000E+01,3.755106E+04,1.002431E-02,2.674824E-01,7.963760E-01,
1.800000E+01,2.250000E+01,3.699699E+04,9.876400E-03,2.832167E-01,7.846254E-01,
1.900000E+01,2.375000E+01,3.666800E+04,9.788575E-03,2.989509E-01,7.776482E-01,
2.000000E+01,2.500000E+01,3.696800E+04,9.868660E-03,3.146852E-01,7.840106E-01,
2.100000E+01,2.625000E+01,3.639500E+04,9.715696E-03,3.304194E-01,7.718584E-01,
2.200000E+01,2.750000E+01,3.618200E+04,9.658836E-03,3.461537E-01,7.673412E-01,
2.300000E+01,2.875000E+01,3.578700E+04,9.553389E-03,3.618879E-01,7.589640E-01,
2.400000E+01,3.000000E+01,3.557000E+04,9.495462E-03,3.776222E-01,7.543620E-01,
2.500000E+01,3.125000E+01,3.495200E+04,9.330487E-03,3.933565E-01,7.412557E-01,
2.600000E+01,3.250000E+01,3.477500E+04,9.283236E-03,4.090907E-01,7.375018E-01,
2.700000E+01,3.375000E+01,3.449100E+04,9.207422E-03,4.248250E-01,7.314789E-01,
2.800000E+01,3.500000E+01,3.403100E+04,9.084624E-03,4.405592E-01,7.217232E-01,
2.900000E+01,3.625000E+01,3.372301E+04,9.002404E-03,4.562935E-01,7.151913E-01,
3.000000E+01,3.750000E+01,3.362899E+04,8.977306E-03,4.720278E-01,7.131974E-01,
3.100000E+01,3.875000E+01,3.333801E+04,8.899628E-03,4.877620E-01,7.070263E-01,
3.200000E+01,4.000000E+01,3.298201E+04,8.804594E-03,5.034963E-01,6.994764E-01,
3.300000E+01,4.125000E+01,3.259700E+04,8.701815E-03,5.192305E-01,6.913111E-01,
3.400000E+01,4.250000E+01,3.195500E+04,8.530432E-03,5.349648E-01,6.776958E-01,
3.500000E+01,4.375000E+01,3.157100E+04,8.427923E-03,5.506991E-01,6.695520E-01,
3.600000E+01,4.500000E+01,3.128500E+04,8.351574E-03,5.664333E-01,6.634865E-01,
3.700000E+01,4.625000E+01,3.115901E+04,8.317942E-03,5.821676E-01,6.608146E-01,
3.800000E+01,4.750000E+01,3.079700E+04,8.221303E-03,5.979018E-01,6.531371E-01,
3.900000E+01,4.875000E+01,3.026199E+04,8.078481E-03,6.136361E-01,6.417907E-01,
4.000000E+01,5.000000E+01,2.994299E+04,7.993324E-03,6.293703E-01,6.350255E-01,
4.100000E+01,5.125000E+01,2.979900E+04,7.954884E-03,6.451046E-01,6.319716E-01,
4.200000E+01,5.250000E+01,2.950900E+04,7.877470E-03,6.608389E-01,6.258215E-01,
4.300000E+01,5.375000E+01,2.873801E+04,7.671652E-03,6.765731E-01,6.094704E-01,
4.400000E+01,5.500000E+01,2.851200E+04,7.611319E-03,6.923074E-01,6.046773E-01,
4.500000E+01,5.625000E+01,2.822801E+04,7.535506E-03,7.080416E-01,5.986544E-01,
4.600000E+01,5.750000E+01,2.783200E+04,7.429793E-03,7.237759E-01,5.902560E-01,
4.700000E+01,5.875000E+01,2.741600E+04,7.318741E-03,7.395102E-01,5.814336E-01,
4.800000E+01,6.000000E+01,2.716100E+04,7.250666E-03,7.552444E-01,5.760254E-01,
4.900000E+01,6.125000E+01,2.652100E+04,7.079818E-03,7.709787E-01,5.624525E-01,
5.000000E+01,6.250000E+01,2.635000E+04,7.034169E-03,7.867129E-01,5.588259E-01,
5.100000E+01,6.375000E+01,2.623201E+04,7.002672E-03,8.024472E-01,5.563236E-01,
5.200000E+01,6.500000E+01,2.555600E+04,6.822211E-03,8.181814E-01,5.419870E-01,
5.300000E+01,6.625000E+01,2.527600E+04,6.747464E-03,8.339157E-01,5.360488E-01,
5.400000E+01,6.750000E+01,2.476800E+04,6.611851E-03,8.496500E-01,5.252751E-01,
5.500000E+01,6.875000E+01,2.449200E+04,6.538173E-03,8.653842E-01,5.194217E-01,
5.600000E+01,7.000000E+01,2.430900E+04,6.489322E-03,8.811185E-01,5.155409E-01,
5.700000E+01,7.125000E+01,2.383599E+04,6.363052E-03,8.968527E-01,5.055094E-01,
5.800000E+01,7.250000E+01,2.343200E+04,6.255205E-03,9.125870E-01,4.969415E-01,
5.900000E+01,7.375000E+01,2.314800E+04,6.179392E-03,9.283213E-01,4.909186E-01,
6.000000E+01,7.500000E+01,2.272301E+04,6.065939E-03,9.440555E-01,4.819054E-01,
6.100000E+01,7.625000E+01,2.258301E+04,6.028566E-03,9.597898E-01,4.789363E-01,
6.200000E+01,7.750000E+01,2.205800E+04,5.888414E-03,9.755240E-01,4.678020E-01,
6.300000E+01,7.875000E+01,2.179801E+04,5.819010E-03,9.912583E-01,4.622882E-01,
6.400000E+01,8.000000E+01,2.129700E+04,5.685263E-03,1.006993E+00,4.516628E-01,
6.500000E+01,8.125000E+01,2.092000E+04,5.584624E-03,1.022727E+00,4.436676E-01,
6.600000E+01,8.250000E+01,2.063700E+04,5.509077E-03,1.038461E+00,4.376657E-01,
6.700000E+01,8.375000E+01,2.035200E+04,5.432994E-03,1.054195E+00,4.316214E-01,
6.800000E+01,8.500000E+01,1.998400E+04,5.334758E-03,1.069930E+00,4.238171E-01,
6.900000E+01,8.625000E+01,1.957500E+04,5.225575E-03,1.085664E+00,4.151431E-01,
7.000000E+01,8.750000E+01,1.933900E+04,5.162574E-03,1.101398E+00,4.101380E-01,
7.100000E+01,8.875000E+01,1.913200E+04,5.107315E-03,1.117132E+00,4.057480E-01,
7.200000E+01,9.000000E+01,1.861701E+04,4.969836E-03,1.132867E+00,3.948260E-01,
7.300000E+01,9.125000E+01,1.823799E+04,4.868658E-03,1.148601E+00,3.867880E-01,
7.400000E+01,9.250000E+01,1.804899E+04,4.818204E-03,1.164335E+00,3.827797E-01,
7.500000E+01,9.375000E+01,1.756200E+04,4.688201E-03,1.180069E+00,3.724517E-01,
7.600000E+01,9.500000E+01,1.733400E+04,4.627337E-03,1.195804E+00,3.676164E-01,
7.700000E+01,9.625000E+01,1.696400E+04,4.528564E-03,1.211538E+00,3.597694E-01,
7.800000E+01,9.750000E+01,1.688700E+04,4.508009E-03,1.227272E+00,3.581365E-01,
7.900000E+01,9.875000E+01,1.611699E+04,4.302454E-03,1.243006E+00,3.418062E-01,
8.000000E+01,1.000000E+02,1.602100E+04,4.276830E-03,1.258741E+00,3.397705E-01,
8.100000E+01,1.012500E+02,1.577099E+04,4.210089E-03,1.274475E+00,3.344683E-01,
8.200000E+01,1.025000E+02,1.555101E+04,4.151363E-03,1.290209E+00,3.298029E-01,
8.300000E+01,1.037500E+02,1.498900E+04,4.001334E-03,1.305943E+00,3.178839E-01,
8.400000E+01,1.050000E+02,1.494101E+04,3.988523E-03,1.321678E+00,3.168662E-01,
8.500000E+01,1.062500E+02,1.457100E+04,3.889750E-03,1.337412E+00,3.090192E-01,
8.600000E+01,1.075000E+02,1.404600E+04,3.749601E-03,1.353146E+00,2.978851E-01,
8.700000E+01,1.087500E+02,1.375699E+04,3.672449E-03,1.368881E+00,2.917558E-01,
8.800000E+01,1.100000E+02,1.360499E+04,3.631872E-03,1.384615E+00,2.885322E-01,
8.900000E+01,1.112500E+02,1.339400E+04,3.575548E-03,1.400349E+00,2.840576E-01,
9.000000E+01,1.125000E+02,1.313600E+04,3.506674E-03,1.416083E+00,2.785859E-01,
9.100000E+01,1.137500E+02,1.275600E+04,3.405232E-03,1.431818E+00,2.705269E-01,
9.200000E+01,1.150000E+02,1.269899E+04,3.390014E-03,1.447552E+00,2.693179E-01,
9.300000E+01,1.162500E+02,1.222000E+04,3.262147E-03,1.463286E+00,2.591596E-01,
9.400000E+01,1.175000E+02,1.191199E+04,3.179924E-03,1.479020E+00,2.526274E-01,
9.500000E+01,1.187500E+02,1.167800E+04,3.117459E-03,1.494755E+00,2.476649E-01,
9.600000E+01,1.200000E+02,1.138700E+04,3.039777E-03,1.510489E+00,2.414935E-01,
9.700000E+01,1.212500E+02,1.126300E+04,3.006674E-03,1.526223E+00,2.388637E-01,
9.800000E+01,1.225000E+02,1.095199E+04,2.923650E-03,1.541957E+00,2.322679E-01,
9.900000E+01,1.237500E+02,1.074100E+04,2.867326E-03,1.557692E+00,2.277932E-01,
1.000000E+02,1.250000E+02,1.028700E+04,2.746128E-03,1.573426E+00,2.181647E-01,
1.010000E+02,1.262500E+02,1.015399E+04,2.710623E-03,1.589160E+00,2.153441E-01,
1.020000E+02,1.275000E+02,1.001101E+04,2.672453E-03,1.604894E+00,2.123116E-01,
1.030000E+02,1.287500E+02,9.501005E+03,2.536307E-03,1.620629E+00,2.014956E-01,
1.040000E+02,1.300000E+02,9.487996E+03,2.532834E-03,1.636363E+00,2.012197E-01,
1.050000E+02,1.312500E+02,9.228991E+03,2.463692E-03,1.652097E+00,1.957267E-01,
1.060000E+02,1.325000E+02,8.906004E+03,2.377470E-03,1.667831E+00,1.888769E-01,
1.070000E+02,1.337500E+02,8.605000E+03,2.297117E-03,1.683566E+00,1.824933E-01,
1.080000E+02,1.350000E+02,8.491001E+03,2.266685E-03,1.699300E+00,1.800756E-01,
1.090000E+02,1.362500E+02,8.295999E+03,2.214629E-03,1.715034E+00,1.759400E-01,
1.100000E+02,1.375000E+02,8.138996E+03,2.172716E-03,1.730768E+00,1.726103E-01,
1.110000E+02,1.387500E+02,8.002004E+03,2.136146E-03,1.746503E+00,1.697050E-01,
1.120000E+02,1.400000E+02,7.810002E+03,2.084891E-03,1.762237E+00,1.656331E-01,
1.130000E+02,1.412500E+02,7.480997E+03,1.997063E-03,1.777971E+00,1.586556E-01,
1.140000E+02,1.425000E+02,7.238002E+03,1.932195E-03,1.793705E+00,1.535022E-01,
1.150000E+02,1.437500E+02,7.169002E+03,1.913775E-03,1.809440E+00,1.520389E-01,
1.160000E+02,1.450000E+02,6.932004E+03,1.850508E-03,1.825174E+00,1.470127E-01,
1.170000E+02,1.462500E+02,6.751005E+03,1.802190E-03,1.840908E+00,1.431741E-01,
1.180000E+02,1.475000E+02,6.636010E+03,1.771492E-03,1.856643E+00,1.407353E-01,
1.190000E+02,1.487500E+02,6.364005E+03,1.698880E-03,1.872377E+00,1.349666E-01,
1.200000E+02,1.500000E+02,6.123993E+03,1.634809E-03,1.888111E+00,1.298765E-01,
1.210000E+02,1.512500E+02,6.083000E+03,1.623865E-03,1.903845E+00,1.290071E-01,
1.220000E+02,1.525000E+02,5.932005E+03,1.583557E-03,1.919580E+00,1.258049E-01,
1.230000E+02,1.537500E+02,5.763996E+03,1.538707E-03,1.935314E+00,1.222418E-01,
1.240000E+02,1.550000E+02,5.585994E+03,1.491189E-03,1.951048E+00,1.184667E-01,
1.250000E+02,1.562500E+02,5.344001E+03,1.426589E-03,1.966782E+00,1.133346E-01,
1.260000E+02,1.575000E+02,5.196995E+03,1.387345E-03,1.982517E+00,1.102169E-01,
1.270000E+02,1.587500E+02,5.083002E+03,1.356915E-03,1.998251E+00,1.077994E-01,
1.280000E+02,1.600000E+02,4.919998E+03,1.313400E-03,2.013985E+00,1.043424E-01,
1.290000E+02,1.612500E+02,4.761010E+03,1.270958E-03,2.029719E+00,1.009706E-01,
1.300000E+02,1.625000E+02,4.565998E+03,1.218900E-03,2.045454E+00,9.683484E-02,
1.310000E+02,1.637500E+02,4.551998E+03,1.215162E-03,2.061188E+00,9.653795E-02,
1.320000E+02,1.650000E+02,4.505005E+03,1.202617E-03,2.076922E+00,9.554132E-02,
1.330000E+02,1.662500E+02,4.255008E+03,1.135880E-03,2.092656E+00,9.023944E-02,
1.340000E+02,1.675000E+02,4.143997E+03,1.106246E-03,2.108391E+00,8.788512E-02,
1.350000E+02,1.687500E+02,4.065008E+03,1.085160E-03,2.124125E+00,8.620994E-02,
1.360000E+02,1.700000E+02,4.004000E+03,1.068874E-03,2.139859E+00,8.491610E-02,
1.370000E+02,1.712500E+02,3.850000E+03,1.027763E-03,2.155593E+00,8.165009E-02,
1.380000E+02,1.725000E+02,3.755005E+03,1.002404E-03,2.171328E+00,7.963546E-02,
1.390000E+02,1.737500E+02,3.594999E+03,9.596900E-04,2.187062E+00,7.624208E-02,
1.400000E+02,1.750000E+02,3.398000E+03,9.071009E-04,2.202796E+00,7.206416E-02,
1.410000E+02,1.762500E+02,3.354000E+03,8.953549E-04,2.218530E+00,7.113101E-02,
1.420000E+02,1.775000E+02,3.175001E+03,8.475709E-04,2.234265E+00,6.733483E-02,
1.430000E+02,1.787500E+02,3.081999E+03,8.227441E-04,2.249999E+00,6.536248E-02,
1.440000E+02,1.800000E+02,2.979999E+03,7.955150E-04,2.265733E+00,6.319927E-02,
1.450000E+02,1.812500E+02,2.954999E+03,7.888412E-04,2.281468E+00,6.266908E-02,
1.460000E+02,1.825000E+02,2.750000E+03,7.341164E-04,2.297202E+00,5.832149E-02,
1.470000E+02,1.837500E+02,2.757999E+03,7.362518E-04,2.312936E+00,5.849114E-02,
1.480000E+02,1.850000E+02,2.599001E+03,6.938069E-04,2.328670E+00,5.511913E-02,
1.490000E+02,1.862500E+02,2.540999E+03,6.783232E-04,2.344405E+00,5.388904E-02,
1.500000E+02,1.875000E+02,2.478000E+03,6.615055E-04,2.360139E+00,5.255296E-02,
1.510000E+02,1.887500E+02,2.374001E+03,6.337430E-04,2.375873E+00,5.034738E-02,
1.520000E+02,1.900000E+02,2.179000E+03,5.816871E-04,2.391607E+00,4.621183E-02,
1.530000E+02,1.912500E+02,2.247999E+03,6.001065E-04,2.407342E+00,4.767515E-02,
1.540000E+02,1.925000E+02,2.124000E+03,5.670048E-04,2.423076E+00,4.504540E-02,
1.550000E+02,1.937500E+02,2.002000E+03,5.344369E-04,2.438810E+00,4.245806E-02,
1.560000E+02,1.950000E+02,2.006999E+03,5.357713E-04,2.454544E+00,4.256407E-02,
1.570000E+02,1.962500E+02,1.902000E+03,5.077416E-04,2.470279E+00,4.033727E-02,
1.580000E+02,1.975000E+02,1.829000E+03,4.882541E-04,2.486013E+00,3.878909E-02,
1.590000E+02,1.987500E+02,1.806999E+03,4.823810E-04,2.501747E+00,3.832251E-02,
1.600000E+02,2.000000E+02,1.667001E+03,4.450082E-04,2.517481E+00,3.535344E-02,
1.610000E+02,2.012500E+02,1.651999E+03,4.410035E-04,2.533216E+00,3.503529E-02,
1.620000E+02,2.025000E+02,1.580999E+03,4.220499E-04,2.548950E+00,3.352953E-02,
1.630000E+02,2.037500E+02,1.449000E+03,3.868125E-04,2.564684E+00,3.073012E-02,
1.640000E+02,2.050000E+02,1.478999E+03,3.948209E-04,2.580418E+00,3.136634E-02,
1.650000E+02,2.062500E+02,1.480000E+03,3.950880E-04,2.596153E+00,3.138756E-02,
1.660000E+02,2.075000E+02,1.418999E+03,3.788038E-04,2.611887E+00,3.009387E-02,
1.670000E+02,2.087500E+02,1.397000E+03,3.729312E-04,2.627621E+00,2.962733E-02,
1.680000E+02,2.100000E+02,1.319000E+03,3.521090E-04,2.643355E+00,2.797312E-02,
1.690000E+02,2.112500E+02,1.232000E+03,3.288840E-04,2.659090E+00,2.612802E-02,
1.700000E+02,2.125000E+02,1.155000E+03,3.083289E-04,2.674824E+00,2.449503E-02,
1.710000E+02,2.137500E+02,1.174000E+03,3.134009E-04,2.690558E+00,2.489797E-02,
1.720000E+02,2.150000E+02,1.095999E+03,2.925786E-04,2.706292E+00,2.324375E-02,
1.730000E+02,2.162500E+02,1.143999E+03,3.053922E-04,2.722027E+00,2.426173E-02,
1.740000E+02,2.175000E+02,1.036000E+03,2.765617E-04,2.737761E+00,2.197130E-02,
1.750000E+02,2.187500E+02,9.810006E+02,2.618795E-04,2.753495E+00,2.080488E-02,
1.760000E+02,2.200000E+02,9.719991E+02,2.594765E-04,2.769230E+00,2.061398E-02,
1.770000E+02,2.212500E+02,8.490004E+02,2.266419E-04,2.784964E+00,1.800545E-02,
1.780000E+02,2.225000E+02,9.050000E+02,2.415910E-04,2.800698E+00,1.919307E-02,
1.790000E+02,2.237500E+02,7.940005E+02,2.119596E-04,2.816432E+00,1.683902E-02,
1.800000E+02,2.250000E+02,7.669999E+02,2.047517E-04,2.832167E+00,1.626639E-02,
1.810000E+02,2.262500E+02,7.559993E+02,2.018151E-04,2.847901E+00,1.603309E-02,
1.820000E+02,2.275000E+02,7.099994E+02,1.895353E-04,2.863635E+00,1.505754E-02,
1.830000E+02,2.287500E+02,7.380004E+02,1.970103E-04,2.879369E+00,1.565138E-02,
1.840000E+02,2.300000E+02,6.710004E+02,1.791245E-04,2.895104E+00,1.423045E-02,
1.850000E+02,2.312500E+02,6.299996E+02,1.681793E-04,2.910838E+00,1.336092E-02,
1.860000E+02,2.325000E+02,6.299995E+02,1.681793E-04,2.926572E+00,1.336091E-02,
1.870000E+02,2.337500E+02,5.939994E+02,1.585690E-04,2.942306E+00,1.259743E-02,
1.880000E+02,2.350000E+02,6.019996E+02,1.607046E-04,2.958041E+00,1.276710E-02,
1.890000E+02,2.362500E+02,5.319999E+02,1.420181E-04,2.973775E+00,1.128256E-02,
1.900000E+02,2.375000E+02,5.689998E+02,1.518953E-04,2.989509E+00,1.206724E-02,
1.910000E+02,2.387500E+02,5.280009E+02,1.409506E-04,3.005243E+00,1.119775E-02,
1.920000E+02,2.400000E+02,5.090007E+02,1.358785E-04,3.020978E+00,1.079479E-02,
1.930000E+02,2.412500E+02,4.810005E+02,1.284038E-04,3.036712E+00,1.020097E-02,
1.940000E+02,2.425000E+02,4.290000E+02,1.145222E-04,3.052446E+00,9.098153E-03,
1.950000E+02,2.437500E+02,3.979996E+02,1.062466E-04,3.068180E+00,8.440702E-03,
1.960000E+02,2.450000E+02,4.219998E+02,1.126534E-04,3.083915E+00,8.949694E-03,
1.970000E+02,2.462500E+02,4.020007E+02,1.073146E-04,3.099649E+00,8.525556E-03,
1.980000E+02,2.475000E+02,3.930001E+02,1.049119E-04,3.115383E+00,8.334675E-03,
1.990000E+02,2.487500E+02,3.620000E+02,9.663640E-05,3.131117E+00,7.677229E-03,
2.000000E+02,2.500000E+02,2.170000E+02,5.792845E-05,3.146852E+00,4.602096E-03,
