﻿ibin08,x=(MAXX*ibin)/NBIN08,Ni08,P(x)08,x/sigma08,P*sigma08,
-200,-2.50E+02,0.00E+00,0.00E+00,-3.15E+00,0.00E+00,
-199,-2.49E+02,0.00E+00,0.00E+00,-3.13E+00,0.00E+00,79.45148864
-198,-2.48E+02,0.00E+00,0.00E+00,-3.12E+00,0.00E+00,79.45148864
-197,-2.46E+02,0.00E+00,0.00E+00,-3.10E+00,0.00E+00,
-196,-2.45E+02,0.00E+00,0.00E+00,-3.08E+00,0.00E+00,
-195,-2.44E+02,0.00E+00,0.00E+00,-3.07E+00,0.00E+00,
-194,-2.43E+02,0.00E+00,0.00E+00,-3.05E+00,0.00E+00,
-193,-2.41E+02,0.00E+00,0.00E+00,-3.04E+00,0.00E+00,
-192,-2.40E+02,0.00E+00,0.00E+00,-3.02E+00,0.00E+00,
-191,-2.39E+02,0.00E+00,0.00E+00,-3.00E+00,0.00E+00,
-190,-2.38E+02,0.00E+00,0.00E+00,-2.99E+00,0.00E+00,
-189,-2.36E+02,0.00E+00,0.00E+00,-2.97E+00,0.00E+00,
-188,-2.35E+02,0.00E+00,0.00E+00,-2.96E+00,0.00E+00,
-187,-2.34E+02,0.00E+00,0.00E+00,-2.94E+00,0.00E+00,
-186,-2.33E+02,0.00E+00,0.00E+00,-2.93E+00,0.00E+00,
-185,-2.31E+02,0.00E+00,0.00E+00,-2.91E+00,0.00E+00,
-184,-2.30E+02,0.00E+00,0.00E+00,-2.89E+00,0.00E+00,
-183,-2.29E+02,0.00E+00,0.00E+00,-2.88E+00,0.00E+00,
-182,-2.28E+02,0.00E+00,0.00E+00,-2.86E+00,0.00E+00,
-181,-2.26E+02,0.00E+00,0.00E+00,-2.85E+00,0.00E+00,
-180,-2.25E+02,0.00E+00,0.00E+00,-2.83E+00,0.00E+00,
-179,-2.24E+02,0.00E+00,0.00E+00,-2.82E+00,0.00E+00,
-178,-2.23E+02,0.00E+00,0.00E+00,-2.80E+00,0.00E+00,
-177,-2.21E+02,0.00E+00,0.00E+00,-2.78E+00,0.00E+00,
-176,-2.20E+02,0.00E+00,0.00E+00,-2.77E+00,0.00E+00,
-175,-2.19E+02,0.00E+00,0.00E+00,-2.75E+00,0.00E+00,
-174,-2.18E+02,0.00E+00,0.00E+00,-2.74E+00,0.00E+00,
-173,-2.16E+02,0.00E+00,0.00E+00,-2.72E+00,0.00E+00,
-172,-2.15E+02,0.00E+00,0.00E+00,-2.71E+00,0.00E+00,
-171,-2.14E+02,0.00E+00,0.00E+00,-2.69E+00,0.00E+00,
-170,-2.13E+02,0.00E+00,0.00E+00,-2.67E+00,0.00E+00,
-169,-2.11E+02,0.00E+00,0.00E+00,-2.66E+00,0.00E+00,
-168,-2.10E+02,0.00E+00,0.00E+00,-2.64E+00,0.00E+00,
-167,-2.09E+02,0.00E+00,0.00E+00,-2.63E+00,0.00E+00,
-166,-2.08E+02,0.00E+00,0.00E+00,-2.61E+00,0.00E+00,
-165,-2.06E+02,0.00E+00,0.00E+00,-2.60E+00,0.00E+00,
-164,-2.05E+02,0.00E+00,0.00E+00,-2.58E+00,0.00E+00,
-163,-2.04E+02,0.00E+00,0.00E+00,-2.56E+00,0.00E+00,
-162,-2.03E+02,0.00E+00,0.00E+00,-2.55E+00,0.00E+00,
-161,-2.01E+02,0.00E+00,0.00E+00,-2.53E+00,0.00E+00,
-160,-2.00E+02,0.00E+00,0.00E+00,-2.52E+00,0.00E+00,
-159,-1.99E+02,0.00E+00,0.00E+00,-2.50E+00,0.00E+00,
-158,-1.98E+02,0.00E+00,0.00E+00,-2.49E+00,0.00E+00,
-157,-1.96E+02,0.00E+00,0.00E+00,-2.47E+00,0.00E+00,
-156,-1.95E+02,0.00E+00,0.00E+00,-2.45E+00,0.00E+00,
-155,-1.94E+02,0.00E+00,0.00E+00,-2.44E+00,0.00E+00,
-154,-1.93E+02,0.00E+00,0.00E+00,-2.42E+00,0.00E+00,
-153,-1.91E+02,0.00E+00,0.00E+00,-2.41E+00,0.00E+00,
-152,-1.90E+02,0.00E+00,0.00E+00,-2.39E+00,0.00E+00,
-151,-1.89E+02,0.00E+00,0.00E+00,-2.38E+00,0.00E+00,
-150,-1.88E+02,0.00E+00,0.00E+00,-2.36E+00,0.00E+00,
-149,-1.86E+02,0.00E+00,0.00E+00,-2.34E+00,0.00E+00,
-148,-1.85E+02,0.00E+00,0.00E+00,-2.33E+00,0.00E+00,
-147,-1.84E+02,0.00E+00,0.00E+00,-2.31E+00,0.00E+00,
-146,-1.83E+02,0.00E+00,0.00E+00,-2.30E+00,0.00E+00,
-145,-1.81E+02,0.00E+00,0.00E+00,-2.28E+00,0.00E+00,
-144,-1.80E+02,0.00E+00,0.00E+00,-2.27E+00,0.00E+00,
-143,-1.79E+02,0.00E+00,0.00E+00,-2.25E+00,0.00E+00,
-142,-1.78E+02,0.00E+00,0.00E+00,-2.23E+00,0.00E+00,
-141,-1.76E+02,0.00E+00,0.00E+00,-2.22E+00,0.00E+00,
-140,-1.75E+02,0.00E+00,0.00E+00,-2.20E+00,0.00E+00,
-139,-1.74E+02,0.00E+00,0.00E+00,-2.19E+00,0.00E+00,
-138,-1.73E+02,0.00E+00,0.00E+00,-2.17E+00,0.00E+00,
-137,-1.71E+02,0.00E+00,0.00E+00,-2.16E+00,0.00E+00,
-136,-1.70E+02,0.00E+00,0.00E+00,-2.14E+00,0.00E+00,
-135,-1.69E+02,0.00E+00,0.00E+00,-2.12E+00,0.00E+00,
-134,-1.68E+02,0.00E+00,0.00E+00,-2.11E+00,0.00E+00,
-133,-1.66E+02,0.00E+00,0.00E+00,-2.09E+00,0.00E+00,
-132,-1.65E+02,0.00E+00,0.00E+00,-2.08E+00,0.00E+00,
-131,-1.64E+02,0.00E+00,0.00E+00,-2.06E+00,0.00E+00,
-130,-1.63E+02,0.00E+00,0.00E+00,-2.05E+00,0.00E+00,
-129,-1.61E+02,0.00E+00,0.00E+00,-2.03E+00,0.00E+00,
-128,-1.60E+02,0.00E+00,0.00E+00,-2.01E+00,0.00E+00,
-127,-1.59E+02,0.00E+00,0.00E+00,-2.00E+00,0.00E+00,
-126,-1.58E+02,0.00E+00,0.00E+00,-1.98E+00,0.00E+00,
-125,-1.56E+02,0.00E+00,0.00E+00,-1.97E+00,0.00E+00,
-124,-1.55E+02,0.00E+00,0.00E+00,-1.95E+00,0.00E+00,
-123,-1.54E+02,0.00E+00,0.00E+00,-1.94E+00,0.00E+00,
-122,-1.53E+02,0.00E+00,0.00E+00,-1.92E+00,0.00E+00,
-121,-1.51E+02,0.00E+00,0.00E+00,-1.90E+00,0.00E+00,
-120,-1.50E+02,0.00E+00,0.00E+00,-1.89E+00,0.00E+00,
-119,-1.49E+02,0.00E+00,0.00E+00,-1.87E+00,0.00E+00,
-118,-1.48E+02,0.00E+00,0.00E+00,-1.86E+00,0.00E+00,
-117,-1.46E+02,0.00E+00,0.00E+00,-1.84E+00,0.00E+00,
-116,-1.45E+02,0.00E+00,0.00E+00,-1.83E+00,0.00E+00,
-115,-1.44E+02,0.00E+00,0.00E+00,-1.81E+00,0.00E+00,
-114,-1.43E+02,0.00E+00,0.00E+00,-1.79E+00,0.00E+00,
-113,-1.41E+02,0.00E+00,0.00E+00,-1.78E+00,0.00E+00,
-112,-1.40E+02,0.00E+00,0.00E+00,-1.76E+00,0.00E+00,
-111,-1.39E+02,0.00E+00,0.00E+00,-1.75E+00,0.00E+00,
-110,-1.38E+02,0.00E+00,0.00E+00,-1.73E+00,0.00E+00,
-109,-1.36E+02,0.00E+00,0.00E+00,-1.71E+00,0.00E+00,
-108,-1.35E+02,0.00E+00,0.00E+00,-1.70E+00,0.00E+00,
-107,-1.34E+02,0.00E+00,0.00E+00,-1.68E+00,0.00E+00,
-106,-1.33E+02,0.00E+00,0.00E+00,-1.67E+00,0.00E+00,
-105,-1.31E+02,0.00E+00,0.00E+00,-1.65E+00,0.00E+00,
-104,-1.30E+02,0.00E+00,0.00E+00,-1.64E+00,0.00E+00,
-103,-1.29E+02,0.00E+00,0.00E+00,-1.62E+00,0.00E+00,
-102,-1.28E+02,0.00E+00,0.00E+00,-1.60E+00,0.00E+00,
-101,-1.26E+02,0.00E+00,0.00E+00,-1.59E+00,0.00E+00,
-100,-1.25E+02,0.00E+00,0.00E+00,-1.57E+00,0.00E+00,
-99,-1.24E+02,0.00E+00,0.00E+00,-1.56E+00,0.00E+00,
-98,-1.23E+02,0.00E+00,0.00E+00,-1.54E+00,0.00E+00,
-97,-1.21E+02,0.00E+00,0.00E+00,-1.53E+00,0.00E+00,
-96,-1.20E+02,0.00E+00,0.00E+00,-1.51E+00,0.00E+00,
-95,-1.19E+02,0.00E+00,0.00E+00,-1.49E+00,0.00E+00,
-94,-1.18E+02,0.00E+00,0.00E+00,-1.48E+00,0.00E+00,
-93,-1.16E+02,0.00E+00,0.00E+00,-1.46E+00,0.00E+00,
-92,-1.15E+02,0.00E+00,0.00E+00,-1.45E+00,0.00E+00,
-91,-1.14E+02,0.00E+00,0.00E+00,-1.43E+00,0.00E+00,
-90,-1.13E+02,0.00E+00,0.00E+00,-1.42E+00,0.00E+00,
-89,-1.11E+02,0.00E+00,0.00E+00,-1.40E+00,0.00E+00,
-88,-1.10E+02,0.00E+00,0.00E+00,-1.38E+00,0.00E+00,
-87,-1.09E+02,0.00E+00,0.00E+00,-1.37E+00,0.00E+00,
-86,-1.08E+02,0.00E+00,0.00E+00,-1.35E+00,0.00E+00,
-85,-1.06E+02,0.00E+00,0.00E+00,-1.34E+00,0.00E+00,
-84,-1.05E+02,0.00E+00,0.00E+00,-1.32E+00,0.00E+00,
-83,-1.04E+02,0.00E+00,0.00E+00,-1.31E+00,0.00E+00,
-82,-1.03E+02,0.00E+00,0.00E+00,-1.29E+00,0.00E+00,
-81,-1.01E+02,0.00E+00,0.00E+00,-1.27E+00,0.00E+00,
-80,-1.00E+02,0.00E+00,0.00E+00,-1.26E+00,0.00E+00,
-79,-9.88E+01,0.00E+00,0.00E+00,-1.24E+00,0.00E+00,
-78,-9.75E+01,0.00E+00,0.00E+00,-1.23E+00,0.00E+00,
-77,-9.63E+01,0.00E+00,0.00E+00,-1.21E+00,0.00E+00,
-76,-9.50E+01,0.00E+00,0.00E+00,-1.20E+00,0.00E+00,
-75,-9.38E+01,0.00E+00,0.00E+00,-1.18E+00,0.00E+00,
-74,-9.25E+01,0.00E+00,0.00E+00,-1.16E+00,0.00E+00,
-73,-9.13E+01,0.00E+00,0.00E+00,-1.15E+00,0.00E+00,
-72,-9.00E+01,0.00E+00,0.00E+00,-1.13E+00,0.00E+00,
-71,-8.88E+01,0.00E+00,0.00E+00,-1.12E+00,0.00E+00,
-70,-8.75E+01,0.00E+00,0.00E+00,-1.10E+00,0.00E+00,
-69,-8.63E+01,0.00E+00,0.00E+00,-1.09E+00,0.00E+00,
-68,-8.50E+01,0.00E+00,0.00E+00,-1.07E+00,0.00E+00,
-67,-8.38E+01,0.00E+00,0.00E+00,-1.05E+00,0.00E+00,
-66,-8.25E+01,0.00E+00,0.00E+00,-1.04E+00,0.00E+00,
-65,-8.13E+01,0.00E+00,0.00E+00,-1.02E+00,0.00E+00,
-64,-8.00E+01,0.00E+00,0.00E+00,-1.01E+00,0.00E+00,
-63,-7.88E+01,0.00E+00,0.00E+00,-9.91E-01,0.00E+00,
-62,-7.75E+01,0.00E+00,0.00E+00,-9.75E-01,0.00E+00,
-61,-7.63E+01,0.00E+00,0.00E+00,-9.60E-01,0.00E+00,
-60,-7.50E+01,0.00E+00,0.00E+00,-9.44E-01,0.00E+00,
-59,-7.38E+01,0.00E+00,0.00E+00,-9.28E-01,0.00E+00,
-58,-7.25E+01,0.00E+00,0.00E+00,-9.13E-01,0.00E+00,
-57,-7.13E+01,0.00E+00,0.00E+00,-8.97E-01,0.00E+00,
-56,-7.00E+01,0.00E+00,0.00E+00,-8.81E-01,0.00E+00,
-55,-6.88E+01,0.00E+00,0.00E+00,-8.65E-01,0.00E+00,
-54,-6.75E+01,0.00E+00,0.00E+00,-8.50E-01,0.00E+00,
-53,-6.63E+01,0.00E+00,0.00E+00,-8.34E-01,0.00E+00,
-52,-6.50E+01,0.00E+00,0.00E+00,-8.18E-01,0.00E+00,
-51,-6.38E+01,0.00E+00,0.00E+00,-8.02E-01,0.00E+00,
-50,-6.25E+01,0.00E+00,0.00E+00,-7.87E-01,0.00E+00,
-49,-6.13E+01,0.00E+00,0.00E+00,-7.71E-01,0.00E+00,
-48,-6.00E+01,0.00E+00,0.00E+00,-7.55E-01,0.00E+00,
-47,-5.88E+01,0.00E+00,0.00E+00,-7.39E-01,0.00E+00,
-46,-5.75E+01,0.00E+00,0.00E+00,-7.24E-01,0.00E+00,
-45,-5.63E+01,0.00E+00,0.00E+00,-7.08E-01,0.00E+00,
-44,-5.50E+01,0.00E+00,0.00E+00,-6.92E-01,0.00E+00,
-43,-5.38E+01,0.00E+00,0.00E+00,-6.77E-01,0.00E+00,
-42,-5.25E+01,0.00E+00,0.00E+00,-6.61E-01,0.00E+00,
-41,-5.13E+01,0.00E+00,0.00E+00,-6.45E-01,0.00E+00,
-40,-5.00E+01,0.00E+00,0.00E+00,-6.29E-01,0.00E+00,
-39,-4.88E+01,0.00E+00,0.00E+00,-6.14E-01,0.00E+00,
-38,-4.75E+01,0.00E+00,0.00E+00,-5.98E-01,0.00E+00,
-37,-4.63E+01,0.00E+00,0.00E+00,-5.82E-01,0.00E+00,
-36,-4.50E+01,0.00E+00,0.00E+00,-5.66E-01,0.00E+00,
-35,-4.38E+01,0.00E+00,0.00E+00,-5.51E-01,0.00E+00,
-34,-4.25E+01,0.00E+00,0.00E+00,-5.35E-01,0.00E+00,
-33,-4.13E+01,0.00E+00,0.00E+00,-5.19E-01,0.00E+00,
-32,-4.00E+01,0.00E+00,0.00E+00,-5.03E-01,0.00E+00,
-31,-3.88E+01,0.00E+00,0.00E+00,-4.88E-01,0.00E+00,
-30,-3.75E+01,0.00E+00,0.00E+00,-4.72E-01,0.00E+00,
-29,-3.63E+01,0.00E+00,0.00E+00,-4.56E-01,0.00E+00,
-28,-3.50E+01,0.00E+00,0.00E+00,-4.41E-01,0.00E+00,
-27,-3.38E+01,0.00E+00,0.00E+00,-4.25E-01,0.00E+00,
-26,-3.25E+01,0.00E+00,0.00E+00,-4.09E-01,0.00E+00,
-25,-3.13E+01,0.00E+00,0.00E+00,-3.93E-01,0.00E+00,
-24,-3.00E+01,0.00E+00,0.00E+00,-3.78E-01,0.00E+00,
-23,-2.88E+01,0.00E+00,0.00E+00,-3.62E-01,0.00E+00,
-22,-2.75E+01,0.00E+00,0.00E+00,-3.46E-01,0.00E+00,
-21,-2.63E+01,0.00E+00,0.00E+00,-3.30E-01,0.00E+00,
-20,-2.50E+01,0.00E+00,0.00E+00,-3.15E-01,0.00E+00,
-19,-2.38E+01,0.00E+00,0.00E+00,-2.99E-01,0.00E+00,
-18,-2.25E+01,0.00E+00,0.00E+00,-2.83E-01,0.00E+00,
-17,-2.13E+01,0.00E+00,0.00E+00,-2.67E-01,0.00E+00,
-16,-2.00E+01,0.00E+00,0.00E+00,-2.52E-01,0.00E+00,
-15,-1.88E+01,0.00E+00,0.00E+00,-2.36E-01,0.00E+00,
-14,-1.75E+01,0.00E+00,0.00E+00,-2.20E-01,0.00E+00,
-13,-1.63E+01,0.00E+00,0.00E+00,-2.05E-01,0.00E+00,
-12,-1.50E+01,0.00E+00,0.00E+00,-1.89E-01,0.00E+00,
-11,-1.38E+01,0.00E+00,0.00E+00,-1.73E-01,0.00E+00,
-10,-1.25E+01,0.00E+00,0.00E+00,-1.57E-01,0.00E+00,
-9,-1.13E+01,0.00E+00,0.00E+00,-1.42E-01,0.00E+00,
-8,-1.00E+01,0.00E+00,0.00E+00,-1.26E-01,0.00E+00,
-7,-8.75E+00,0.00E+00,0.00E+00,-1.10E-01,0.00E+00,
-6,-7.50E+00,0.00E+00,0.00E+00,-9.44E-02,0.00E+00,
-5,-6.25E+00,0.00E+00,0.00E+00,-7.87E-02,0.00E+00,
-4,-5.00E+00,0.00E+00,0.00E+00,-6.29E-02,0.00E+00,
-3,-3.75E+00,0.00E+00,0.00E+00,-4.72E-02,0.00E+00,
-2,-2.50E+00,0.00E+00,0.00E+00,-3.15E-02,0.00E+00,
-1,-1.25E+00,0.00E+00,0.00E+00,-1.57E-02,0.00E+00,
0,0.00E+00,1.71E+04,6.85E-03,0.00E+00,5.44E-01,
1,1.25E+00,2.81E+04,1.13E-02,1.57E-02,8.94E-01,
2,2.50E+00,2.78E+04,1.11E-02,3.15E-02,8.84E-01,
3,3.75E+00,2.77E+04,1.11E-02,4.72E-02,8.82E-01,
4,5.00E+00,2.73E+04,1.09E-02,6.29E-02,8.70E-01,
5,6.25E+00,2.72E+04,1.09E-02,7.87E-02,8.65E-01,
6,7.50E+00,2.71E+04,1.08E-02,9.44E-02,8.62E-01,
7,8.75E+00,2.70E+04,1.08E-02,1.10E-01,8.59E-01,
8,1.00E+01,2.66E+04,1.07E-02,1.26E-01,8.46E-01,
9,1.13E+01,2.64E+04,1.06E-02,1.42E-01,8.41E-01,
10,1.25E+01,2.63E+04,1.05E-02,1.57E-01,8.35E-01,
11,1.38E+01,2.64E+04,1.06E-02,1.73E-01,8.41E-01,
12,1.50E+01,2.61E+04,1.05E-02,1.89E-01,8.31E-01,
13,1.63E+01,2.56E+04,1.03E-02,2.05E-01,8.16E-01,
14,1.75E+01,2.60E+04,1.04E-02,2.20E-01,8.27E-01,
15,1.88E+01,2.57E+04,1.03E-02,2.36E-01,8.17E-01,
16,2.00E+01,2.54E+04,1.02E-02,2.52E-01,8.07E-01,
17,2.13E+01,2.50E+04,1.00E-02,2.67E-01,7.95E-01,
18,2.25E+01,2.48E+04,9.91E-03,2.83E-01,7.87E-01,
19,2.38E+01,2.44E+04,9.77E-03,2.99E-01,7.76E-01,
20,2.50E+01,2.46E+04,9.86E-03,3.15E-01,7.83E-01,
21,2.63E+01,2.44E+04,9.78E-03,3.30E-01,7.77E-01,
22,2.75E+01,2.42E+04,9.69E-03,3.46E-01,7.70E-01,
23,2.88E+01,2.38E+04,9.53E-03,3.62E-01,7.57E-01,
24,3.00E+01,2.38E+04,9.55E-03,3.78E-01,7.59E-01,
25,3.13E+01,2.34E+04,9.38E-03,3.93E-01,7.45E-01,
26,3.25E+01,2.34E+04,9.35E-03,4.09E-01,7.43E-01,
27,3.38E+01,2.30E+04,9.20E-03,4.25E-01,7.31E-01,
28,3.50E+01,2.27E+04,9.09E-03,4.41E-01,7.22E-01,
29,3.63E+01,2.25E+04,9.00E-03,4.56E-01,7.15E-01,
30,3.75E+01,2.24E+04,8.98E-03,4.72E-01,7.14E-01,
31,3.88E+01,2.22E+04,8.90E-03,4.88E-01,7.07E-01,
32,4.00E+01,2.22E+04,8.89E-03,5.03E-01,7.06E-01,
33,4.13E+01,2.17E+04,8.69E-03,5.19E-01,6.91E-01,
34,4.25E+01,2.13E+04,8.54E-03,5.35E-01,6.79E-01,
35,4.38E+01,2.10E+04,8.39E-03,5.51E-01,6.67E-01,
36,4.50E+01,2.08E+04,8.34E-03,5.66E-01,6.63E-01,
37,4.63E+01,2.08E+04,8.33E-03,5.82E-01,6.62E-01,
38,4.75E+01,2.05E+04,8.21E-03,5.98E-01,6.53E-01,
39,4.88E+01,2.02E+04,8.08E-03,6.14E-01,6.42E-01,
40,5.00E+01,1.99E+04,7.96E-03,6.29E-01,6.32E-01,
41,5.13E+01,1.99E+04,7.97E-03,6.45E-01,6.33E-01,
42,5.25E+01,1.94E+04,7.78E-03,6.61E-01,6.18E-01,
43,5.38E+01,1.93E+04,7.74E-03,6.77E-01,6.15E-01,
44,5.50E+01,1.91E+04,7.67E-03,6.92E-01,6.09E-01,
45,5.63E+01,1.87E+04,7.50E-03,7.08E-01,5.96E-01,
46,5.75E+01,1.87E+04,7.47E-03,7.24E-01,5.94E-01,
47,5.88E+01,1.82E+04,7.28E-03,7.39E-01,5.78E-01,
48,6.00E+01,1.81E+04,7.25E-03,7.55E-01,5.76E-01,
49,6.13E+01,1.78E+04,7.13E-03,7.71E-01,5.67E-01,
50,6.25E+01,1.76E+04,7.06E-03,7.87E-01,5.61E-01,
51,6.38E+01,1.74E+04,6.95E-03,8.02E-01,5.52E-01,
52,6.50E+01,1.71E+04,6.85E-03,8.18E-01,5.44E-01,
53,6.63E+01,1.69E+04,6.76E-03,8.34E-01,5.37E-01,
54,6.75E+01,1.65E+04,6.62E-03,8.50E-01,5.26E-01,
55,6.88E+01,1.64E+04,6.58E-03,8.65E-01,5.23E-01,
56,7.00E+01,1.61E+04,6.46E-03,8.81E-01,5.13E-01,
57,7.13E+01,1.59E+04,6.38E-03,8.97E-01,5.07E-01,
58,7.25E+01,1.57E+04,6.28E-03,9.13E-01,4.99E-01,
59,7.38E+01,1.56E+04,6.24E-03,9.28E-01,4.96E-01,
60,7.50E+01,1.53E+04,6.11E-03,9.44E-01,4.85E-01,
61,7.63E+01,1.51E+04,6.06E-03,9.60E-01,4.82E-01,
62,7.75E+01,1.47E+04,5.88E-03,9.75E-01,4.67E-01,
63,7.88E+01,1.46E+04,5.85E-03,9.91E-01,4.65E-01,
64,8.00E+01,1.42E+04,5.69E-03,1.01E+00,4.52E-01,
65,8.13E+01,1.40E+04,5.61E-03,1.02E+00,4.45E-01,
66,8.25E+01,1.36E+04,5.46E-03,1.04E+00,4.34E-01,
67,8.38E+01,1.36E+04,5.44E-03,1.05E+00,4.32E-01,
68,8.50E+01,1.35E+04,5.39E-03,1.07E+00,4.28E-01,
69,8.63E+01,1.30E+04,5.19E-03,1.09E+00,4.12E-01,
70,8.75E+01,1.29E+04,5.17E-03,1.10E+00,4.11E-01,
71,8.88E+01,1.28E+04,5.12E-03,1.12E+00,4.07E-01,
72,9.00E+01,1.25E+04,5.01E-03,1.13E+00,3.98E-01,
73,9.13E+01,1.23E+04,4.91E-03,1.15E+00,3.90E-01,
74,9.25E+01,1.21E+04,4.83E-03,1.16E+00,3.84E-01,
75,9.38E+01,1.17E+04,4.69E-03,1.18E+00,3.72E-01,
76,9.50E+01,1.16E+04,4.63E-03,1.20E+00,3.68E-01,
77,9.63E+01,1.14E+04,4.56E-03,1.21E+00,3.62E-01,
78,9.75E+01,1.13E+04,4.52E-03,1.23E+00,3.59E-01,
79,9.88E+01,1.07E+04,4.27E-03,1.24E+00,3.40E-01,
80,1.00E+02,1.07E+04,4.29E-03,1.26E+00,3.40E-01,
81,1.01E+02,1.06E+04,4.26E-03,1.27E+00,3.38E-01,
82,1.03E+02,1.05E+04,4.19E-03,1.29E+00,3.33E-01,
83,1.04E+02,1.01E+04,4.02E-03,1.31E+00,3.20E-01,
84,1.05E+02,9.94E+03,3.98E-03,1.32E+00,3.16E-01,
85,1.06E+02,9.72E+03,3.89E-03,1.34E+00,3.09E-01,
86,1.08E+02,9.38E+03,3.76E-03,1.35E+00,2.98E-01,
87,1.09E+02,9.19E+03,3.68E-03,1.37E+00,2.92E-01,
88,1.10E+02,9.02E+03,3.61E-03,1.38E+00,2.87E-01,
89,1.11E+02,8.89E+03,3.56E-03,1.40E+00,2.83E-01,
90,1.13E+02,8.78E+03,3.52E-03,1.42E+00,2.79E-01,
91,1.14E+02,8.56E+03,3.43E-03,1.43E+00,2.72E-01,
92,1.15E+02,8.47E+03,3.39E-03,1.45E+00,2.69E-01,
93,1.16E+02,8.21E+03,3.29E-03,1.46E+00,2.61E-01,
94,1.18E+02,8.01E+03,3.21E-03,1.48E+00,2.55E-01,
95,1.19E+02,7.86E+03,3.15E-03,1.49E+00,2.50E-01,
96,1.20E+02,7.66E+03,3.07E-03,1.51E+00,2.44E-01,
97,1.21E+02,7.56E+03,3.03E-03,1.53E+00,2.41E-01,
98,1.23E+02,7.33E+03,2.94E-03,1.54E+00,2.33E-01,
99,1.24E+02,7.13E+03,2.85E-03,1.56E+00,2.27E-01,
100,1.25E+02,6.93E+03,2.77E-03,1.57E+00,2.20E-01,
101,1.26E+02,6.80E+03,2.72E-03,1.59E+00,2.16E-01,
102,1.28E+02,6.78E+03,2.71E-03,1.60E+00,2.16E-01,
103,1.29E+02,6.39E+03,2.56E-03,1.62E+00,2.03E-01,
104,1.30E+02,6.30E+03,2.52E-03,1.64E+00,2.00E-01,
105,1.31E+02,6.19E+03,2.48E-03,1.65E+00,1.97E-01,
106,1.33E+02,5.99E+03,2.40E-03,1.67E+00,1.91E-01,
107,1.34E+02,5.82E+03,2.33E-03,1.68E+00,1.85E-01,
108,1.35E+02,5.68E+03,2.27E-03,1.70E+00,1.81E-01,
109,1.36E+02,5.59E+03,2.24E-03,1.71E+00,1.78E-01,
110,1.38E+02,5.41E+03,2.16E-03,1.73E+00,1.72E-01,
111,1.39E+02,5.36E+03,2.15E-03,1.75E+00,1.70E-01,
112,1.40E+02,5.15E+03,2.06E-03,1.76E+00,1.64E-01,
113,1.41E+02,5.01E+03,2.01E-03,1.78E+00,1.59E-01,
114,1.43E+02,4.81E+03,1.93E-03,1.79E+00,1.53E-01,
115,1.44E+02,4.86E+03,1.95E-03,1.81E+00,1.55E-01,
116,1.45E+02,4.55E+03,1.82E-03,1.83E+00,1.45E-01,
117,1.46E+02,4.56E+03,1.82E-03,1.84E+00,1.45E-01,
118,1.48E+02,4.45E+03,1.78E-03,1.86E+00,1.42E-01,
119,1.49E+02,4.28E+03,1.71E-03,1.87E+00,1.36E-01,
120,1.50E+02,4.14E+03,1.66E-03,1.89E+00,1.32E-01,
121,1.51E+02,4.04E+03,1.62E-03,1.90E+00,1.28E-01,
122,1.53E+02,3.97E+03,1.59E-03,1.92E+00,1.26E-01,
123,1.54E+02,3.88E+03,1.55E-03,1.94E+00,1.24E-01,
124,1.55E+02,3.69E+03,1.48E-03,1.95E+00,1.17E-01,
125,1.56E+02,3.62E+03,1.45E-03,1.97E+00,1.15E-01,
126,1.58E+02,3.51E+03,1.41E-03,1.98E+00,1.12E-01,
127,1.59E+02,3.40E+03,1.36E-03,2.00E+00,1.08E-01,
128,1.60E+02,3.32E+03,1.33E-03,2.01E+00,1.06E-01,
129,1.61E+02,3.18E+03,1.27E-03,2.03E+00,1.01E-01,
130,1.63E+02,3.04E+03,1.22E-03,2.05E+00,9.67E-02,
131,1.64E+02,3.06E+03,1.22E-03,2.06E+00,9.73E-02,
132,1.65E+02,3.03E+03,1.21E-03,2.08E+00,9.65E-02,
133,1.66E+02,2.92E+03,1.17E-03,2.09E+00,9.28E-02,
134,1.68E+02,2.69E+03,1.08E-03,2.11E+00,8.55E-02,
135,1.69E+02,2.76E+03,1.11E-03,2.12E+00,8.78E-02,
136,1.70E+02,2.64E+03,1.06E-03,2.14E+00,8.41E-02,
137,1.71E+02,2.60E+03,1.04E-03,2.16E+00,8.26E-02,
138,1.73E+02,2.53E+03,1.01E-03,2.17E+00,8.04E-02,
139,1.74E+02,2.41E+03,9.65E-04,2.19E+00,7.67E-02,
140,1.75E+02,2.24E+03,8.96E-04,2.20E+00,7.12E-02,
141,1.76E+02,2.27E+03,9.07E-04,2.22E+00,7.21E-02,
142,1.78E+02,2.17E+03,8.69E-04,2.23E+00,6.90E-02,
143,1.79E+02,2.05E+03,8.19E-04,2.25E+00,6.51E-02,
144,1.80E+02,2.04E+03,8.18E-04,2.27E+00,6.50E-02,
145,1.81E+02,2.02E+03,8.07E-04,2.28E+00,6.41E-02,
146,1.83E+02,1.86E+03,7.43E-04,2.30E+00,5.90E-02,
147,1.84E+02,1.88E+03,7.54E-04,2.31E+00,5.99E-02,
148,1.85E+02,1.75E+03,6.99E-04,2.33E+00,5.56E-02,
149,1.86E+02,1.70E+03,6.81E-04,2.34E+00,5.41E-02,
150,1.88E+02,1.68E+03,6.71E-04,2.36E+00,5.33E-02,
151,1.89E+02,1.60E+03,6.40E-04,2.38E+00,5.08E-02,
152,1.90E+02,1.50E+03,6.02E-04,2.39E+00,4.78E-02,
153,1.91E+02,1.50E+03,6.02E-04,2.41E+00,4.78E-02,
154,1.93E+02,1.42E+03,5.67E-04,2.42E+00,4.50E-02,
155,1.94E+02,1.31E+03,5.25E-04,2.44E+00,4.17E-02,
156,1.95E+02,1.36E+03,5.44E-04,2.45E+00,4.33E-02,
157,1.96E+02,1.25E+03,5.01E-04,2.47E+00,3.98E-02,
158,1.98E+02,1.28E+03,5.11E-04,2.49E+00,4.06E-02,
159,1.99E+02,1.23E+03,4.94E-04,2.50E+00,3.93E-02,
160,2.00E+02,1.11E+03,4.44E-04,2.52E+00,3.53E-02,
161,2.01E+02,1.11E+03,4.42E-04,2.53E+00,3.51E-02,
162,2.03E+02,1.07E+03,4.27E-04,2.55E+00,3.39E-02,
163,2.04E+02,1.01E+03,4.04E-04,2.56E+00,3.21E-02,
164,2.05E+02,1.01E+03,4.03E-04,2.58E+00,3.20E-02,
165,2.06E+02,9.52E+02,3.81E-04,2.60E+00,3.03E-02,
166,2.08E+02,9.71E+02,3.89E-04,2.61E+00,3.09E-02,
167,2.09E+02,9.18E+02,3.67E-04,2.63E+00,2.92E-02,
168,2.10E+02,8.89E+02,3.56E-04,2.64E+00,2.83E-02,
169,2.11E+02,8.51E+02,3.41E-04,2.66E+00,2.71E-02,
170,2.13E+02,7.57E+02,3.03E-04,2.67E+00,2.41E-02,
171,2.14E+02,8.19E+02,3.28E-04,2.69E+00,2.60E-02,
172,2.15E+02,7.43E+02,2.97E-04,2.71E+00,2.36E-02,
173,2.16E+02,7.50E+02,3.00E-04,2.72E+00,2.39E-02,
174,2.18E+02,6.76E+02,2.71E-04,2.74E+00,2.15E-02,
175,2.19E+02,6.54E+02,2.62E-04,2.75E+00,2.08E-02,
176,2.20E+02,6.33E+02,2.53E-04,2.77E+00,2.01E-02,
177,2.21E+02,5.89E+02,2.36E-04,2.78E+00,1.87E-02,
178,2.23E+02,6.13E+02,2.45E-04,2.80E+00,1.95E-02,
179,2.24E+02,5.38E+02,2.15E-04,2.82E+00,1.71E-02,
180,2.25E+02,5.01E+02,2.01E-04,2.83E+00,1.59E-02,
181,2.26E+02,4.95E+02,1.98E-04,2.85E+00,1.57E-02,
182,2.28E+02,4.94E+02,1.98E-04,2.86E+00,1.57E-02,
183,2.29E+02,5.07E+02,2.03E-04,2.88E+00,1.61E-02,
184,2.30E+02,4.73E+02,1.89E-04,2.89E+00,1.50E-02,
185,2.31E+02,3.96E+02,1.59E-04,2.91E+00,1.26E-02,
186,2.33E+02,4.31E+02,1.73E-04,2.93E+00,1.37E-02,
187,2.34E+02,4.00E+02,1.60E-04,2.94E+00,1.27E-02,
188,2.35E+02,3.98E+02,1.59E-04,2.96E+00,1.27E-02,
189,2.36E+02,3.64E+02,1.46E-04,2.97E+00,1.16E-02,
190,2.38E+02,4.03E+02,1.61E-04,2.99E+00,1.28E-02,
191,2.39E+02,3.53E+02,1.41E-04,3.00E+00,1.12E-02,
192,2.40E+02,3.21E+02,1.29E-04,3.02E+00,1.02E-02,
193,2.41E+02,3.03E+02,1.21E-04,3.04E+00,9.64E-03,
194,2.43E+02,2.87E+02,1.15E-04,3.05E+00,9.13E-03,
195,2.44E+02,2.74E+02,1.10E-04,3.07E+00,8.71E-03,
196,2.45E+02,2.83E+02,1.13E-04,3.08E+00,9.00E-03,
197,2.46E+02,2.70E+02,1.08E-04,3.10E+00,8.59E-03,
198,2.48E+02,2.72E+02,1.09E-04,3.12E+00,8.65E-03,
199,2.49E+02,2.41E+02,9.65E-05,3.13E+00,7.67E-03,
200,2.50E+02,2.19E+02,8.77E-05,3.15E+00,6.97E-03,
