﻿x,P(x),x/sigma,P*sigma,Ni,Percent Ni
-29.700000,0.000000,-27.899618,0.000000,0,0.977875569
-29.400000,0.000000,-27.617804,0.000000,0,sigma
-29.100000,0.000000,-27.335990,0.000000,0,1.064530692
-28.800000,0.000000,-27.054175,0.000000,0,
-28.500000,0.000000,-26.772361,0.000000,0,
-28.200000,0.000000,-26.490547,0.000000,0,
-27.900000,0.000000,-26.208732,0.000000,0,
-27.600000,0.000000,-25.926918,0.000000,0,
-27.300000,0.000000,-25.645104,0.000000,0,
-27.000000,0.000000,-25.363289,0.000000,0,
-26.700000,0.000000,-25.081475,0.000000,0,
-26.400000,0.000000,-24.799661,0.000000,0,
-26.100000,0.000000,-24.517846,0.000000,0,
-25.800000,0.000000,-24.236032,0.000000,0,
-25.500000,0.000000,-23.954218,0.000000,0,
-25.200000,0.000000,-23.672403,0.000000,0,
-24.900000,0.000000,-23.390589,0.000000,0,
-24.600000,0.000000,-23.108775,0.000000,0,
-24.300000,0.000000,-22.826960,0.000000,0,
-24.000000,0.000000,-22.545146,0.000000,0,
-23.700000,0.000000,-22.263332,0.000000,0,
-23.400000,0.000000,-21.981517,0.000000,0,
-23.100000,0.000000,-21.699703,0.000000,0,
-22.800000,0.000000,-21.417889,0.000000,0,
-22.500000,0.000000,-21.136074,0.000000,0,
-22.200000,0.000000,-20.854260,0.000000,0,
-21.900000,0.000000,-20.572446,0.000000,0,
-21.600000,0.000000,-20.290632,0.000000,0,
-21.300000,0.000000,-20.008817,0.000000,0,
-21.000000,0.000000,-19.727003,0.000000,0,
-20.700000,0.000000,-19.445189,0.000000,0,
-20.400000,0.000000,-19.163374,0.000000,0,
-20.100000,0.000000,-18.881560,0.000000,0,
-19.800000,0.000000,-18.599746,0.000000,0,
-19.500000,0.000000,-18.317931,0.000000,0,
-19.200000,0.000000,-18.036117,0.000000,0,
-18.900000,0.000000,-17.754303,0.000000,0,
-18.600000,0.000000,-17.472488,0.000000,0,
-18.300000,0.000000,-17.190674,0.000000,0,
-18.000000,0.000000,-16.908860,0.000000,0,
-17.700000,0.000000,-16.627045,0.000000,0,
-17.400000,0.000000,-16.345231,0.000000,0,
-17.100000,0.000000,-16.063417,0.000000,0,
-16.800000,0.000000,-15.781602,0.000000,0,
-16.500000,0.000000,-15.499788,0.000000,0,
-16.200000,0.000000,-15.217974,0.000000,0,
-15.900000,0.000000,-14.936159,0.000000,0,
-15.600000,0.000000,-14.654345,0.000000,0,
-15.300000,0.000000,-14.372531,0.000000,0,
-15.000000,0.000000,-14.090716,0.000000,0,
-14.700000,0.000000,-13.808902,0.000000,0,
-14.400000,0.000000,-13.527088,0.000000,0,
-14.100000,0.000000,-13.245273,0.000000,0,
-13.800000,0.000000,-12.963459,0.000000,0,
-13.500000,0.000000,-12.681645,0.000000,0,
-13.200000,0.000000,-12.399830,0.000000,0,
-12.900000,0.000000,-12.118016,0.000000,0,
-12.600000,0.000000,-11.836202,0.000000,0,
-12.300000,0.000000,-11.554387,0.000000,0,
-12.000000,0.000000,-11.272573,0.000000,0,
-11.700000,0.000000,-10.990759,0.000000,0,
-11.400000,0.000000,-10.708944,0.000000,0,
-11.100000,0.000000,-10.427130,0.000000,0,
-10.800000,0.000000,-10.145316,0.000000,0,
-10.500000,0.000000,-9.863501,0.000000,0,
-10.200000,0.000000,-9.581687,0.000000,0,
-9.900000,0.000000,-9.299873,0.000000,0,
-9.600000,0.000000,-9.018058,0.000000,0,
-9.300000,0.000000,-8.736244,0.000000,0,
-9.000000,0.000000,-8.454430,0.000000,0,
-8.700000,0.000000,-8.172615,0.000000,0,
-8.400000,0.000000,-7.890801,0.000000,0,
-8.100000,0.000000,-7.608987,0.000000,0,
-7.800000,0.000000,-7.327172,0.000000,0,
-7.500000,0.000000,-7.045358,0.000000,0,
-7.200000,0.000000,-6.763544,0.000000,0,
-6.900000,0.000000,-6.481730,0.000000,0,
-6.600000,0.000000,-6.199915,0.000000,0,
-6.300000,0.000000,-5.918101,0.000000,0,
-6.000000,0.000000,-5.636287,0.000000,0,
-5.700000,0.000000,-5.354472,0.000000,0,
-5.400000,0.000000,-5.072658,0.000000,0,
-5.100000,0.000000,-4.790844,0.000000,0,
-4.800000,0.000000,-4.509029,0.000000,0,
-4.500000,0.000000,-4.227215,0.000000,0,
-4.200000,0.000000,-3.945401,0.000000,0,
-3.900000,0.000000,-3.663586,0.000000,0,
-3.600000,0.000000,-3.381772,0.000000,0,
-3.300000,0.000000,-3.099958,0.000000,0,
-3.000000,0.000000,-2.818143,0.000000,0,
-2.700000,0.000000,-2.536329,0.000000,0,
-2.400000,0.000000,-2.254515,0.000000,0,
-2.100000,0.000000,-1.972700,0.000000,0,
-1.800000,0.000000,-1.690886,0.000000,0,
-1.500000,0.000000,-1.409072,0.000000,0,
-1.200000,0.000000,-1.127257,0.000000,0,
-0.900000,0.000000,-0.845443,0.000000,0,
-0.600000,0.000000,-0.563629,0.000000,0,
-0.300000,0.000083,-0.281814,0.000089,1,
0.000000,0.002167,0.000000,0.002306,26,
0.300000,0.005750,0.281814,0.006121,69,
0.600000,0.011500,0.563629,0.012242,138,
0.900000,0.017500,0.845443,0.018629,210,
1.200000,0.030749,1.127257,0.032734,369,
1.500000,0.038166,1.409072,0.040629,458,
1.800000,0.050915,1.690886,0.054201,611,
2.100000,0.060165,1.972700,0.064048,722,
2.400000,0.065748,2.254515,0.069991,789,
2.700000,0.073415,2.536329,0.078152,881,
3.000000,0.070998,2.818143,0.075580,852,
3.300000,0.074581,3.099958,0.079394,895,
3.600000,0.072915,3.381772,0.077620,875,
3.900000,0.078331,3.663586,0.083386,940,
4.200000,0.078415,3.945401,0.083475,941,
4.500000,0.073332,4.227215,0.078064,880,
4.800000,0.075415,4.509029,0.080281,905,
5.100000,0.070748,4.790844,0.075314,849,
5.400000,0.071915,5.072658,0.076556,863,
5.700000,0.070165,5.354472,0.074693,842,
6.000000,0.066665,5.636287,0.070967,800,
6.300000,0.067332,5.918101,0.071677,808,
6.600000,0.065582,6.199915,0.069814,787,
6.900000,0.066332,6.481730,0.070612,796,
7.200000,0.064332,6.763544,0.068483,772,
7.500000,0.062165,7.045358,0.066177,746,
7.800000,0.057582,7.327172,0.061298,691,
8.100000,0.058999,7.608987,0.062806,708,
8.400000,0.053249,7.890801,0.056685,639,
8.700000,0.055415,8.172615,0.058991,665,
9.000000,0.053165,8.454430,0.056596,638,
9.300000,0.050915,8.736244,0.054201,611,
9.600000,0.049082,9.018058,0.052249,589,
9.900000,0.050915,9.299873,0.054201,611,
10.200000,0.044416,9.581687,0.047282,533,
10.500000,0.043916,9.863501,0.046749,527,
10.800000,0.045499,10.145316,0.048435,546,
11.100000,0.044666,10.427130,0.047548,536,
11.400000,0.046832,10.708944,0.049854,562,
11.700000,0.043832,10.990759,0.046661,526,
12.000000,0.042332,11.272573,0.045064,508,
12.300000,0.038916,11.554387,0.041427,467,
12.600000,0.037166,11.836202,0.039564,446,
12.900000,0.035582,12.118016,0.037879,427,
13.200000,0.036832,12.399830,0.039209,442,
13.500000,0.037166,12.681645,0.039564,446,
13.800000,0.032583,12.963459,0.034685,391,
14.100000,0.033999,13.245273,0.036193,408,
14.400000,0.030499,13.527088,0.032467,366,
14.700000,0.032583,13.808902,0.034685,391,
15.000000,0.028583,14.090716,0.030427,343,
15.300000,0.031083,14.372531,0.033088,373,
15.600000,0.029749,14.654345,0.031669,357,
15.900000,0.027666,14.936159,0.029451,332,
16.200000,0.024833,15.217974,0.026435,298,
16.500000,0.028333,15.499788,0.030161,340,
16.800000,0.028249,15.781602,0.030072,339,
17.100000,0.022999,16.063417,0.024484,276,
17.400000,0.023249,16.345231,0.024750,279,
17.700000,0.020416,16.627045,0.021734,245,
18.000000,0.021833,16.908860,0.023242,262,
18.300000,0.021083,17.190674,0.022443,253,
18.600000,0.022916,17.472488,0.024395,275,
18.900000,0.020666,17.754303,0.022000,248,
19.200000,0.020166,18.036117,0.021468,242,
19.500000,0.020083,18.317931,0.021379,241,
19.800000,0.017916,18.599746,0.019072,215,
20.100000,0.016166,18.881560,0.017209,194,
20.400000,0.017583,19.163374,0.018718,211,
20.700000,0.017666,19.445189,0.018806,212,
21.000000,0.014166,19.727003,0.015080,170,
21.300000,0.015833,20.008817,0.016855,190,
21.600000,0.013833,20.290632,0.014726,166,
21.900000,0.012916,20.572446,0.013750,155,
22.200000,0.012500,20.854260,0.013306,150,
22.500000,0.011083,21.136074,0.011798,133,
22.800000,0.011250,21.417889,0.011976,135,
23.100000,0.010250,21.699703,0.010911,123,
23.400000,0.010416,21.981517,0.011089,125,
23.700000,0.010666,22.263332,0.011355,128,
24.000000,0.010083,22.545146,0.010734,121,
24.300000,0.009166,22.826960,0.009758,110,
24.600000,0.009583,23.108775,0.010202,115,
24.900000,0.008333,23.390589,0.008871,100,
25.200000,0.008500,23.672403,0.009048,102,
25.500000,0.007083,23.954218,0.007540,85,
25.800000,0.008416,24.236032,0.008960,101,
26.100000,0.007083,24.517846,0.007540,85,
26.400000,0.006833,24.799661,0.007274,82,
26.700000,0.007333,25.081475,0.007806,88,
27.000000,0.005667,25.363289,0.006032,68,
27.300000,0.006167,25.645104,0.006564,74,
27.600000,0.006000,25.926918,0.006387,72,
27.900000,0.005250,26.208732,0.005589,63,
28.200000,0.005000,26.490547,0.005323,60,
28.500000,0.005417,26.772361,0.005766,65,
28.800000,0.004500,27.054175,0.004790,54,
29.100000,0.004667,27.335990,0.004968,56,
29.400000,0.004000,27.617804,0.004258,48,
29.700000,0.004833,27.899618,0.005145,58,
30.000000,0.000000,28.181433,0.000000,0,
