 Friction force coefficient set to 1
 Mass is set to one.
 Temperature:   1.00000000000000     
 initial value:  0.000000000000000E+000
 initial velocity:   0.000000000000000E+000
 number of particles set to:      1000000
 time interval:   1.000000000000000E-002
 total time:    167772.160000000     
 total number of random forces to interact:     16777216
 Alpha for friction force set to    1.60000000000000     
 Stops:      250000      500000      750000
 Alpha for wall force set to    1.00000000000000     
 Constant in front of wall force set to    5.00000000000000     
 Box Start:         1000 Box Window Size:          115
 Box Start:         4500 Box Window Size:         1265
 Box Start:        35000 Box Window Size:        18975
 Box Start:       200000 Box Window Size:       398475
 Program running on          80  processes
 Real number of particles:      1000000
