﻿time,xxav,xx2av,vvav ,vv2av
0.00000E+00,0.00000E+00,0.00000E+00,0.00000E+00,0.00000E+00
5.00000E-01,1.49098E-01,5.37441E-02,5.30563E-01,6.36566E-01
1.00000E+00,4.55998E-01,3.96733E-01,6.32103E-01,8.99893E-01
1.50000E+00,7.28368E-01,9.76903E-01,4.25323E-01,7.69444E-01
2.00000E+00,8.78002E-01,1.49465E+00,1.78638E-01,6.83673E-01
2.50000E+00,9.26979E-01,1.76447E+00,3.53411E-02,7.67056E-01
3.00000E+00,9.32283E-01,1.82697E+00,-2.57999E-03,8.95035E-01
3.50000E+00,9.32947E-01,1.81133E+00,1.04854E-02,9.72037E-01
4.00000E+00,9.44769E-01,1.81192E+00,3.71075E-02,1.00012E+00
4.50000E+00,9.68296E-01,1.86034E+00,5.60836E-02,1.00507E+00
5.00000E+00,9.99218E-01,1.94879E+00,6.54435E-02,1.01328E+00
5.50000E+00,1.03189E+00,2.05855E+00,6.34632E-02,1.02246E+00
6.00000E+00,1.06194E+00,2.17127E+00,5.60261E-02,1.03333E+00
6.50000E+00,1.08816E+00,2.27533E+00,4.88560E-02,1.04213E+00
7.00000E+00,1.11107E+00,2.36570E+00,4.26192E-02,1.04915E+00
7.50000E+00,1.13045E+00,2.44141E+00,3.52807E-02,1.05561E+00
8.00000E+00,1.14671E+00,2.50682E+00,3.03760E-02,1.05895E+00
8.50000E+00,1.16149E+00,2.56586E+00,2.89248E-02,1.05837E+00
9.00000E+00,1.17592E+00,2.62132E+00,2.86558E-02,1.06206E+00
9.50000E+00,1.19001E+00,2.67621E+00,2.77451E-02,1.06404E+00
1.00000E+01,1.20368E+00,2.73256E+00,2.73358E-02,1.06296E+00
1.05000E+01,1.21699E+00,2.78704E+00,2.60156E-02,1.06179E+00
1.10200E+01,1.23042E+00,2.84269E+00,2.52463E-02,1.06278E+00
1.15700E+01,1.24406E+00,2.90031E+00,2.45364E-02,1.06587E+00
1.21400E+01,1.25763E+00,2.96068E+00,2.38785E-02,1.06405E+00
1.27400E+01,1.27191E+00,3.02247E+00,2.29244E-02,1.06275E+00
1.33700E+01,1.28599E+00,3.08305E+00,2.21497E-02,1.06533E+00
1.40300E+01,1.30005E+00,3.14432E+00,2.04174E-02,1.06497E+00
1.47300E+01,1.31421E+00,3.20910E+00,1.99292E-02,1.06501E+00
1.54600E+01,1.32838E+00,3.27323E+00,1.90475E-02,1.06375E+00
1.62300E+01,1.34271E+00,3.33899E+00,1.82065E-02,1.06284E+00
1.70400E+01,1.35731E+00,3.40416E+00,1.72034E-02,1.06486E+00
1.78900E+01,1.37065E+00,3.47026E+00,1.59041E-02,1.06501E+00
1.87800E+01,1.38523E+00,3.54193E+00,1.67106E-02,1.06453E+00
1.97100E+01,1.40124E+00,3.61788E+00,1.74280E-02,1.06384E+00
2.06900E+01,1.41652E+00,3.69396E+00,1.49613E-02,1.06783E+00
2.17200E+01,1.43248E+00,3.77210E+00,1.46866E-02,1.06559E+00
2.28000E+01,1.44745E+00,3.84399E+00,1.28860E-02,1.06217E+00
2.39400E+01,1.46151E+00,3.91695E+00,1.22947E-02,1.06500E+00
2.51300E+01,1.47676E+00,3.99561E+00,1.25513E-02,1.06040E+00
2.63800E+01,1.49254E+00,4.07729E+00,1.32878E-02,1.06170E+00
2.76900E+01,1.50802E+00,4.15465E+00,9.79694E-03,1.05983E+00
2.90700E+01,1.52381E+00,4.23544E+00,1.24419E-02,1.06176E+00
3.05200E+01,1.54016E+00,4.32496E+00,1.08089E-02,1.05992E+00
3.20400E+01,1.55780E+00,4.41648E+00,1.23989E-02,1.06148E+00
3.36400E+01,1.57413E+00,4.50831E+00,6.82174E-03,1.06178E+00
3.53200E+01,1.58919E+00,4.58938E+00,8.42776E-03,1.06115E+00
3.70800E+01,1.60790E+00,4.69124E+00,1.06939E-02,1.06045E+00
3.89300E+01,1.62412E+00,4.78455E+00,9.39895E-03,1.05977E+00
4.08700E+01,1.64055E+00,4.87594E+00,8.55715E-03,1.05932E+00
4.29100E+01,1.65734E+00,4.97345E+00,6.46179E-03,1.05465E+00
4.50500E+01,1.67447E+00,5.07174E+00,8.47779E-03,1.05458E+00
4.73000E+01,1.69182E+00,5.17223E+00,8.66633E-03,1.05705E+00
4.96600E+01,1.71209E+00,5.29055E+00,6.10838E-03,1.05774E+00
5.21400E+01,1.73047E+00,5.39836E+00,8.57188E-03,1.05662E+00
5.47400E+01,1.74630E+00,5.49447E+00,6.52208E-03,1.05969E+00
5.74700E+01,1.76450E+00,5.60131E+00,7.18178E-03,1.05711E+00
6.03400E+01,1.78236E+00,5.71371E+00,6.47218E-03,1.05620E+00
6.33500E+01,1.80193E+00,5.83379E+00,6.13248E-03,1.05475E+00
6.65100E+01,1.81921E+00,5.94470E+00,5.46348E-03,1.05516E+00
6.98300E+01,1.83913E+00,6.06471E+00,6.23368E-03,1.05478E+00
7.33200E+01,1.85898E+00,6.18904E+00,8.43957E-03,1.05538E+00
7.69800E+01,1.87736E+00,6.30203E+00,5.45452E-03,1.05572E+00
8.08200E+01,1.89755E+00,6.44131E+00,4.35556E-03,1.05655E+00
8.48600E+01,1.91630E+00,6.56139E+00,4.68872E-03,1.05492E+00
8.91000E+01,1.93440E+00,6.68971E+00,2.94908E-03,1.05195E+00
9.35500E+01,1.95312E+00,6.81153E+00,5.19536E-03,1.05287E+00
9.82200E+01,1.97321E+00,6.94916E+00,5.13446E-03,1.05350E+00
1.03130E+02,1.99374E+00,7.09543E+00,3.97500E-03,1.05125E+00
1.08280E+02,2.01589E+00,7.23981E+00,4.31538E-03,1.05018E+00
1.13690E+02,2.03420E+00,7.37001E+00,3.98837E-03,1.04838E+00
1.19370E+02,2.05617E+00,7.51959E+00,4.00562E-03,1.05103E+00
1.25330E+02,2.07780E+00,7.66702E+00,4.35697E-03,1.05163E+00
1.31590E+02,2.09878E+00,7.81840E+00,5.09958E-03,1.05016E+00
1.38160E+02,2.12041E+00,7.97653E+00,4.02132E-03,1.05031E+00
1.45060E+02,2.14189E+00,8.13763E+00,3.03546E-03,1.04931E+00
1.52310E+02,2.16330E+00,8.29528E+00,3.27563E-03,1.04845E+00
1.59920E+02,2.18428E+00,8.44781E+00,2.60435E-03,1.05109E+00
1.67910E+02,2.20585E+00,8.61768E+00,4.16345E-03,1.04785E+00
1.76300E+02,2.23138E+00,8.80750E+00,2.56774E-03,1.04960E+00
1.85110E+02,2.25396E+00,8.99110E+00,1.51842E-03,1.05048E+00
1.94360E+02,2.27536E+00,9.15484E+00,3.43388E-03,1.04690E+00
2.04070E+02,2.29872E+00,9.33998E+00,1.50916E-03,1.04920E+00
2.14270E+02,2.32238E+00,9.52933E+00,2.22865E-03,1.04802E+00
2.24980E+02,2.34463E+00,9.70466E+00,2.18949E-03,1.04902E+00
2.36220E+02,2.37189E+00,9.92553E+00,4.08016E-05,1.04453E+00
2.48030E+02,2.39571E+00,1.01201E+01,4.41201E-04,1.04668E+00
2.60430E+02,2.42163E+00,1.03323E+01,1.91662E-03,1.04492E+00
2.73450E+02,2.44621E+00,1.05429E+01,1.71367E-04,1.04486E+00
2.87120E+02,2.47001E+00,1.07475E+01,4.82968E-04,1.04341E+00
3.01470E+02,2.49605E+00,1.09626E+01,3.10022E-03,1.04629E+00
3.16540E+02,2.51918E+00,1.11678E+01,1.54549E-03,1.04074E+00
3.32360E+02,2.54425E+00,1.13830E+01,1.73423E-03,1.04426E+00
3.48970E+02,2.57262E+00,1.16307E+01,-2.09345E-05,1.04309E+00
3.66410E+02,2.59789E+00,1.18581E+01,2.25372E-03,1.04041E+00
3.84730E+02,2.62474E+00,1.21103E+01,1.17902E-03,1.04386E+00
4.03960E+02,2.65135E+00,1.23441E+01,-4.58983E-04,1.04291E+00
4.24150E+02,2.67541E+00,1.25660E+01,2.27039E-03,1.04415E+00
4.45350E+02,2.70579E+00,1.28265E+01,-6.23544E-04,1.04113E+00
4.67610E+02,2.73033E+00,1.30787E+01,1.91343E-03,1.04134E+00
4.90990E+02,2.75642E+00,1.33279E+01,-5.86083E-05,1.04141E+00
5.15530E+02,2.78534E+00,1.35964E+01,7.11325E-04,1.04034E+00
5.41300E+02,2.81274E+00,1.38620E+01,1.16772E-03,1.04101E+00
5.68360E+02,2.84081E+00,1.41277E+01,1.48736E-03,1.04155E+00
5.96770E+02,2.86750E+00,1.43873E+01,7.73893E-04,1.03981E+00
6.26600E+02,2.89683E+00,1.46746E+01,-2.73478E-04,1.03730E+00
6.57930E+02,2.92625E+00,1.49685E+01,7.45072E-04,1.03928E+00
6.90820E+02,2.95668E+00,1.52733E+01,1.39887E-04,1.03918E+00
7.25360E+02,2.98843E+00,1.56004E+01,8.84897E-04,1.04285E+00
7.61620E+02,3.01523E+00,1.58721E+01,2.47246E-03,1.04003E+00
7.99700E+02,3.04586E+00,1.61979E+01,4.64802E-04,1.03936E+00
8.39680E+02,3.07907E+00,1.65486E+01,1.15322E-03,1.03927E+00
8.81660E+02,3.11259E+00,1.68993E+01,4.98934E-04,1.03679E+00
9.25740E+02,3.14328E+00,1.72106E+01,1.91146E-04,1.03913E+00
9.72020E+02,3.17115E+00,1.75221E+01,-8.03792E-04,1.03816E+00
1.02062E+03,3.20584E+00,1.79044E+01,2.40081E-04,1.03534E+00
1.07165E+03,3.23632E+00,1.82509E+01,9.13124E-05,1.03917E+00
1.12523E+03,3.26958E+00,1.86218E+01,3.70486E-04,1.03616E+00
1.18149E+03,3.30175E+00,1.89725E+01,9.96633E-04,1.03628E+00
1.24056E+03,3.33278E+00,1.93336E+01,-4.81465E-04,1.03923E+00
1.30258E+03,3.36798E+00,1.97466E+01,-8.63006E-04,1.03676E+00
1.36770E+03,3.40541E+00,2.01625E+01,1.09446E-04,1.03601E+00
1.43608E+03,3.43633E+00,2.05426E+01,4.50506E-04,1.03503E+00
1.50788E+03,3.47311E+00,2.09528E+01,4.20964E-04,1.03487E+00
1.58327E+03,3.50673E+00,2.13749E+01,-9.62726E-04,1.03689E+00
1.66243E+03,3.54466E+00,2.18081E+01,2.76324E-04,1.03421E+00
1.74555E+03,3.57955E+00,2.22230E+01,7.73730E-04,1.03173E+00
1.83282E+03,3.61173E+00,2.26549E+01,-5.29964E-04,1.03100E+00
1.92446E+03,3.64858E+00,2.31160E+01,3.27771E-04,1.03540E+00
2.02068E+03,3.68632E+00,2.35864E+01,-3.71275E-05,1.03413E+00
2.12171E+03,3.72029E+00,2.40143E+01,2.35529E-03,1.03673E+00
2.22779E+03,3.75887E+00,2.44979E+01,-3.37192E-04,1.03550E+00
2.33917E+03,3.79451E+00,2.49559E+01,-7.47744E-05,1.03477E+00
2.45612E+03,3.83502E+00,2.54730E+01,-1.10307E-03,1.03368E+00
2.57892E+03,3.87443E+00,2.59950E+01,-1.41506E-03,1.03695E+00
2.70786E+03,3.90912E+00,2.64657E+01,-4.09317E-04,1.03436E+00
2.84325E+03,3.95355E+00,2.70739E+01,-1.45934E-04,1.03222E+00
2.98541E+03,3.99213E+00,2.75696E+01,1.12313E-03,1.03450E+00
3.13468E+03,4.03470E+00,2.81389E+01,4.33677E-04,1.03438E+00
3.29141E+03,4.07394E+00,2.86980E+01,-8.64248E-04,1.03336E+00
3.45598E+03,4.11221E+00,2.92384E+01,1.74059E-03,1.03114E+00
3.62877E+03,4.15322E+00,2.98268E+01,7.98851E-04,1.03495E+00
3.81020E+03,4.19299E+00,3.03961E+01,-1.96190E-03,1.02967E+00
4.00071E+03,4.23422E+00,3.09985E+01,7.75709E-04,1.03232E+00
4.20074E+03,4.28300E+00,3.16730E+01,-1.12127E-04,1.02936E+00
4.41077E+03,4.32094E+00,3.22686E+01,6.18161E-04,1.03105E+00
4.63130E+03,4.36449E+00,3.29178E+01,2.30061E-04,1.02793E+00
4.86286E+03,4.40832E+00,3.35739E+01,5.03018E-04,1.03160E+00
5.10600E+03,4.45479E+00,3.42380E+01,1.72469E-03,1.02998E+00
5.36130E+03,4.49878E+00,3.49330E+01,1.32694E-04,1.03072E+00
5.62936E+03,4.54214E+00,3.56222E+01,3.56732E-04,1.02926E+00
5.91082E+03,4.59394E+00,3.63827E+01,-1.04707E-03,1.02915E+00
6.20636E+03,4.63432E+00,3.70456E+01,6.66117E-04,1.02939E+00
6.51667E+03,4.68173E+00,3.77909E+01,-8.75000E-04,1.03062E+00
6.84250E+03,4.73028E+00,3.85768E+01,-6.90624E-04,1.03070E+00
7.18462E+03,4.77089E+00,3.92834E+01,4.16673E-04,1.03143E+00
7.54385E+03,4.81491E+00,3.99534E+01,2.08324E-03,1.03003E+00
7.92104E+03,4.86339E+00,4.07594E+01,-4.65260E-04,1.02968E+00
8.31709E+03,4.91372E+00,4.16434E+01,2.23049E-04,1.03038E+00
8.73294E+03,4.96224E+00,4.24316E+01,1.27790E-03,1.02584E+00
9.16958E+03,5.01106E+00,4.32562E+01,-4.20817E-04,1.02806E+00
9.62805E+03,5.06119E+00,4.41094E+01,-8.80931E-04,1.02680E+00
1.01095E+04,5.11056E+00,4.49550E+01,2.73845E-04,1.02714E+00
1.06149E+04,5.16086E+00,4.58604E+01,-8.79857E-05,1.02932E+00
1.11457E+04,5.21231E+00,4.67532E+01,-9.48612E-04,1.02754E+00
1.17029E+04,5.26806E+00,4.77372E+01,-1.15032E-03,1.02820E+00
1.22881E+04,5.31924E+00,4.87009E+01,-1.39096E-03,1.02838E+00
1.29025E+04,5.37859E+00,4.97521E+01,-1.88757E-03,1.02503E+00
1.35476E+04,5.43036E+00,5.06918E+01,5.84337E-05,1.02719E+00
1.42250E+04,5.48699E+00,5.17315E+01,-1.41443E-03,1.02545E+00
1.49362E+04,5.53713E+00,5.26881E+01,3.21075E-03,1.02788E+00
1.56830E+04,5.58739E+00,5.36504E+01,5.22807E-04,1.02734E+00
1.64672E+04,5.64967E+00,5.48722E+01,-5.22459E-04,1.02525E+00
1.72905E+04,5.70202E+00,5.58707E+01,1.55956E-04,1.02753E+00
1.81550E+04,5.76151E+00,5.70024E+01,1.20541E-03,1.02529E+00
1.90628E+04,5.81521E+00,5.81073E+01,1.40940E-03,1.02884E+00
2.00159E+04,5.86885E+00,5.92225E+01,4.02059E-04,1.02851E+00
2.10167E+04,5.93584E+00,6.04812E+01,-6.86612E-04,1.02590E+00
2.20676E+04,5.99686E+00,6.17757E+01,9.99727E-04,1.02689E+00
2.31709E+04,6.04922E+00,6.28352E+01,-4.54719E-04,1.02557E+00
2.43295E+04,6.10734E+00,6.40028E+01,-7.02851E-04,1.02591E+00
2.55459E+04,6.17681E+00,6.53866E+01,-1.21505E-03,1.02548E+00
2.68232E+04,6.23257E+00,6.66374E+01,1.34973E-03,1.02510E+00
2.81644E+04,6.29298E+00,6.79234E+01,-7.60057E-04,1.02601E+00
2.95726E+04,6.35457E+00,6.92730E+01,7.18744E-04,1.02759E+00
3.10512E+04,6.42297E+00,7.07212E+01,7.69007E-06,1.02458E+00
3.26038E+04,6.48529E+00,7.21363E+01,-1.05424E-03,1.02487E+00
3.42340E+04,6.55185E+00,7.35805E+01,-1.24630E-04,1.02293E+00
3.59457E+04,6.61298E+00,7.49508E+01,-1.23298E-03,1.02446E+00
3.77429E+04,6.67982E+00,7.64827E+01,-9.30122E-04,1.02468E+00
3.96301E+04,6.74911E+00,7.81003E+01,-1.21228E-03,1.02455E+00
4.16116E+04,6.82123E+00,7.97651E+01,-8.09077E-04,1.02477E+00
4.36922E+04,6.89007E+00,8.13082E+01,5.64577E-04,1.02422E+00
4.58768E+04,6.95252E+00,8.28600E+01,-1.30397E-03,1.02375E+00
4.81706E+04,7.01792E+00,8.43772E+01,-3.28724E-04,1.02711E+00
5.05791E+04,7.08376E+00,8.60105E+01,-8.06013E-04,1.02333E+00
5.31081E+04,7.15469E+00,8.77614E+01,4.18446E-05,1.02314E+00
5.57635E+04,7.23114E+00,8.95782E+01,-2.53649E-04,1.02605E+00
5.85516E+04,7.30337E+00,9.13104E+01,-8.54184E-04,1.02348E+00
6.14792E+04,7.36726E+00,9.29280E+01,1.32337E-03,1.02290E+00
6.45532E+04,7.44320E+00,9.48162E+01,-8.45166E-04,1.02544E+00
6.77808E+04,7.51556E+00,9.67054E+01,1.30705E-03,1.02334E+00
7.11699E+04,7.59306E+00,9.87031E+01,1.51839E-03,1.02210E+00
7.47283E+04,7.67591E+00,1.00780E+02,1.40131E-03,1.02408E+00
7.84648E+04,7.74234E+00,1.02556E+02,3.10322E-04,1.02208E+00
8.23880E+04,7.81757E+00,1.04555E+02,7.34640E-04,1.02444E+00
8.65074E+04,7.90435E+00,1.06871E+02,5.17255E-04,1.02437E+00
9.08327E+04,7.97807E+00,1.08869E+02,2.34348E-03,1.02033E+00
9.53744E+04,8.06095E+00,1.11087E+02,8.43186E-04,1.02161E+00
1.00143E+05,8.13240E+00,1.13185E+02,2.06843E-03,1.02268E+00
1.05150E+05,8.21145E+00,1.15279E+02,7.34234E-04,1.02206E+00
1.10408E+05,8.30228E+00,1.17833E+02,4.90757E-04,1.02107E+00
1.15928E+05,8.38276E+00,1.20134E+02,-1.13670E-03,1.02120E+00
1.21725E+05,8.45237E+00,1.22282E+02,-1.28591E-03,1.02437E+00
1.27811E+05,8.54802E+00,1.24948E+02,-1.05669E-03,1.02285E+00
1.34201E+05,8.63285E+00,1.27378E+02,-3.28597E-04,1.02030E+00
1.40911E+05,8.71401E+00,1.29814E+02,4.91650E-04,1.02182E+00
1.47957E+05,8.80511E+00,1.32483E+02,1.75068E-03,1.02191E+00
1.55355E+05,8.88979E+00,1.35035E+02,-1.89386E-03,1.02376E+00
1.63122E+05,8.97463E+00,1.37613E+02,-3.37286E-04,1.02055E+00
1.67772E+05,9.02822E+00,1.39291E+02,5.12173E-04,1.02233E+00
