Warning: no access to tty (Bad file descriptor).
Thus no job control in this shell.
 Program mpi_genlang17 runing on         120  processes
 NT=    16777216 number of walkers =      2000000
 walker           1
 walker         121
 walker         241
 walker         361
 walker         481
 walker         601
 walker         721
 walker         841
 walker         961
 walker        1081
 walker        1201
 walker        1321
 walker        1441
 walker        1561
 walker        1681
 walker        1801
 walker        1921
 walker        2041
 walker        2161
 walker        2281
 walker        2401
 walker        2521
 walker        2641
 walker        2761
 walker        2881
 walker        3001
 walker        3121
 walker        3241
 walker        3361
 walker        3481
 walker        3601
 walker        3721
 walker        3841
 walker        3961
 walker        4081
 walker        4201
 walker        4321
 walker        4441
 walker        4561
 walker        4681
 walker        4801
 walker        4921
 walker        5041
 walker        5161
 walker        5281
 walker        5401
 walker        5521
 walker        5641
 walker        5761
 walker        5881
 walker        6001
 walker        6121
 walker        6241
 walker        6361
 walker        6481
 walker        6601
 walker        6721
 walker        6841
 walker        6961
 walker        7081
 walker        7201
 walker        7321
 walker        7441
 walker        7561
 walker        7681
 walker        7801
 walker        7921
 walker        8041
 walker        8161
 walker        8281
 walker        8401
 walker        8521
 walker        8641
 walker        8761
 walker        8881
 walker        9001
 walker        9121
 walker        9241
 walker        9361
 walker        9481
 walker        9601
 walker        9721
 walker        9841
 walker        9961
 walker       10081
 walker       10201
 walker       10321
 walker       10441
 walker       10561
 walker       10681
 walker       10801
 walker       10921
 walker       11041
 walker       11161
 walker       11281
 walker       11401
 walker       11521
 walker       11641
 walker       11761
 walker       11881
 walker       12001
 walker       12121
 walker       12241
 walker       12361
 walker       12481
 walker       12601
 walker       12721
 walker       12841
 walker       12961
 walker       13081
 walker       13201
 walker       13321
 walker       13441
 walker       13561
 walker       13681
 walker       13801
 walker       13921
 walker       14041
 walker       14161
 walker       14281
 walker       14401
 walker       14521
 walker       14641
 walker       14761
 walker       14881
 walker       15001
 walker       15121
 walker       15241
 walker       15361
 walker       15481
 walker       15601
 walker       15721
 walker       15841
 walker       15961
 walker       16081
 walker       16201
 walker       16321
 walker       16441
 walker       16561
 walker       16681
 walker       16801
 walker       16921
 walker       17041
 walker       17161
 walker       17281
 walker       17401
 walker       17521
 walker       17641
 walker       17761
 walker       17881
 walker       18001
 walker       18121
 walker       18241
 walker       18361
 walker       18481
 walker       18601
 walker       18721
 walker       18841
 walker       18961
 walker       19081
 walker       19201
 walker       19321
 walker       19441
 walker       19561
 walker       19681
 walker       19801
 walker       19921
 walker       20041
 walker       20161
 walker       20281
 walker       20401
 walker       20521
 walker       20641
 walker       20761
 walker       20881
 walker       21001
 walker       21121
 walker       21241
 walker       21361
 walker       21481
 walker       21601
 walker       21721
 walker       21841
 walker       21961
 walker       22081
 walker       22201
 walker       22321
 walker       22441
 walker       22561
 walker       22681
 walker       22801
 walker       22921
 walker       23041
 walker       23161
 walker       23281
 walker       23401
 walker       23521
 walker       23641
 walker       23761
 walker       23881
 walker       24001
 walker       24121
 walker       24241
 walker       24361
 walker       24481
 walker       24601
 walker       24721
 walker       24841
 walker       24961
 walker       25081
 walker       25201
 walker       25321
 walker       25441
 walker       25561
 walker       25681
 walker       25801
 walker       25921
 walker       26041
 walker       26161
 walker       26281
 walker       26401
 walker       26521
 walker       26641
 walker       26761
 walker       26881
 walker       27001
 walker       27121
 walker       27241
 walker       27361
 walker       27481
 walker       27601
 walker       27721
 walker       27841
 walker       27961
 walker       28081
 walker       28201
 walker       28321
 walker       28441
 walker       28561
 walker       28681
 walker       28801
 walker       28921
 walker       29041
 walker       29161
 walker       29281
 walker       29401
 walker       29521
 walker       29641
 walker       29761
 walker       29881
 walker       30001
 walker       30121
 walker       30241
 walker       30361
 walker       30481
 walker       30601
 walker       30721
 walker       30841
 walker       30961
 walker       31081
 walker       31201
 walker       31321
 walker       31441
 walker       31561
 walker       31681
 walker       31801
 walker       31921
 walker       32041
 walker       32161
 walker       32281
 walker       32401
 walker       32521
 walker       32641
 walker       32761
 walker       32881
 walker       33001
 walker       33121
 walker       33241
 walker       33361
 walker       33481
 walker       33601
 walker       33721
 walker       33841
 walker       33961
 walker       34081
 walker       34201
 walker       34321
 walker       34441
 walker       34561
 walker       34681
 walker       34801
 walker       34921
 walker       35041
 walker       35161
 walker       35281
 walker       35401
 walker       35521
 walker       35641
 walker       35761
 walker       35881
 walker       36001
 walker       36121
 walker       36241
 walker       36361
 walker       36481
 walker       36601
 walker       36721
 walker       36841
 walker       36961
 walker       37081
 walker       37201
 walker       37321
 walker       37441
 walker       37561
 walker       37681
 walker       37801
 walker       37921
 walker       38041
 walker       38161
 walker       38281
 walker       38401
 walker       38521
 walker       38641
 walker       38761
 walker       38881
 walker       39001
 walker       39121
 walker       39241
 walker       39361
 walker       39481
 walker       39601
 walker       39721
 walker       39841
 walker       39961
 walker       40081
 walker       40201
 walker       40321
 walker       40441
 walker       40561
 walker       40681
 walker       40801
 walker       40921
 walker       41041
 walker       41161
 walker       41281
 walker       41401
 walker       41521
 walker       41641
 walker       41761
 walker       41881
 walker       42001
 walker       42121
 walker       42241
 walker       42361
 walker       42481
 walker       42601
 walker       42721
 walker       42841
 walker       42961
 walker       43081
 walker       43201
 walker       43321
 walker       43441
 walker       43561
 walker       43681
 walker       43801
 walker       43921
 walker       44041
 walker       44161
 walker       44281
 walker       44401
 walker       44521
 walker       44641
 walker       44761
 walker       44881
 walker       45001
 walker       45121
 walker       45241
 walker       45361
 walker       45481
 walker       45601
 walker       45721
 walker       45841
 walker       45961
 walker       46081
 walker       46201
 walker       46321
 walker       46441
 walker       46561
 walker       46681
 walker       46801
 walker       46921
 walker       47041
 walker       47161
 walker       47281
 walker       47401
 walker       47521
 walker       47641
 walker       47761
 walker       47881
 walker       48001
 walker       48121
 walker       48241
 walker       48361
 walker       48481
 walker       48601
 walker       48721
 walker       48841
 walker       48961
 walker       49081
 walker       49201
 walker       49321
 walker       49441
 walker       49561
 walker       49681
 walker       49801
 walker       49921
 walker       50041
 walker       50161
 walker       50281
 walker       50401
 walker       50521
 walker       50641
 walker       50761
 walker       50881
 walker       51001
 walker       51121
 walker       51241
 walker       51361
 walker       51481
 walker       51601
 walker       51721
 walker       51841
 walker       51961
 walker       52081
 walker       52201
 walker       52321
 walker       52441
 walker       52561
 walker       52681
 walker       52801
 walker       52921
 walker       53041
 walker       53161
 walker       53281
 walker       53401
 walker       53521
 walker       53641
 walker       53761
 walker       53881
 walker       54001
 walker       54121
 walker       54241
 walker       54361
 walker       54481
 walker       54601
 walker       54721
 walker       54841
 walker       54961
 walker       55081
 walker       55201
 walker       55321
 walker       55441
 walker       55561
 walker       55681
 walker       55801
 walker       55921
 walker       56041
 walker       56161
 walker       56281
 walker       56401
 walker       56521
 walker       56641
 walker       56761
 walker       56881
 walker       57001
 walker       57121
 walker       57241
 walker       57361
 walker       57481
 walker       57601
 walker       57721
 walker       57841
 walker       57961
 walker       58081
 walker       58201
 walker       58321
 walker       58441
 walker       58561
 walker       58681
 walker       58801
 walker       58921
 walker       59041
 walker       59161
 walker       59281
 walker       59401
 walker       59521
 walker       59641
 walker       59761
 walker       59881
 walker       60001
 walker       60121
 walker       60241
 walker       60361
 walker       60481
 walker       60601
 walker       60721
 walker       60841
 walker       60961
 walker       61081
 walker       61201
 walker       61321
 walker       61441
 walker       61561
 walker       61681
 walker       61801
 walker       61921
 walker       62041
 walker       62161
 walker       62281
 walker       62401
 walker       62521
 walker       62641
 walker       62761
 walker       62881
 walker       63001
 walker       63121
 walker       63241
 walker       63361
 walker       63481
 walker       63601
 walker       63721
 walker       63841
 walker       63961
 walker       64081
 walker       64201
 walker       64321
 walker       64441
 walker       64561
 walker       64681
 walker       64801
 walker       64921
 walker       65041
 walker       65161
 walker       65281
 walker       65401
 walker       65521
 walker       65641
 walker       65761
 walker       65881
 walker       66001
 walker       66121
 walker       66241
 walker       66361
 walker       66481
 walker       66601
 walker       66721
 walker       66841
 walker       66961
 walker       67081
 walker       67201
 walker       67321
 walker       67441
 walker       67561
 walker       67681
 walker       67801
 walker       67921
 walker       68041
 walker       68161
 walker       68281
 walker       68401
 walker       68521
 walker       68641
 walker       68761
 walker       68881
 walker       69001
 walker       69121
 walker       69241
 walker       69361
 walker       69481
 walker       69601
 walker       69721
 walker       69841
 walker       69961
 walker       70081
 walker       70201
 walker       70321
 walker       70441
 walker       70561
 walker       70681
 walker       70801
 walker       70921
 walker       71041
 walker       71161
 walker       71281
 walker       71401
 walker       71521
 walker       71641
 walker       71761
 walker       71881
 walker       72001
 walker       72121
 walker       72241
 walker       72361
 walker       72481
 walker       72601
 walker       72721
 walker       72841
 walker       72961
 walker       73081
 walker       73201
 walker       73321
 walker       73441
 walker       73561
 walker       73681
 walker       73801
 walker       73921
 walker       74041
 walker       74161
 walker       74281
 walker       74401
 walker       74521
 walker       74641
 walker       74761
 walker       74881
 walker       75001
 walker       75121
 walker       75241
 walker       75361
 walker       75481
 walker       75601
 walker       75721
 walker       75841
 walker       75961
 walker       76081
 walker       76201
 walker       76321
 walker       76441
 walker       76561
 walker       76681
 walker       76801
 walker       76921
 walker       77041
 walker       77161
 walker       77281
 walker       77401
 walker       77521
 walker       77641
 walker       77761
 walker       77881
 walker       78001
 walker       78121
 walker       78241
 walker       78361
 walker       78481
 walker       78601
 walker       78721
 walker       78841
 walker       78961
 walker       79081
 walker       79201
 walker       79321
 walker       79441
 walker       79561
 walker       79681
 walker       79801
 walker       79921
 walker       80041
 walker       80161
 walker       80281
 walker       80401
 walker       80521
 walker       80641
 walker       80761
 walker       80881
 walker       81001
 walker       81121
 walker       81241
 walker       81361
 walker       81481
 walker       81601
 walker       81721
 walker       81841
 walker       81961
 walker       82081
 walker       82201
 walker       82321
 walker       82441
 walker       82561
 walker       82681
 walker       82801
 walker       82921
 walker       83041
 walker       83161
 walker       83281
 walker       83401
 walker       83521
 walker       83641
 walker       83761
 walker       83881
 walker       84001
 walker       84121
 walker       84241
 walker       84361
 walker       84481
 walker       84601
 walker       84721
 walker       84841
 walker       84961
 walker       85081
 walker       85201
 walker       85321
 walker       85441
 walker       85561
 walker       85681
 walker       85801
 walker       85921
 walker       86041
 walker       86161
 walker       86281
 walker       86401
 walker       86521
 walker       86641
 walker       86761
 walker       86881
 walker       87001
 walker       87121
 walker       87241
 walker       87361
 walker       87481
 walker       87601
 walker       87721
 walker       87841
 walker       87961
 walker       88081
 walker       88201
 walker       88321
 walker       88441
 walker       88561
 walker       88681
 walker       88801
 walker       88921
 walker       89041
 walker       89161
 walker       89281
 walker       89401
 walker       89521
 walker       89641
 walker       89761
 walker       89881
 walker       90001
 walker       90121
 walker       90241
 walker       90361
 walker       90481
 walker       90601
 walker       90721
 walker       90841
 walker       90961
 walker       91081
 walker       91201
 walker       91321
 walker       91441
 walker       91561
 walker       91681
 walker       91801
 walker       91921
 walker       92041
 walker       92161
 walker       92281
 walker       92401
 walker       92521
 walker       92641
 walker       92761
 walker       92881
 walker       93001
 walker       93121
 walker       93241
 walker       93361
 walker       93481
 walker       93601
 walker       93721
 walker       93841
 walker       93961
 walker       94081
 walker       94201
 walker       94321
 walker       94441
 walker       94561
 walker       94681
 walker       94801
 walker       94921
 walker       95041
 walker       95161
 walker       95281
 walker       95401
 walker       95521
 walker       95641
 walker       95761
 walker       95881
 walker       96001
 walker       96121
 walker       96241
 walker       96361
 walker       96481
 walker       96601
 walker       96721
 walker       96841
 walker       96961
 walker       97081
 walker       97201
 walker       97321
 walker       97441
 walker       97561
 walker       97681
 walker       97801
 walker       97921
 walker       98041
 walker       98161
 walker       98281
 walker       98401
 walker       98521
 walker       98641
 walker       98761
 walker       98881
 walker       99001
 walker       99121
 walker       99241
 walker       99361
 walker       99481
 walker       99601
 walker       99721
 walker       99841
 walker       99961
 walker      100081
 walker      100201
 walker      100321
 walker      100441
 walker      100561
 walker      100681
 walker      100801
 walker      100921
 walker      101041
 walker      101161
 walker      101281
 walker      101401
 walker      101521
 walker      101641
 walker      101761
 walker      101881
 walker      102001
 walker      102121
 walker      102241
 walker      102361
 walker      102481
 walker      102601
 walker      102721
 walker      102841
 walker      102961
 walker      103081
 walker      103201
 walker      103321
 walker      103441
 walker      103561
 walker      103681
 walker      103801
 walker      103921
 walker      104041
 walker      104161
 walker      104281
 walker      104401
 walker      104521
 walker      104641
 walker      104761
 walker      104881
 walker      105001
 walker      105121
 walker      105241
 walker      105361
 walker      105481
 walker      105601
 walker      105721
 walker      105841
 walker      105961
 walker      106081
 walker      106201
 walker      106321
 walker      106441
 walker      106561
 walker      106681
 walker      106801
 walker      106921
 walker      107041
 walker      107161
 walker      107281
 walker      107401
 walker      107521
 walker      107641
 walker      107761
 walker      107881
 walker      108001
 walker      108121
 walker      108241
 walker      108361
 walker      108481
 walker      108601
 walker      108721
 walker      108841
 walker      108961
 walker      109081
 walker      109201
 walker      109321
 walker      109441
 walker      109561
 walker      109681
 walker      109801
 walker      109921
 walker      110041
 walker      110161
 walker      110281
 walker      110401
 walker      110521
 walker      110641
 walker      110761
 walker      110881
 walker      111001
 walker      111121
 walker      111241
 walker      111361
 walker      111481
 walker      111601
 walker      111721
 walker      111841
 walker      111961
 walker      112081
 walker      112201
 walker      112321
 walker      112441
 walker      112561
 walker      112681
 walker      112801
 walker      112921
 walker      113041
 walker      113161
 walker      113281
 walker      113401
 walker      113521
 walker      113641
 walker      113761
 walker      113881
 walker      114001
 walker      114121
 walker      114241
 walker      114361
 walker      114481
 walker      114601
 walker      114721
 walker      114841
 walker      114961
 walker      115081
 walker      115201
 walker      115321
 walker      115441
 walker      115561
 walker      115681
 walker      115801
 walker      115921
 walker      116041
 walker      116161
 walker      116281
 walker      116401
 walker      116521
 walker      116641
 walker      116761
 walker      116881
 walker      117001
 walker      117121
 walker      117241
 walker      117361
 walker      117481
 walker      117601
 walker      117721
 walker      117841
 walker      117961
 walker      118081
 walker      118201
 walker      118321
 walker      118441
 walker      118561
 walker      118681
 walker      118801
 walker      118921
 walker      119041
 walker      119161
 walker      119281
 walker      119401
 walker      119521
 walker      119641
 walker      119761
 walker      119881
 walker      120001
 walker      120121
 walker      120241
 walker      120361
 walker      120481
 walker      120601
 walker      120721
 walker      120841
 walker      120961
 walker      121081
 walker      121201
 walker      121321
 walker      121441
 walker      121561
 walker      121681
 walker      121801
 walker      121921
 walker      122041
 walker      122161
 walker      122281
 walker      122401
 walker      122521
 walker      122641
 walker      122761
 walker      122881
 walker      123001
 walker      123121
 walker      123241
 walker      123361
 walker      123481
 walker      123601
 walker      123721
 walker      123841
 walker      123961
 walker      124081
 walker      124201
 walker      124321
 walker      124441
 walker      124561
 walker      124681
 walker      124801
 walker      124921
 walker      125041
 walker      125161
 walker      125281
 walker      125401
 walker      125521
 walker      125641
 walker      125761
 walker      125881
 walker      126001
 walker      126121
 walker      126241
 walker      126361
 walker      126481
 walker      126601
 walker      126721
 walker      126841
 walker      126961
 walker      127081
 walker      127201
 walker      127321
 walker      127441
 walker      127561
 walker      127681
 walker      127801
 walker      127921
 walker      128041
 walker      128161
 walker      128281
 walker      128401
 walker      128521
 walker      128641
 walker      128761
 walker      128881
 walker      129001
 walker      129121
 walker      129241
 walker      129361
 walker      129481
 walker      129601
 walker      129721
 walker      129841
 walker      129961
 walker      130081
 walker      130201
 walker      130321
 walker      130441
 walker      130561
 walker      130681
 walker      130801
 walker      130921
 walker      131041
 walker      131161
 walker      131281
 walker      131401
 walker      131521
 walker      131641
 walker      131761
 walker      131881
 walker      132001
 walker      132121
 walker      132241
 walker      132361
 walker      132481
 walker      132601
 walker      132721
 walker      132841
 walker      132961
 walker      133081
 walker      133201
 walker      133321
 walker      133441
 walker      133561
 walker      133681
 walker      133801
 walker      133921
 walker      134041
 walker      134161
 walker      134281
 walker      134401
 walker      134521
 walker      134641
 walker      134761
 walker      134881
 walker      135001
 walker      135121
 walker      135241
 walker      135361
 walker      135481
 walker      135601
 walker      135721
 walker      135841
 walker      135961
 walker      136081
 walker      136201
 walker      136321
 walker      136441
 walker      136561
 walker      136681
 walker      136801
 walker      136921
 walker      137041
 walker      137161
 walker      137281
 walker      137401
 walker      137521
 walker      137641
 walker      137761
 walker      137881
 walker      138001
 walker      138121
 walker      138241
 walker      138361
 walker      138481
 walker      138601
 walker      138721
 walker      138841
 walker      138961
 walker      139081
 walker      139201
 walker      139321
 walker      139441
 walker      139561
 walker      139681
 walker      139801
 walker      139921
 walker      140041
 walker      140161
 walker      140281
 walker      140401
 walker      140521
 walker      140641
 walker      140761
 walker      140881
 walker      141001
 walker      141121
 walker      141241
 walker      141361
 walker      141481
 walker      141601
 walker      141721
 walker      141841
 walker      141961
 walker      142081
 walker      142201
 walker      142321
 walker      142441
 walker      142561
 walker      142681
 walker      142801
 walker      142921
 walker      143041
 walker      143161
 walker      143281
 walker      143401
 walker      143521
 walker      143641
 walker      143761
 walker      143881
 walker      144001
 walker      144121
 walker      144241
 walker      144361
 walker      144481
 walker      144601
 walker      144721
 walker      144841
 walker      144961
 walker      145081
 walker      145201
 walker      145321
 walker      145441
 walker      145561
 walker      145681
 walker      145801
 walker      145921
 walker      146041
 walker      146161
 walker      146281
 walker      146401
 walker      146521
 walker      146641
 walker      146761
 walker      146881
 walker      147001
 walker      147121
 walker      147241
 walker      147361
 walker      147481
 walker      147601
 walker      147721
 walker      147841
 walker      147961
 walker      148081
 walker      148201
 walker      148321
 walker      148441
 walker      148561
 walker      148681
 walker      148801
 walker      148921
 walker      149041
 walker      149161
 walker      149281
 walker      149401
 walker      149521
 walker      149641
 walker      149761
 walker      149881
 walker      150001
 walker      150121
 walker      150241
 walker      150361
 walker      150481
 walker      150601
 walker      150721
 walker      150841
 walker      150961
 walker      151081
 walker      151201
 walker      151321
 walker      151441
 walker      151561
 walker      151681
 walker      151801
 walker      151921
 walker      152041
 walker      152161
 walker      152281
 walker      152401
 walker      152521
 walker      152641
 walker      152761
 walker      152881
 walker      153001
 walker      153121
 walker      153241
 walker      153361
 walker      153481
 walker      153601
 walker      153721
 walker      153841
 walker      153961
 walker      154081
 walker      154201
 walker      154321
 walker      154441
 walker      154561
 walker      154681
 walker      154801
 walker      154921
 walker      155041
 walker      155161
 walker      155281
 walker      155401
 walker      155521
 walker      155641
 walker      155761
 walker      155881
 walker      156001
 walker      156121
 walker      156241
 walker      156361
 walker      156481
 walker      156601
 walker      156721
 walker      156841
 walker      156961
 walker      157081
 walker      157201
 walker      157321
 walker      157441
 walker      157561
 walker      157681
 walker      157801
 walker      157921
 walker      158041
 walker      158161
 walker      158281
 walker      158401
 walker      158521
 walker      158641
 walker      158761
 walker      158881
 walker      159001
 walker      159121
 walker      159241
 walker      159361
 walker      159481
 walker      159601
 walker      159721
 walker      159841
 walker      159961
 walker      160081
 walker      160201
 walker      160321
 walker      160441
 walker      160561
 walker      160681
 walker      160801
 walker      160921
 walker      161041
 walker      161161
 walker      161281
 walker      161401
 walker      161521
 walker      161641
 walker      161761
 walker      161881
 walker      162001
 walker      162121
 walker      162241
 walker      162361
 walker      162481
 walker      162601
 walker      162721
 walker      162841
 walker      162961
 walker      163081
 walker      163201
 walker      163321
 walker      163441
 walker      163561
 walker      163681
 walker      163801
 walker      163921
 walker      164041
 walker      164161
 walker      164281
 walker      164401
 walker      164521
 walker      164641
 walker      164761
 walker      164881
 walker      165001
 walker      165121
 walker      165241
 walker      165361
 walker      165481
 walker      165601
 walker      165721
 walker      165841
 walker      165961
 walker      166081
 walker      166201
 walker      166321
 walker      166441
 walker      166561
 walker      166681
 walker      166801
 walker      166921
 walker      167041
 walker      167161
 walker      167281
 walker      167401
 walker      167521
 walker      167641
 walker      167761
 walker      167881
 walker      168001
 walker      168121
 walker      168241
 walker      168361
 walker      168481
 walker      168601
 walker      168721
 walker      168841
 walker      168961
 walker      169081
 walker      169201
 walker      169321
 walker      169441
 walker      169561
 walker      169681
 walker      169801
 walker      169921
 walker      170041
 walker      170161
 walker      170281
 walker      170401
 walker      170521
 walker      170641
 walker      170761
 walker      170881
 walker      171001
 walker      171121
 walker      171241
 walker      171361
 walker      171481
 walker      171601
 walker      171721
 walker      171841
 walker      171961
 walker      172081
 walker      172201
 walker      172321
 walker      172441
 walker      172561
 walker      172681
 walker      172801
 walker      172921
 walker      173041
 walker      173161
 walker      173281
 walker      173401
 walker      173521
 walker      173641
 walker      173761
 walker      173881
 walker      174001
 walker      174121
 walker      174241
 walker      174361
 walker      174481
 walker      174601
 walker      174721
 walker      174841
 walker      174961
 walker      175081
 walker      175201
 walker      175321
 walker      175441
 walker      175561
 walker      175681
 walker      175801
 walker      175921
 walker      176041
 walker      176161
 walker      176281
 walker      176401
 walker      176521
 walker      176641
 walker      176761
 walker      176881
 walker      177001
 walker      177121
 walker      177241
 walker      177361
 walker      177481
 walker      177601
 walker      177721
 walker      177841
 walker      177961
 walker      178081
 walker      178201
 walker      178321
 walker      178441
 walker      178561
 walker      178681
 walker      178801
 walker      178921
 walker      179041
 walker      179161
 walker      179281
 walker      179401
 walker      179521
 walker      179641
 walker      179761
 walker      179881
 walker      180001
 walker      180121
 walker      180241
 walker      180361
 walker      180481
 walker      180601
 walker      180721
 walker      180841
 walker      180961
 walker      181081
 walker      181201
 walker      181321
 walker      181441
 walker      181561
 walker      181681
 walker      181801
 walker      181921
 walker      182041
 walker      182161
 walker      182281
 walker      182401
 walker      182521
 walker      182641
 walker      182761
 walker      182881
 walker      183001
 walker      183121
 walker      183241
 walker      183361
 walker      183481
 walker      183601
 walker      183721
 walker      183841
 walker      183961
 walker      184081
 walker      184201
 walker      184321
 walker      184441
 walker      184561
 walker      184681
 walker      184801
 walker      184921
 walker      185041
 walker      185161
 walker      185281
 walker      185401
 walker      185521
 walker      185641
 walker      185761
 walker      185881
 walker      186001
 walker      186121
 walker      186241
 walker      186361
 walker      186481
 walker      186601
 walker      186721
 walker      186841
 walker      186961
 walker      187081
 walker      187201
 walker      187321
 walker      187441
 walker      187561
 walker      187681
 walker      187801
 walker      187921
 walker      188041
 walker      188161
 walker      188281
 walker      188401
 walker      188521
 walker      188641
 walker      188761
 walker      188881
 walker      189001
 walker      189121
 walker      189241
 walker      189361
 walker      189481
 walker      189601
 walker      189721
 walker      189841
 walker      189961
 walker      190081
 walker      190201
 walker      190321
 walker      190441
 walker      190561
 walker      190681
 walker      190801
 walker      190921
 walker      191041
 walker      191161
 walker      191281
 walker      191401
 walker      191521
 walker      191641
 walker      191761
 walker      191881
 walker      192001
 walker      192121
 walker      192241
 walker      192361
 walker      192481
 walker      192601
 walker      192721
 walker      192841
 walker      192961
 walker      193081
 walker      193201
 walker      193321
 walker      193441
 walker      193561
 walker      193681
 walker      193801
 walker      193921
 walker      194041
 walker      194161
 walker      194281
 walker      194401
 walker      194521
 walker      194641
 walker      194761
 walker      194881
 walker      195001
 walker      195121
 walker      195241
 walker      195361
 walker      195481
 walker      195601
 walker      195721
 walker      195841
 walker      195961
 walker      196081
 walker      196201
 walker      196321
 walker      196441
 walker      196561
 walker      196681
 walker      196801
 walker      196921
 walker      197041
 walker      197161
 walker      197281
 walker      197401
 walker      197521
 walker      197641
 walker      197761
 walker      197881
 walker      198001
 walker      198121
 walker      198241
 walker      198361
 walker      198481
 walker      198601
 walker      198721
 walker      198841
 walker      198961
 walker      199081
 walker      199201
 walker      199321
 walker      199441
 walker      199561
 walker      199681
 walker      199801
 walker      199921
 walker      200041
 walker      200161
 walker      200281
 walker      200401
 walker      200521
 walker      200641
 walker      200761
 walker      200881
 walker      201001
 walker      201121
 walker      201241
 walker      201361
 walker      201481
 walker      201601
 walker      201721
 walker      201841
 walker      201961
 walker      202081
 walker      202201
 walker      202321
 walker      202441
 walker      202561
 walker      202681
 walker      202801
 walker      202921
 walker      203041
 walker      203161
 walker      203281
 walker      203401
 walker      203521
 walker      203641
 walker      203761
 walker      203881
 walker      204001
 walker      204121
 walker      204241
 walker      204361
 walker      204481
 walker      204601
 walker      204721
 walker      204841
 walker      204961
 walker      205081
 walker      205201
 walker      205321
 walker      205441
 walker      205561
 walker      205681
 walker      205801
 walker      205921
 walker      206041
 walker      206161
 walker      206281
 walker      206401
 walker      206521
 walker      206641
 walker      206761
 walker      206881
 walker      207001
 walker      207121
 walker      207241
 walker      207361
 walker      207481
 walker      207601
 walker      207721
 walker      207841
 walker      207961
 walker      208081
 walker      208201
 walker      208321
 walker      208441
 walker      208561
 walker      208681
 walker      208801
 walker      208921
 walker      209041
 walker      209161
 walker      209281
 walker      209401
 walker      209521
 walker      209641
 walker      209761
 walker      209881
 walker      210001
 walker      210121
 walker      210241
 walker      210361
 walker      210481
 walker      210601
 walker      210721
 walker      210841
 walker      210961
 walker      211081
 walker      211201
 walker      211321
 walker      211441
 walker      211561
 walker      211681
 walker      211801
 walker      211921
 walker      212041
 walker      212161
 walker      212281
 walker      212401
 walker      212521
 walker      212641
 walker      212761
 walker      212881
 walker      213001
 walker      213121
 walker      213241
 walker      213361
 walker      213481
 walker      213601
 walker      213721
 walker      213841
 walker      213961
 walker      214081
 walker      214201
 walker      214321
 walker      214441
 walker      214561
 walker      214681
 walker      214801
 walker      214921
 walker      215041
 walker      215161
 walker      215281
 walker      215401
 walker      215521
 walker      215641
 walker      215761
 walker      215881
 walker      216001
 walker      216121
 walker      216241
 walker      216361
 walker      216481
 walker      216601
 walker      216721
 walker      216841
 walker      216961
 walker      217081
 walker      217201
 walker      217321
 walker      217441
 walker      217561
 walker      217681
 walker      217801
 walker      217921
 walker      218041
 walker      218161
 walker      218281
 walker      218401
 walker      218521
 walker      218641
 walker      218761
 walker      218881
 walker      219001
 walker      219121
 walker      219241
 walker      219361
 walker      219481
 walker      219601
 walker      219721
 walker      219841
 walker      219961
 walker      220081
 walker      220201
 walker      220321
 walker      220441
 walker      220561
 walker      220681
 walker      220801
 walker      220921
 walker      221041
 walker      221161
 walker      221281
 walker      221401
 walker      221521
 walker      221641
 walker      221761
 walker      221881
 walker      222001
 walker      222121
 walker      222241
 walker      222361
 walker      222481
 walker      222601
 walker      222721
 walker      222841
 walker      222961
 walker      223081
 walker      223201
 walker      223321
 walker      223441
 walker      223561
 walker      223681
 walker      223801
 walker      223921
 walker      224041
 walker      224161
 walker      224281
 walker      224401
 walker      224521
 walker      224641
 walker      224761
 walker      224881
 walker      225001
 walker      225121
 walker      225241
 walker      225361
 walker      225481
 walker      225601
 walker      225721
 walker      225841
 walker      225961
 walker      226081
 walker      226201
 walker      226321
 walker      226441
 walker      226561
 walker      226681
 walker      226801
 walker      226921
 walker      227041
 walker      227161
 walker      227281
 walker      227401
 walker      227521
 walker      227641
 walker      227761
 walker      227881
 walker      228001
 walker      228121
 walker      228241
 walker      228361
 walker      228481
 walker      228601
 walker      228721
 walker      228841
 walker      228961
 walker      229081
 walker      229201
 walker      229321
 walker      229441
 walker      229561
 walker      229681
 walker      229801
 walker      229921
 walker      230041
 walker      230161
 walker      230281
 walker      230401
 walker      230521
 walker      230641
 walker      230761
 walker      230881
 walker      231001
 walker      231121
 walker      231241
 walker      231361
 walker      231481
 walker      231601
 walker      231721
 walker      231841
 walker      231961
 walker      232081
 walker      232201
 walker      232321
 walker      232441
 walker      232561
 walker      232681
 walker      232801
 walker      232921
 walker      233041
 walker      233161
 walker      233281
 walker      233401
 walker      233521
 walker      233641
 walker      233761
 walker      233881
 walker      234001
 walker      234121
 walker      234241
 walker      234361
 walker      234481
 walker      234601
 walker      234721
 walker      234841
 walker      234961
 walker      235081
 walker      235201
 walker      235321
 walker      235441
 walker      235561
 walker      235681
 walker      235801
 walker      235921
 walker      236041
 walker      236161
 walker      236281
 walker      236401
 walker      236521
 walker      236641
 walker      236761
 walker      236881
 walker      237001
 walker      237121
 walker      237241
 walker      237361
 walker      237481
 walker      237601
 walker      237721
 walker      237841
 walker      237961
 walker      238081
 walker      238201
 walker      238321
 walker      238441
 walker      238561
 walker      238681
 walker      238801
 walker      238921
 walker      239041
 walker      239161
 walker      239281
 walker      239401
 walker      239521
 walker      239641
 walker      239761
 walker      239881
 walker      240001
 walker      240121
 walker      240241
 walker      240361
 walker      240481
 walker      240601
 walker      240721
 walker      240841
 walker      240961
 walker      241081
 walker      241201
 walker      241321
 walker      241441
 walker      241561
 walker      241681
 walker      241801
 walker      241921
 walker      242041
 walker      242161
 walker      242281
 walker      242401
 walker      242521
 walker      242641
 walker      242761
 walker      242881
 walker      243001
 walker      243121
 walker      243241
 walker      243361
 walker      243481
 walker      243601
 walker      243721
 walker      243841
 walker      243961
 walker      244081
 walker      244201
 walker      244321
 walker      244441
 walker      244561
 walker      244681
 walker      244801
 walker      244921
 walker      245041
 walker      245161
 walker      245281
 walker      245401
 walker      245521
 walker      245641
 walker      245761
 walker      245881
 walker      246001
 walker      246121
 walker      246241
 walker      246361
 walker      246481
 walker      246601
 walker      246721
 walker      246841
 walker      246961
 walker      247081
 walker      247201
 walker      247321
 walker      247441
 walker      247561
 walker      247681
 walker      247801
 walker      247921
 walker      248041
 walker      248161
 walker      248281
 walker      248401
 walker      248521
 walker      248641
 walker      248761
 walker      248881
 walker      249001
 walker      249121
 walker      249241
 walker      249361
 walker      249481
 walker      249601
 walker      249721
 walker      249841
 walker      249961
 walker      250081
 walker      250201
 walker      250321
 walker      250441
 walker      250561
 walker      250681
 walker      250801
 walker      250921
 walker      251041
 walker      251161
 walker      251281
 walker      251401
 walker      251521
 walker      251641
 walker      251761
 walker      251881
 walker      252001
 walker      252121
 walker      252241
 walker      252361
 walker      252481
 walker      252601
 walker      252721
 walker      252841
 walker      252961
 walker      253081
 walker      253201
 walker      253321
 walker      253441
 walker      253561
 walker      253681
 walker      253801
 walker      253921
 walker      254041
 walker      254161
 walker      254281
 walker      254401
 walker      254521
 walker      254641
 walker      254761
 walker      254881
 walker      255001
 walker      255121
 walker      255241
 walker      255361
 walker      255481
 walker      255601
 walker      255721
 walker      255841
 walker      255961
 walker      256081
 walker      256201
 walker      256321
 walker      256441
 walker      256561
 walker      256681
 walker      256801
 walker      256921
 walker      257041
 walker      257161
 walker      257281
 walker      257401
 walker      257521
 walker      257641
 walker      257761
 walker      257881
 walker      258001
 walker      258121
 walker      258241
 walker      258361
 walker      258481
 walker      258601
 walker      258721
 walker      258841
 walker      258961
 walker      259081
 walker      259201
 walker      259321
 walker      259441
 walker      259561
 walker      259681
 walker      259801
 walker      259921
 walker      260041
 walker      260161
 walker      260281
 walker      260401
 walker      260521
 walker      260641
 walker      260761
 walker      260881
 walker      261001
 walker      261121
 walker      261241
 walker      261361
 walker      261481
 walker      261601
 walker      261721
 walker      261841
 walker      261961
 walker      262081
 walker      262201
 walker      262321
 walker      262441
 walker      262561
 walker      262681
 walker      262801
 walker      262921
 walker      263041
 walker      263161
 walker      263281
 walker      263401
 walker      263521
 walker      263641
 walker      263761
 walker      263881
 walker      264001
 walker      264121
 walker      264241
 walker      264361
 walker      264481
 walker      264601
 walker      264721
 walker      264841
 walker      264961
 walker      265081
 walker      265201
 walker      265321
 walker      265441
 walker      265561
 walker      265681
 walker      265801
 walker      265921
 walker      266041
 walker      266161
 walker      266281
 walker      266401
 walker      266521
 walker      266641
 walker      266761
 walker      266881
 walker      267001
 walker      267121
 walker      267241
 walker      267361
 walker      267481
 walker      267601
 walker      267721
 walker      267841
 walker      267961
 walker      268081
 walker      268201
 walker      268321
 walker      268441
 walker      268561
 walker      268681
 walker      268801
 walker      268921
 walker      269041
 walker      269161
 walker      269281
 walker      269401
 walker      269521
 walker      269641
 walker      269761
 walker      269881
 walker      270001
 walker      270121
 walker      270241
 walker      270361
 walker      270481
 walker      270601
 walker      270721
 walker      270841
 walker      270961
 walker      271081
 walker      271201
 walker      271321
 walker      271441
 walker      271561
 walker      271681
 walker      271801
 walker      271921
 walker      272041
 walker      272161
 walker      272281
 walker      272401
 walker      272521
 walker      272641
 walker      272761
 walker      272881
 walker      273001
 walker      273121
 walker      273241
 walker      273361
 walker      273481
 walker      273601
 walker      273721
 walker      273841
 walker      273961
 walker      274081
 walker      274201
 walker      274321
 walker      274441
 walker      274561
 walker      274681
 walker      274801
 walker      274921
 walker      275041
 walker      275161
 walker      275281
 walker      275401
 walker      275521
 walker      275641
 walker      275761
 walker      275881
 walker      276001
 walker      276121
 walker      276241
 walker      276361
 walker      276481
 walker      276601
 walker      276721
 walker      276841
 walker      276961
 walker      277081
 walker      277201
 walker      277321
 walker      277441
 walker      277561
 walker      277681
 walker      277801
 walker      277921
 walker      278041
 walker      278161
 walker      278281
 walker      278401
 walker      278521
 walker      278641
 walker      278761
 walker      278881
 walker      279001
 walker      279121
 walker      279241
 walker      279361
 walker      279481
 walker      279601
 walker      279721
 walker      279841
 walker      279961
 walker      280081
 walker      280201
 walker      280321
 walker      280441
 walker      280561
 walker      280681
 walker      280801
 walker      280921
 walker      281041
 walker      281161
 walker      281281
 walker      281401
 walker      281521
 walker      281641
 walker      281761
 walker      281881
 walker      282001
 walker      282121
 walker      282241
 walker      282361
 walker      282481
 walker      282601
 walker      282721
 walker      282841
 walker      282961
 walker      283081
 walker      283201
 walker      283321
 walker      283441
 walker      283561
 walker      283681
 walker      283801
 walker      283921
 walker      284041
 walker      284161
 walker      284281
 walker      284401
 walker      284521
 walker      284641
 walker      284761
 walker      284881
 walker      285001
 walker      285121
 walker      285241
 walker      285361
 walker      285481
 walker      285601
 walker      285721
 walker      285841
 walker      285961
 walker      286081
 walker      286201
 walker      286321
 walker      286441
 walker      286561
 walker      286681
 walker      286801
 walker      286921
 walker      287041
 walker      287161
 walker      287281
 walker      287401
 walker      287521
 walker      287641
 walker      287761
 walker      287881
 walker      288001
 walker      288121
 walker      288241
 walker      288361
 walker      288481
 walker      288601
 walker      288721
 walker      288841
 walker      288961
 walker      289081
 walker      289201
 walker      289321
 walker      289441
 walker      289561
 walker      289681
 walker      289801
 walker      289921
 walker      290041
 walker      290161
 walker      290281
 walker      290401
 walker      290521
 walker      290641
 walker      290761
 walker      290881
 walker      291001
 walker      291121
 walker      291241
 walker      291361
 walker      291481
 walker      291601
 walker      291721
 walker      291841
 walker      291961
 walker      292081
 walker      292201
 walker      292321
 walker      292441
 walker      292561
 walker      292681
 walker      292801
 walker      292921
 walker      293041
 walker      293161
 walker      293281
 walker      293401
 walker      293521
 walker      293641
 walker      293761
 walker      293881
 walker      294001
 walker      294121
 walker      294241
 walker      294361
 walker      294481
 walker      294601
 walker      294721
 walker      294841
 walker      294961
 walker      295081
 walker      295201
 walker      295321
 walker      295441
 walker      295561
 walker      295681
 walker      295801
 walker      295921
 walker      296041
 walker      296161
 walker      296281
 walker      296401
 walker      296521
 walker      296641
 walker      296761
 walker      296881
 walker      297001
 walker      297121
 walker      297241
 walker      297361
 walker      297481
 walker      297601
 walker      297721
 walker      297841
 walker      297961
 walker      298081
 walker      298201
 walker      298321
 walker      298441
 walker      298561
 walker      298681
 walker      298801
 walker      298921
 walker      299041
 walker      299161
 walker      299281
 walker      299401
 walker      299521
 walker      299641
 walker      299761
 walker      299881
 walker      300001
 walker      300121
 walker      300241
 walker      300361
 walker      300481
 walker      300601
 walker      300721
 walker      300841
 walker      300961
 walker      301081
 walker      301201
 walker      301321
 walker      301441
 walker      301561
 walker      301681
 walker      301801
 walker      301921
 walker      302041
 walker      302161
 walker      302281
 walker      302401
 walker      302521
 walker      302641
 walker      302761
 walker      302881
 walker      303001
 walker      303121
 walker      303241
 walker      303361
 walker      303481
 walker      303601
 walker      303721
 walker      303841
 walker      303961
 walker      304081
 walker      304201
 walker      304321
 walker      304441
 walker      304561
 walker      304681
 walker      304801
 walker      304921
 walker      305041
 walker      305161
 walker      305281
 walker      305401
 walker      305521
 walker      305641
 walker      305761
 walker      305881
 walker      306001
 walker      306121
 walker      306241
 walker      306361
 walker      306481
 walker      306601
 walker      306721
 walker      306841
 walker      306961
 walker      307081
 walker      307201
 walker      307321
 walker      307441
 walker      307561
 walker      307681
 walker      307801
 walker      307921
 walker      308041
 walker      308161
 walker      308281
 walker      308401
 walker      308521
 walker      308641
 walker      308761
 walker      308881
 walker      309001
 walker      309121
 walker      309241
 walker      309361
 walker      309481
 walker      309601
 walker      309721
 walker      309841
 walker      309961
 walker      310081
 walker      310201
 walker      310321
 walker      310441
 walker      310561
 walker      310681
 walker      310801
 walker      310921
 walker      311041
 walker      311161
 walker      311281
 walker      311401
 walker      311521
 walker      311641
 walker      311761
 walker      311881
 walker      312001
 walker      312121
 walker      312241
 walker      312361
 walker      312481
 walker      312601
 walker      312721
 walker      312841
 walker      312961
 walker      313081
 walker      313201
 walker      313321
 walker      313441
 walker      313561
 walker      313681
 walker      313801
 walker      313921
 walker      314041
 walker      314161
 walker      314281
 walker      314401
 walker      314521
 walker      314641
 walker      314761
 walker      314881
 walker      315001
 walker      315121
 walker      315241
 walker      315361
 walker      315481
 walker      315601
 walker      315721
 walker      315841
 walker      315961
 walker      316081
 walker      316201
 walker      316321
 walker      316441
 walker      316561
 walker      316681
 walker      316801
 walker      316921
 walker      317041
 walker      317161
 walker      317281
 walker      317401
 walker      317521
 walker      317641
 walker      317761
 walker      317881
 walker      318001
 walker      318121
 walker      318241
 walker      318361
 walker      318481
 walker      318601
 walker      318721
 walker      318841
 walker      318961
 walker      319081
 walker      319201
 walker      319321
 walker      319441
 walker      319561
 walker      319681
 walker      319801
 walker      319921
 walker      320041
 walker      320161
 walker      320281
 walker      320401
 walker      320521
 walker      320641
 walker      320761
 walker      320881
 walker      321001
 walker      321121
 walker      321241
 walker      321361
 walker      321481
 walker      321601
 walker      321721
 walker      321841
 walker      321961
 walker      322081
 walker      322201
 walker      322321
 walker      322441
 walker      322561
 walker      322681
 walker      322801
 walker      322921
 walker      323041
 walker      323161
 walker      323281
 walker      323401
 walker      323521
 walker      323641
 walker      323761
 walker      323881
 walker      324001
 walker      324121
 walker      324241
 walker      324361
 walker      324481
 walker      324601
 walker      324721
 walker      324841
 walker      324961
 walker      325081
 walker      325201
 walker      325321
 walker      325441
 walker      325561
 walker      325681
 walker      325801
 walker      325921
 walker      326041
 walker      326161
 walker      326281
 walker      326401
 walker      326521
 walker      326641
 walker      326761
 walker      326881
 walker      327001
 walker      327121
 walker      327241
 walker      327361
 walker      327481
 walker      327601
 walker      327721
 walker      327841
 walker      327961
 walker      328081
 walker      328201
 walker      328321
 walker      328441
 walker      328561
 walker      328681
 walker      328801
 walker      328921
 walker      329041
 walker      329161
 walker      329281
 walker      329401
 walker      329521
 walker      329641
 walker      329761
 walker      329881
 walker      330001
 walker      330121
 walker      330241
 walker      330361
 walker      330481
 walker      330601
 walker      330721
 walker      330841
 walker      330961
 walker      331081
 walker      331201
 walker      331321
 walker      331441
 walker      331561
 walker      331681
 walker      331801
 walker      331921
 walker      332041
 walker      332161
 walker      332281
 walker      332401
 walker      332521
 walker      332641
 walker      332761
 walker      332881
 walker      333001
 walker      333121
 walker      333241
 walker      333361
 walker      333481
 walker      333601
 walker      333721
 walker      333841
 walker      333961
 walker      334081
 walker      334201
 walker      334321
 walker      334441
 walker      334561
 walker      334681
 walker      334801
 walker      334921
 walker      335041
 walker      335161
 walker      335281
 walker      335401
 walker      335521
 walker      335641
 walker      335761
 walker      335881
 walker      336001
 walker      336121
 walker      336241
 walker      336361
 walker      336481
 walker      336601
 walker      336721
 walker      336841
 walker      336961
 walker      337081
 walker      337201
 walker      337321
 walker      337441
 walker      337561
 walker      337681
 walker      337801
 walker      337921
 walker      338041
 walker      338161
 walker      338281
 walker      338401
 walker      338521
 walker      338641
 walker      338761
 walker      338881
 walker      339001
 walker      339121
 walker      339241
 walker      339361
 walker      339481
 walker      339601
 walker      339721
 walker      339841
 walker      339961
 walker      340081
 walker      340201
 walker      340321
 walker      340441
 walker      340561
 walker      340681
 walker      340801
 walker      340921
 walker      341041
 walker      341161
 walker      341281
 walker      341401
 walker      341521
 walker      341641
 walker      341761
 walker      341881
 walker      342001
 walker      342121
 walker      342241
 walker      342361
 walker      342481
 walker      342601
 walker      342721
 walker      342841
 walker      342961
 walker      343081
 walker      343201
 walker      343321
 walker      343441
 walker      343561
 walker      343681
 walker      343801
 walker      343921
 walker      344041
 walker      344161
 walker      344281
 walker      344401
 walker      344521
 walker      344641
 walker      344761
 walker      344881
 walker      345001
 walker      345121
 walker      345241
 walker      345361
 walker      345481
 walker      345601
 walker      345721
 walker      345841
 walker      345961
 walker      346081
 walker      346201
 walker      346321
 walker      346441
 walker      346561
 walker      346681
 walker      346801
 walker      346921
 walker      347041
 walker      347161
 walker      347281
 walker      347401
 walker      347521
 walker      347641
 walker      347761
 walker      347881
 walker      348001
 walker      348121
 walker      348241
 walker      348361
 walker      348481
 walker      348601
 walker      348721
 walker      348841
 walker      348961
 walker      349081
 walker      349201
 walker      349321
 walker      349441
 walker      349561
 walker      349681
 walker      349801
 walker      349921
 walker      350041
 walker      350161
 walker      350281
 walker      350401
 walker      350521
 walker      350641
 walker      350761
 walker      350881
 walker      351001
 walker      351121
 walker      351241
 walker      351361
 walker      351481
 walker      351601
 walker      351721
 walker      351841
 walker      351961
 walker      352081
 walker      352201
 walker      352321
 walker      352441
 walker      352561
 walker      352681
 walker      352801
 walker      352921
 walker      353041
 walker      353161
 walker      353281
 walker      353401
 walker      353521
 walker      353641
 walker      353761
 walker      353881
 walker      354001
 walker      354121
 walker      354241
 walker      354361
 walker      354481
 walker      354601
 walker      354721
 walker      354841
 walker      354961
 walker      355081
 walker      355201
 walker      355321
 walker      355441
 walker      355561
 walker      355681
 walker      355801
 walker      355921
 walker      356041
 walker      356161
 walker      356281
 walker      356401
 walker      356521
 walker      356641
 walker      356761
 walker      356881
 walker      357001
 walker      357121
 walker      357241
 walker      357361
 walker      357481
 walker      357601
 walker      357721
 walker      357841
 walker      357961
 walker      358081
 walker      358201
 walker      358321
 walker      358441
 walker      358561
 walker      358681
 walker      358801
 walker      358921
 walker      359041
 walker      359161
 walker      359281
 walker      359401
 walker      359521
 walker      359641
 walker      359761
 walker      359881
 walker      360001
 walker      360121
 walker      360241
 walker      360361
 walker      360481
 walker      360601
 walker      360721
 walker      360841
 walker      360961
 walker      361081
 walker      361201
 walker      361321
 walker      361441
 walker      361561
 walker      361681
 walker      361801
 walker      361921
 walker      362041
 walker      362161
 walker      362281
 walker      362401
 walker      362521
 walker      362641
 walker      362761
 walker      362881
 walker      363001
 walker      363121
 walker      363241
 walker      363361
 walker      363481
 walker      363601
 walker      363721
 walker      363841
 walker      363961
 walker      364081
 walker      364201
 walker      364321
 walker      364441
 walker      364561
 walker      364681
 walker      364801
 walker      364921
 walker      365041
 walker      365161
 walker      365281
 walker      365401
 walker      365521
 walker      365641
 walker      365761
 walker      365881
 walker      366001
 walker      366121
 walker      366241
 walker      366361
 walker      366481
 walker      366601
 walker      366721
 walker      366841
 walker      366961
 walker      367081
 walker      367201
 walker      367321
 walker      367441
 walker      367561
 walker      367681
 walker      367801
 walker      367921
 walker      368041
 walker      368161
 walker      368281
 walker      368401
 walker      368521
 walker      368641
 walker      368761
 walker      368881
 walker      369001
 walker      369121
 walker      369241
 walker      369361
 walker      369481
 walker      369601
 walker      369721
 walker      369841
 walker      369961
 walker      370081
 walker      370201
 walker      370321
 walker      370441
 walker      370561
 walker      370681
 walker      370801
 walker      370921
 walker      371041
 walker      371161
 walker      371281
 walker      371401
 walker      371521
 walker      371641
 walker      371761
 walker      371881
 walker      372001
 walker      372121
 walker      372241
 walker      372361
 walker      372481
 walker      372601
 walker      372721
 walker      372841
 walker      372961
 walker      373081
 walker      373201
 walker      373321
 walker      373441
 walker      373561
 walker      373681
 walker      373801
 walker      373921
 walker      374041
 walker      374161
 walker      374281
 walker      374401
 walker      374521
 walker      374641
 walker      374761
 walker      374881
 walker      375001
 walker      375121
 walker      375241
 walker      375361
 walker      375481
 walker      375601
 walker      375721
 walker      375841
 walker      375961
 walker      376081
 walker      376201
 walker      376321
 walker      376441
 walker      376561
 walker      376681
 walker      376801
 walker      376921
 walker      377041
 walker      377161
 walker      377281
 walker      377401
 walker      377521
 walker      377641
 walker      377761
 walker      377881
 walker      378001
 walker      378121
 walker      378241
 walker      378361
 walker      378481
 walker      378601
 walker      378721
 walker      378841
 walker      378961
 walker      379081
 walker      379201
 walker      379321
 walker      379441
 walker      379561
 walker      379681
 walker      379801
 walker      379921
 walker      380041
 walker      380161
 walker      380281
 walker      380401
 walker      380521
 walker      380641
 walker      380761
 walker      380881
 walker      381001
 walker      381121
 walker      381241
 walker      381361
 walker      381481
 walker      381601
 walker      381721
 walker      381841
 walker      381961
 walker      382081
 walker      382201
 walker      382321
 walker      382441
 walker      382561
 walker      382681
 walker      382801
 walker      382921
 walker      383041
 walker      383161
 walker      383281
 walker      383401
 walker      383521
 walker      383641
 walker      383761
 walker      383881
 walker      384001
 walker      384121
 walker      384241
 walker      384361
 walker      384481
 walker      384601
 walker      384721
 walker      384841
 walker      384961
 walker      385081
 walker      385201
 walker      385321
 walker      385441
 walker      385561
 walker      385681
 walker      385801
 walker      385921
 walker      386041
 walker      386161
 walker      386281
 walker      386401
 walker      386521
 walker      386641
 walker      386761
 walker      386881
 walker      387001
 walker      387121
 walker      387241
 walker      387361
 walker      387481
 walker      387601
 walker      387721
 walker      387841
 walker      387961
 walker      388081
 walker      388201
 walker      388321
 walker      388441
 walker      388561
 walker      388681
 walker      388801
 walker      388921
 walker      389041
 walker      389161
 walker      389281
 walker      389401
 walker      389521
 walker      389641
 walker      389761
 walker      389881
 walker      390001
 walker      390121
 walker      390241
 walker      390361
 walker      390481
 walker      390601
 walker      390721
 walker      390841
 walker      390961
 walker      391081
 walker      391201
 walker      391321
 walker      391441
 walker      391561
 walker      391681
 walker      391801
 walker      391921
 walker      392041
 walker      392161
 walker      392281
 walker      392401
 walker      392521
 walker      392641
 walker      392761
 walker      392881
 walker      393001
 walker      393121
 walker      393241
 walker      393361
 walker      393481
 walker      393601
 walker      393721
 walker      393841
 walker      393961
 walker      394081
 walker      394201
 walker      394321
 walker      394441
 walker      394561
 walker      394681
 walker      394801
 walker      394921
 walker      395041
 walker      395161
 walker      395281
 walker      395401
 walker      395521
 walker      395641
 walker      395761
 walker      395881
 walker      396001
 walker      396121
 walker      396241
 walker      396361
 walker      396481
 walker      396601
 walker      396721
 walker      396841
 walker      396961
 walker      397081
 walker      397201
 walker      397321
 walker      397441
 walker      397561
 walker      397681
 walker      397801
 walker      397921
 walker      398041
 walker      398161
 walker      398281
 walker      398401
 walker      398521
 walker      398641
 walker      398761
 walker      398881
 walker      399001
 walker      399121
 walker      399241
 walker      399361
 walker      399481
 walker      399601
 walker      399721
 walker      399841
 walker      399961
 walker      400081
 walker      400201
 walker      400321
 walker      400441
 walker      400561
 walker      400681
 walker      400801
 walker      400921
 walker      401041
 walker      401161
 walker      401281
 walker      401401
 walker      401521
 walker      401641
 walker      401761
 walker      401881
 walker      402001
 walker      402121
 walker      402241
--------------------------------------------------------------------------
ORTE has lost communication with its daemon located on node:

  hostname:  node047

This is usually due to either a failure of the TCP network
connection to the node, or possibly an internal failure of
the daemon itself. We cannot recover from this failure, and
therefore will terminate the job.

--------------------------------------------------------------------------
Terminated
