forrtl: severe (64): input conversion error, unit 2, file /home/sssm8d/simulations/beginner/sample.txt
Image              PC                Routine            Line        Source             
begin.out          000000000040C159  Unknown               Unknown  Unknown
begin.out          00000000004228ED  Unknown               Unknown  Unknown
begin.out          000000000042094E  Unknown               Unknown  Unknown
begin.out          00000000004087AE  Unknown               Unknown  Unknown
begin.out          000000000040855E  Unknown               Unknown  Unknown
libc.so.6          00007F4B92B2FB15  Unknown               Unknown  Unknown
begin.out          0000000000408469  Unknown               Unknown  Unknown
forrtl: severe (64): input conversion error, unit 2, file /home/sssm8d/simulations/beginner/sample.txt
Image              PC                Routine            Line        Source             
begin.out          000000000040C159  Unknown               Unknown  Unknown
begin.out          00000000004228ED  Unknown               Unknown  Unknown
begin.out          000000000042094E  Unknown               Unknown  Unknown
begin.out          00000000004087AE  Unknown               Unknown  Unknown
begin.out          000000000040855E  Unknown               Unknown  Unknown
libc.so.6          00007F3C0C477B15  Unknown               Unknown  Unknown
begin.out          0000000000408469  Unknown               Unknown  Unknown
forrtl: severe (64): input conversion error, unit 2, file /home/sssm8d/simulations/beginner/sample.txt
Image              PC                Routine            Line        Source             
begin.out          000000000040C159  Unknown               Unknown  Unknown
begin.out          00000000004228ED  Unknown               Unknown  Unknown
begin.out          000000000042094E  Unknown               Unknown  Unknown
begin.out          00000000004087AE  Unknown               Unknown  Unknown
begin.out          000000000040855E  Unknown               Unknown  Unknown
libc.so.6          00007FCB03A1AB15  Unknown               Unknown  Unknown
begin.out          0000000000408469  Unknown               Unknown  Unknown
forrtl: severe (64): input conversion error, unit 2, file /home/sssm8d/simulations/beginner/sample.txt
Image              PC                Routine            Line        Source             
begin.out          000000000040C159  Unknown               Unknown  Unknown
begin.out          00000000004228ED  Unknown               Unknown  Unknown
begin.out          000000000042094E  Unknown               Unknown  Unknown
begin.out          00000000004087AE  Unknown               Unknown  Unknown
begin.out          000000000040855E  Unknown               Unknown  Unknown
libc.so.6          00007FE9CA3C5B15  Unknown               Unknown  Unknown
begin.out          0000000000408469  Unknown               Unknown  Unknown
forrtl: severe (64): input conversion error, unit 2, file /home/sssm8d/simulations/beginner/sample.txt
Image              PC                Routine            Line        Source             
begin.out          000000000040C159  Unknown               Unknown  Unknown
begin.out          00000000004228ED  Unknown               Unknown  Unknown
begin.out          000000000042094E  Unknown               Unknown  Unknown
begin.out          00000000004087AE  Unknown               Unknown  Unknown
begin.out          000000000040855E  Unknown               Unknown  Unknown
libc.so.6          00007F4C8B9F1B15  Unknown               Unknown  Unknown
begin.out          0000000000408469  Unknown               Unknown  Unknown
forrtl: severe (64): input conversion error, unit 2, file /home/sssm8d/simulations/beginner/sample.txt
Image              PC                Routine            Line        Source             
begin.out          000000000040C159  Unknown               Unknown  Unknown
begin.out          00000000004228ED  Unknown               Unknown  Unknown
begin.out          000000000042094E  Unknown               Unknown  Unknown
begin.out          00000000004087AE  Unknown               Unknown  Unknown
begin.out          000000000040855E  Unknown               Unknown  Unknown
libc.so.6          00007FD97D0C7B15  Unknown               Unknown  Unknown

Stack trace terminated abnormally.
forrtl: severe (64): input conversion error, unit 2, file /home/sssm8d/simulations/beginner/sample.txt
Image              PC                Routine            Line        Source             
begin.out          000000000040C159  Unknown               Unknown  Unknown
begin.out          00000000004228ED  Unknown               Unknown  Unknown
begin.out          000000000042094E  Unknown               Unknown  Unknown
begin.out          00000000004087AE  Unknown               Unknown  Unknown
begin.out          000000000040855E  Unknown               Unknown  Unknown
libc.so.6          00007F2E0809EB15  Unknown               Unknown  Unknown
begin.out          0000000000408469  Unknown               Unknown  Unknown
forrtl: severe (64): input conversion error, unit 2, file /home/sssm8d/simulations/beginner/sample.txt
Image              PC                Routine            Line        Source             
begin.out          000000000040C159  Unknown               Unknown  Unknown
begin.out          00000000004228ED  Unknown               Unknown  Unknown
begin.out          000000000042094E  Unknown               Unknown  Unknown
begin.out          00000000004087AE  Unknown               Unknown  Unknown
begin.out          000000000040855E  Unknown               Unknown  Unknown
libc.so.6          00007F64FF4C6B15  Unknown               Unknown  Unknown
begin.out          0000000000408469  Unknown               Unknown  Unknown
forrtl: severe (64): input conversion error, unit 2, file /home/sssm8d/simulations/beginner/sample.txt
Image              PC                Routine            Line        Source             
begin.out          000000000040C159  Unknown               Unknown  Unknown
begin.out          00000000004228ED  Unknown               Unknown  Unknown
begin.out          000000000042094E  Unknown               Unknown  Unknown
begin.out          00000000004087AE  Unknown               Unknown  Unknown
begin.out          000000000040855E  Unknown               Unknown  Unknown
libc.so.6          00007FA2B54CAB15  Unknown               Unknown  Unknown
begin.out          0000000000408469  Unknown               Unknown  Unknown
forrtl: severe (64): input conversion error, unit 2, file /home/sssm8d/simulations/beginner/sample.txt
Image              PC                Routine            Line        Source             
begin.out          000000000040C159  Unknown               Unknown  Unknown
begin.out          00000000004228ED  Unknown               Unknown  Unknown
begin.out          000000000042094E  Unknown               Unknown  Unknown
begin.out          00000000004087AE  Unknown               Unknown  Unknown
begin.out          000000000040855E  Unknown               Unknown  Unknown
libc.so.6          00007F3A8695FB15  Unknown               Unknown  Unknown
begin.out          0000000000408469  Unknown               Unknown  Unknown
forrtl: severe (64): input conversion error, unit 2, file /home/sssm8d/simulations/beginner/sample.txt
Image              PC                Routine            Line        Source             
begin.out          000000000040C159  Unknown               Unknown  Unknown
begin.out          00000000004228ED  Unknown               Unknown  Unknown
begin.out          000000000042094E  Unknown               Unknown  Unknown
begin.out          00000000004087AE  Unknown               Unknown  Unknown
begin.out          000000000040855E  Unknown               Unknown  Unknown
libc.so.6          00007FA48535BB15  Unknown               Unknown  Unknown
begin.out          0000000000408469  Unknown               Unknown  Unknown
forrtl: severe (64): input conversion error, unit 2, file /home/sssm8d/simulations/beginner/sample.txt
Image              PC                Routine            Line        Source             
begin.out          000000000040C159  Unknown               Unknown  Unknown
begin.out          00000000004228ED  Unknown               Unknown  Unknown
begin.out          000000000042094E  Unknown               Unknown  Unknown
begin.out          00000000004087AE  Unknown               Unknown  Unknown
begin.out          000000000040855E  Unknown               Unknown  Unknown
libc.so.6          00007F1E45FFBB15  Unknown               Unknown  Unknown
begin.out          0000000000408469  Unknown               Unknown  Unknown
forrtl: severe (64): input conversion error, unit 2, file /home/sssm8d/simulations/beginner/sample.txt
Image              PC                Routine            Line        Source             
begin.out          000000000040C159  Unknown               Unknown  Unknown
begin.out          00000000004228ED  Unknown               Unknown  Unknown
begin.out          000000000042094E  Unknown               Unknown  Unknown
begin.out          00000000004087AE  Unknown               Unknown  Unknown
begin.out          000000000040855E  Unknown               Unknown  Unknown
libc.so.6          00007F0B6D6CAB15  Unknown               Unknown  Unknown
begin.out          0000000000408469  Unknown               Unknown  Unknown
forrtl: severe (64): input conversion error, unit 2, file /home/sssm8d/simulations/beginner/sample.txt
Image              PC                Routine            Line        Source             
begin.out          000000000040C159  Unknown               Unknown  Unknown
begin.out          00000000004228ED  Unknown               Unknown  Unknown
begin.out          000000000042094E  Unknown               Unknown  Unknown
begin.out          00000000004087AE  Unknown               Unknown  Unknown
begin.out          000000000040855E  Unknown               Unknown  Unknown
libc.so.6          00007F8EF8A74B15  Unknown               Unknown  Unknown
begin.out          0000000000408469  Unknown               Unknown  Unknown
forrtl: severe (64): input conversion error, unit 2, file /home/sssm8d/simulations/beginner/sample.txt
Image              PC                Routine            Line        Source             
begin.out          000000000040C159  Unknown               Unknown  Unknown
begin.out          00000000004228ED  Unknown               Unknown  Unknown
begin.out          000000000042094E  Unknown               Unknown  Unknown
begin.out          00000000004087AE  Unknown               Unknown  Unknown
begin.out          000000000040855E  Unknown               Unknown  Unknown
libc.so.6          00007F3CE38AFB15  Unknown               Unknown  Unknown
begin.out          0000000000408469  Unknown               Unknown  Unknown
forrtl: severe (64): input conversion error, unit 2, file /home/sssm8d/simulations/beginner/sample.txt
Image              PC                Routine            Line        Source             
begin.out          000000000040C159  Unknown               Unknown  Unknown
begin.out          00000000004228ED  Unknown               Unknown  Unknown
begin.out          000000000042094E  Unknown               Unknown  Unknown
begin.out          00000000004087AE  Unknown               Unknown  Unknown
begin.out          000000000040855E  Unknown               Unknown  Unknown
libc.so.6          00007F8F78A56B15  Unknown               Unknown  Unknown
begin.out          0000000000408469  Unknown               Unknown  Unknown
forrtl: severe (64): input conversion error, unit 2, file /home/sssm8d/simulations/beginner/sample.txt
Image              PC                Routine            Line        Source             
begin.out          000000000040C159  Unknown               Unknown  Unknown
begin.out          00000000004228ED  Unknown               Unknown  Unknown
begin.out          000000000042094E  Unknown               Unknown  Unknown
begin.out          00000000004087AE  Unknown               Unknown  Unknown
begin.out          000000000040855E  Unknown               Unknown  Unknown
libc.so.6          00007F4D9D699B15  Unknown               Unknown  Unknown
begin.out          0000000000408469  Unknown               Unknown  Unknown
forrtl: severe (64): input conversion error, unit 2, file /home/sssm8d/simulations/beginner/sample.txt
Image              PC                Routine            Line        Source             
begin.out          000000000040C159  Unknown               Unknown  Unknown
begin.out          00000000004228ED  Unknown               Unknown  Unknown
begin.out          000000000042094E  Unknown               Unknown  Unknown
begin.out          00000000004087AE  Unknown               Unknown  Unknown
begin.out          000000000040855E  Unknown               Unknown  Unknown
libc.so.6          00007FF837584B15  Unknown               Unknown  Unknown
begin.out          0000000000408469  Unknown               Unknown  Unknown
forrtl: severe (64): input conversion error, unit 2, file /home/sssm8d/simulations/beginner/sample.txt
Image              PC                Routine            Line        Source             
begin.out          000000000040C159  Unknown               Unknown  Unknown
begin.out          00000000004228ED  Unknown               Unknown  Unknown
begin.out          000000000042094E  Unknown               Unknown  Unknown
begin.out          00000000004087AE  Unknown               Unknown  Unknown
begin.out          000000000040855E  Unknown               Unknown  Unknown
libc.so.6          00007F169D8ADB15  Unknown               Unknown  Unknown
begin.out          0000000000408469  Unknown               Unknown  Unknown
forrtl: severe (64): input conversion error, unit 2, file /home/sssm8d/simulations/beginner/sample.txt
Image              PC                Routine            Line        Source             
begin.out          000000000040C159  Unknown               Unknown  Unknown
begin.out          00000000004228ED  Unknown               Unknown  Unknown
begin.out          000000000042094E  Unknown               Unknown  Unknown
begin.out          00000000004087AE  Unknown               Unknown  Unknown
begin.out          000000000040855E  Unknown               Unknown  Unknown
libc.so.6          00007FFA081A3B15  Unknown               Unknown  Unknown
begin.out          0000000000408469  Unknown               Unknown  Unknown
