forrtl: severe (174): SIGSEGV, segmentation fault occurred
Image              PC                Routine            Line        Source             
begin.out          000000000047E295  Unknown               Unknown  Unknown
begin.out          000000000047C057  Unknown               Unknown  Unknown
begin.out          000000000044B414  Unknown               Unknown  Unknown
begin.out          000000000044B226  Unknown               Unknown  Unknown
begin.out          000000000042C326  Unknown               Unknown  Unknown
begin.out          0000000000409130  Unknown               Unknown  Unknown
libpthread.so.0    00007F7AC766B100  Unknown               Unknown  Unknown
libmpi_mpifh.so.1  00007F7AC813B59F  Unknown               Unknown  Unknown
begin.out          0000000000408A35  Unknown               Unknown  Unknown
begin.out          000000000040841E  Unknown               Unknown  Unknown
libc.so.6          00007F7AC72BBB15  Unknown               Unknown  Unknown
begin.out          0000000000408329  Unknown               Unknown  Unknown
forrtl: severe (174): SIGSEGV, segmentation fault occurred
Image              PC                Routine            Line        Source             
begin.out          000000000047E295  Unknown               Unknown  Unknown
begin.out          000000000047C057  Unknown               Unknown  Unknown
begin.out          000000000044B414  Unknown               Unknown  Unknown
begin.out          000000000044B226  Unknown               Unknown  Unknown
begin.out          000000000042C326  Unknown               Unknown  Unknown
begin.out          0000000000409130  Unknown               Unknown  Unknown
libpthread.so.0    00007F8E0CC90100  Unknown               Unknown  Unknown
libmpi_mpifh.so.1  00007F8E0D76059F  Unknown               Unknown  Unknown
begin.out          0000000000408A35  Unknown               Unknown  Unknown
begin.out          000000000040841E  Unknown               Unknown  Unknown
libc.so.6          00007F8E0C8E0B15  Unknown               Unknown  Unknown
begin.out          0000000000408329  Unknown               Unknown  Unknown
forrtl: severe (174): SIGSEGV, segmentation fault occurred
Image              PC                Routine            Line        Source             
begin.out          000000000047E295  Unknown               Unknown  Unknown
begin.out          000000000047C057  Unknown               Unknown  Unknown
begin.out          000000000044B414  Unknown               Unknown  Unknown
begin.out          000000000044B226  Unknown               Unknown  Unknown
begin.out          000000000042C326  Unknown               Unknown  Unknown
begin.out          0000000000409130  Unknown               Unknown  Unknown
libpthread.so.0    00007FAF543F7100  Unknown               Unknown  Unknown
libmpi_mpifh.so.1  00007FAF54EC759F  Unknown               Unknown  Unknown
begin.out          0000000000408A35  Unknown               Unknown  Unknown
begin.out          000000000040841E  Unknown               Unknown  Unknown
libc.so.6          00007FAF54047B15  Unknown               Unknown  Unknown
begin.out          0000000000408329  Unknown               Unknown  Unknown
forrtl: severe (174): SIGSEGV, segmentation fault occurred
Image              PC                Routine            Line        Source             
begin.out          000000000047E295  Unknown               Unknown  Unknown
begin.out          000000000047C057  Unknown               Unknown  Unknown
begin.out          000000000044B414  Unknown               Unknown  Unknown
begin.out          000000000044B226  Unknown               Unknown  Unknown
begin.out          000000000042C326  Unknown               Unknown  Unknown
begin.out          0000000000409130  Unknown               Unknown  Unknown
libpthread.so.0    00007F186E5FF100  Unknown               Unknown  Unknown
libmpi_mpifh.so.1  00007F186F0CF59F  Unknown               Unknown  Unknown
begin.out          0000000000408A35  Unknown               Unknown  Unknown
begin.out          000000000040841E  Unknown               Unknown  Unknown
libc.so.6          00007F186E24FB15  Unknown               Unknown  Unknown
begin.out          0000000000408329  Unknown               Unknown  Unknown
forrtl: severe (174): SIGSEGV, segmentation fault occurred
Image              PC                Routine            Line        Source             
begin.out          000000000047E295  Unknown               Unknown  Unknown
begin.out          000000000047C057  Unknown               Unknown  Unknown
begin.out          000000000044B414  Unknown               Unknown  Unknown
begin.out          000000000044B226  Unknown               Unknown  Unknown
begin.out          000000000042C326  Unknown               Unknown  Unknown
begin.out          0000000000409130  Unknown               Unknown  Unknown
libpthread.so.0    00007F7AAFB4F100  Unknown               Unknown  Unknown
libmpi_mpifh.so.1  00007F7AB061F59F  Unknown               Unknown  Unknown
begin.out          0000000000408A35  Unknown               Unknown  Unknown
begin.out          000000000040841E  Unknown               Unknown  Unknown
libc.so.6          00007F7AAF79FB15  Unknown               Unknown  Unknown
begin.out          0000000000408329  Unknown               Unknown  Unknown
forrtl: severe (174): SIGSEGV, segmentation fault occurred
Image              PC                Routine            Line        Source             
begin.out          000000000047E295  Unknown               Unknown  Unknown
begin.out          000000000047C057  Unknown               Unknown  Unknown
begin.out          000000000044B414  Unknown               Unknown  Unknown
begin.out          000000000044B226  Unknown               Unknown  Unknown
begin.out          000000000042C326  Unknown               Unknown  Unknown
begin.out          0000000000409130  Unknown               Unknown  Unknown
libpthread.so.0    00007F00EAB0A100  Unknown               Unknown  Unknown
libmpi_mpifh.so.1  00007F00EB5DA59F  Unknown               Unknown  Unknown
begin.out          0000000000408A35  Unknown               Unknown  Unknown
begin.out          000000000040841E  Unknown               Unknown  Unknown
libc.so.6          00007F00EA75AB15  Unknown               Unknown  Unknown
begin.out          0000000000408329  Unknown               Unknown  Unknown
forrtl: severe (174): SIGSEGV, segmentation fault occurred
Image              PC                Routine            Line        Source             
begin.out          000000000047E295  Unknown               Unknown  Unknown
begin.out          000000000047C057  Unknown               Unknown  Unknown
begin.out          000000000044B414  Unknown               Unknown  Unknown
begin.out          000000000044B226  Unknown               Unknown  Unknown
begin.out          000000000042C326  Unknown               Unknown  Unknown
begin.out          0000000000409130  Unknown               Unknown  Unknown
libpthread.so.0    00007FEFDA1B2100  Unknown               Unknown  Unknown
libmpi_mpifh.so.1  00007FEFDAC8259F  Unknown               Unknown  Unknown
begin.out          0000000000408A35  Unknown               Unknown  Unknown
begin.out          000000000040841E  Unknown               Unknown  Unknown
libc.so.6          00007FEFD9E02B15  Unknown               Unknown  Unknown
begin.out          0000000000408329  Unknown               Unknown  Unknown
forrtl: severe (174): SIGSEGV, segmentation fault occurred
Image              PC                Routine            Line        Source             
begin.out          000000000047E295  Unknown               Unknown  Unknown
begin.out          000000000047C057  Unknown               Unknown  Unknown
begin.out          000000000044B414  Unknown               Unknown  Unknown
begin.out          000000000044B226  Unknown               Unknown  Unknown
begin.out          000000000042C326  Unknown               Unknown  Unknown
begin.out          0000000000409130  Unknown               Unknown  Unknown
libpthread.so.0    00007F17E4D58100  Unknown               Unknown  Unknown
libmpi_mpifh.so.1  00007F17E582859F  Unknown               Unknown  Unknown
begin.out          0000000000408A35  Unknown               Unknown  Unknown
begin.out          000000000040841E  Unknown               Unknown  Unknown
libc.so.6          00007F17E49A8B15  Unknown               Unknown  Unknown
begin.out          0000000000408329  Unknown               Unknown  Unknown
forrtl: severe (174): SIGSEGV, segmentation fault occurred
Image              PC                Routine            Line        Source             
begin.out          000000000047E295  Unknown               Unknown  Unknown
begin.out          000000000047C057  Unknown               Unknown  Unknown
begin.out          000000000044B414  Unknown               Unknown  Unknown
begin.out          000000000044B226  Unknown               Unknown  Unknown
begin.out          000000000042C326  Unknown               Unknown  Unknown
begin.out          0000000000409130  Unknown               Unknown  Unknown
libpthread.so.0    00007F262C4F0100  Unknown               Unknown  Unknown
libmpi_mpifh.so.1  00007F262CFC059F  Unknown               Unknown  Unknown
begin.out          0000000000408A35  Unknown               Unknown  Unknown
begin.out          000000000040841E  Unknown               Unknown  Unknown
libc.so.6          00007F262C140B15  Unknown               Unknown  Unknown
begin.out          0000000000408329  Unknown               Unknown  Unknown
forrtl: severe (174): SIGSEGV, segmentation fault occurred
Image              PC                Routine            Line        Source             
begin.out          000000000047E295  Unknown               Unknown  Unknown
begin.out          000000000047C057  Unknown               Unknown  Unknown
begin.out          000000000044B414  Unknown               Unknown  Unknown
begin.out          000000000044B226  Unknown               Unknown  Unknown
begin.out          000000000042C326  Unknown               Unknown  Unknown
begin.out          0000000000409130  Unknown               Unknown  Unknown
libpthread.so.0    00007F1A10069100  Unknown               Unknown  Unknown
libmpi_mpifh.so.1  00007F1A10B3959F  Unknown               Unknown  Unknown
begin.out          0000000000408A35  Unknown               Unknown  Unknown
begin.out          000000000040841E  Unknown               Unknown  Unknown
libc.so.6          00007F1A0FCB9B15  Unknown               Unknown  Unknown
begin.out          0000000000408329  Unknown               Unknown  Unknown
forrtl: severe (174): SIGSEGV, segmentation fault occurred
Image              PC                Routine            Line        Source             
begin.out          000000000047E295  Unknown               Unknown  Unknown
begin.out          000000000047C057  Unknown               Unknown  Unknown
begin.out          000000000044B414  Unknown               Unknown  Unknown
begin.out          000000000044B226  Unknown               Unknown  Unknown
begin.out          000000000042C326  Unknown               Unknown  Unknown
begin.out          0000000000409130  Unknown               Unknown  Unknown
libpthread.so.0    00007FD11F85D100  Unknown               Unknown  Unknown
libmpi_mpifh.so.1  00007FD12032D59F  Unknown               Unknown  Unknown
begin.out          0000000000408A35  Unknown               Unknown  Unknown
begin.out          000000000040841E  Unknown               Unknown  Unknown
libc.so.6          00007FD11F4ADB15  Unknown               Unknown  Unknown
begin.out          0000000000408329  Unknown               Unknown  Unknown
forrtl: severe (174): SIGSEGV, segmentation fault occurred
Image              PC                Routine            Line        Source             
begin.out          000000000047E295  Unknown               Unknown  Unknown
begin.out          000000000047C057  Unknown               Unknown  Unknown
begin.out          000000000044B414  Unknown               Unknown  Unknown
begin.out          000000000044B226  Unknown               Unknown  Unknown
begin.out          000000000042C326  Unknown               Unknown  Unknown
begin.out          0000000000409130  Unknown               Unknown  Unknown
libpthread.so.0    00007F077447F100  Unknown               Unknown  Unknown
libmpi_mpifh.so.1  00007F0774F4F59F  Unknown               Unknown  Unknown
begin.out          0000000000408A35  Unknown               Unknown  Unknown
begin.out          000000000040841E  Unknown               Unknown  Unknown
libc.so.6          00007F07740CFB15  Unknown               Unknown  Unknown
begin.out          0000000000408329  Unknown               Unknown  Unknown
forrtl: severe (174): SIGSEGV, segmentation fault occurred
Image              PC                Routine            Line        Source             
begin.out          000000000047E295  Unknown               Unknown  Unknown
begin.out          000000000047C057  Unknown               Unknown  Unknown
begin.out          000000000044B414  Unknown               Unknown  Unknown
begin.out          000000000044B226  Unknown               Unknown  Unknown
begin.out          000000000042C326  Unknown               Unknown  Unknown
begin.out          0000000000409130  Unknown               Unknown  Unknown
libpthread.so.0    00007F8F1575E100  Unknown               Unknown  Unknown
libmpi_mpifh.so.1  00007F8F1622E59F  Unknown               Unknown  Unknown
begin.out          0000000000408A35  Unknown               Unknown  Unknown
begin.out          000000000040841E  Unknown               Unknown  Unknown
libc.so.6          00007F8F153AEB15  Unknown               Unknown  Unknown
begin.out          0000000000408329  Unknown               Unknown  Unknown
forrtl: severe (174): SIGSEGV, segmentation fault occurred
Image              PC                Routine            Line        Source             
begin.out          000000000047E295  Unknown               Unknown  Unknown
begin.out          000000000047C057  Unknown               Unknown  Unknown
begin.out          000000000044B414  Unknown               Unknown  Unknown
begin.out          000000000044B226  Unknown               Unknown  Unknown
begin.out          000000000042C326  Unknown               Unknown  Unknown
begin.out          0000000000409130  Unknown               Unknown  Unknown
libpthread.so.0    00007FE407366100  Unknown               Unknown  Unknown
libmpi_mpifh.so.1  00007FE407E3659F  Unknown               Unknown  Unknown
begin.out          0000000000408A35  Unknown               Unknown  Unknown
begin.out          000000000040841E  Unknown               Unknown  Unknown
libc.so.6          00007FE406FB6B15  Unknown               Unknown  Unknown
begin.out          0000000000408329  Unknown               Unknown  Unknown
forrtl: severe (174): SIGSEGV, segmentation fault occurred
Image              PC                Routine            Line        Source             
begin.out          000000000047E295  Unknown               Unknown  Unknown
begin.out          000000000047C057  Unknown               Unknown  Unknown
begin.out          000000000044B414  Unknown               Unknown  Unknown
begin.out          000000000044B226  Unknown               Unknown  Unknown
begin.out          000000000042C326  Unknown               Unknown  Unknown
begin.out          0000000000409130  Unknown               Unknown  Unknown
libpthread.so.0    00007F5A93749100  Unknown               Unknown  Unknown
libmpi_mpifh.so.1  00007F5A9421959F  Unknown               Unknown  Unknown
begin.out          0000000000408A35  Unknown               Unknown  Unknown
begin.out          000000000040841E  Unknown               Unknown  Unknown
libc.so.6          00007F5A93399B15  Unknown               Unknown  Unknown
begin.out          0000000000408329  Unknown               Unknown  Unknown
forrtl: severe (174): SIGSEGV, segmentation fault occurred
Image              PC                Routine            Line        Source             
begin.out          000000000047E295  Unknown               Unknown  Unknown
begin.out          000000000047C057  Unknown               Unknown  Unknown
begin.out          000000000044B414  Unknown               Unknown  Unknown
begin.out          000000000044B226  Unknown               Unknown  Unknown
begin.out          000000000042C326  Unknown               Unknown  Unknown
begin.out          0000000000409130  Unknown               Unknown  Unknown
libpthread.so.0    00007EFE3F67D100  Unknown               Unknown  Unknown
libmpi_mpifh.so.1  00007EFE4014D59F  Unknown               Unknown  Unknown
begin.out          0000000000408A35  Unknown               Unknown  Unknown
begin.out          000000000040841E  Unknown               Unknown  Unknown
libc.so.6          00007EFE3F2CDB15  Unknown               Unknown  Unknown
begin.out          0000000000408329  Unknown               Unknown  Unknown
forrtl: severe (174): SIGSEGV, segmentation fault occurred
Image              PC                Routine            Line        Source             
begin.out          000000000047E295  Unknown               Unknown  Unknown
begin.out          000000000047C057  Unknown               Unknown  Unknown
begin.out          000000000044B414  Unknown               Unknown  Unknown
begin.out          000000000044B226  Unknown               Unknown  Unknown
begin.out          000000000042C326  Unknown               Unknown  Unknown
begin.out          0000000000409130  Unknown               Unknown  Unknown
libpthread.so.0    00007F13E1AF2100  Unknown               Unknown  Unknown
libmpi_mpifh.so.1  00007F13E25C259F  Unknown               Unknown  Unknown
begin.out          0000000000408A35  Unknown               Unknown  Unknown
begin.out          000000000040841E  Unknown               Unknown  Unknown
libc.so.6          00007F13E1742B15  Unknown               Unknown  Unknown
begin.out          0000000000408329  Unknown               Unknown  Unknown
forrtl: severe (174): SIGSEGV, segmentation fault occurred
Image              PC                Routine            Line        Source             
begin.out          000000000047E295  Unknown               Unknown  Unknown
begin.out          000000000047C057  Unknown               Unknown  Unknown
begin.out          000000000044B414  Unknown               Unknown  Unknown
begin.out          000000000044B226  Unknown               Unknown  Unknown
begin.out          000000000042C326  Unknown               Unknown  Unknown
begin.out          0000000000409130  Unknown               Unknown  Unknown
libpthread.so.0    00007FE8F32E5100  Unknown               Unknown  Unknown
libmpi_mpifh.so.1  00007FE8F3DB559F  Unknown               Unknown  Unknown
begin.out          0000000000408A35  Unknown               Unknown  Unknown
begin.out          000000000040841E  Unknown               Unknown  Unknown
libc.so.6          00007FE8F2F35B15  Unknown               Unknown  Unknown
begin.out          0000000000408329  Unknown               Unknown  Unknown
forrtl: severe (174): SIGSEGV, segmentation fault occurred
Image              PC                Routine            Line        Source             
begin.out          000000000047E295  Unknown               Unknown  Unknown
begin.out          000000000047C057  Unknown               Unknown  Unknown
begin.out          000000000044B414  Unknown               Unknown  Unknown
begin.out          000000000044B226  Unknown               Unknown  Unknown
begin.out          000000000042C326  Unknown               Unknown  Unknown
begin.out          0000000000409130  Unknown               Unknown  Unknown
libpthread.so.0    00007F12D1C3D100  Unknown               Unknown  Unknown
libmpi_mpifh.so.1  00007F12D270D59F  Unknown               Unknown  Unknown
begin.out          0000000000408A35  Unknown               Unknown  Unknown
begin.out          000000000040841E  Unknown               Unknown  Unknown
libc.so.6          00007F12D188DB15  Unknown               Unknown  Unknown
begin.out          0000000000408329  Unknown               Unknown  Unknown
forrtl: severe (174): SIGSEGV, segmentation fault occurred
Image              PC                Routine            Line        Source             
begin.out          000000000047E295  Unknown               Unknown  Unknown
begin.out          000000000047C057  Unknown               Unknown  Unknown
begin.out          000000000044B414  Unknown               Unknown  Unknown
begin.out          000000000044B226  Unknown               Unknown  Unknown
begin.out          000000000042C326  Unknown               Unknown  Unknown
begin.out          0000000000409130  Unknown               Unknown  Unknown
libpthread.so.0    00007FC4382A1100  Unknown               Unknown  Unknown
libmpi_mpifh.so.1  00007FC438D7159F  Unknown               Unknown  Unknown
begin.out          0000000000408A35  Unknown               Unknown  Unknown
begin.out          000000000040841E  Unknown               Unknown  Unknown
libc.so.6          00007FC437EF1B15  Unknown               Unknown  Unknown
begin.out          0000000000408329  Unknown               Unknown  Unknown
