ibin4,x=(MAXX*ibin)/NBIN4,P(x)4,x/sigma4,P*sigma4,
-2.000000E+02,-3.000000E+01,0.000000E+00,-1.363636E+01,0.000000E+00,
-1.990000E+02,-2.985000E+01,0.000000E+00,-1.356818E+01,0.000000E+00,sigma = 1.64
-1.980000E+02,-2.970000E+01,0.000000E+00,-1.350000E+01,0.000000E+00,
-1.970000E+02,-2.955000E+01,0.000000E+00,-1.343182E+01,0.000000E+00,
-1.960000E+02,-2.940000E+01,0.000000E+00,-1.336364E+01,0.000000E+00,
-1.950000E+02,-2.925000E+01,0.000000E+00,-1.329545E+01,0.000000E+00,
-1.940000E+02,-2.910000E+01,0.000000E+00,-1.322727E+01,0.000000E+00,
-1.930000E+02,-2.895000E+01,0.000000E+00,-1.315909E+01,0.000000E+00,
-1.920000E+02,-2.880000E+01,0.000000E+00,-1.309091E+01,0.000000E+00,
-1.910000E+02,-2.865000E+01,0.000000E+00,-1.302273E+01,0.000000E+00,
-1.900000E+02,-2.850000E+01,0.000000E+00,-1.295455E+01,0.000000E+00,
-1.890000E+02,-2.835000E+01,0.000000E+00,-1.288636E+01,0.000000E+00,
-1.880000E+02,-2.820000E+01,0.000000E+00,-1.281818E+01,0.000000E+00,
-1.870000E+02,-2.805000E+01,0.000000E+00,-1.275000E+01,0.000000E+00,
-1.860000E+02,-2.790000E+01,0.000000E+00,-1.268182E+01,0.000000E+00,
-1.850000E+02,-2.775000E+01,0.000000E+00,-1.261364E+01,0.000000E+00,
-1.840000E+02,-2.760000E+01,0.000000E+00,-1.254545E+01,0.000000E+00,
-1.830000E+02,-2.745000E+01,0.000000E+00,-1.247727E+01,0.000000E+00,
-1.820000E+02,-2.730000E+01,0.000000E+00,-1.240909E+01,0.000000E+00,
-1.810000E+02,-2.715000E+01,0.000000E+00,-1.234091E+01,0.000000E+00,
-1.800000E+02,-2.700000E+01,0.000000E+00,-1.227273E+01,0.000000E+00,
-1.790000E+02,-2.685000E+01,0.000000E+00,-1.220455E+01,0.000000E+00,
-1.780000E+02,-2.670000E+01,0.000000E+00,-1.213636E+01,0.000000E+00,
-1.770000E+02,-2.655000E+01,0.000000E+00,-1.206818E+01,0.000000E+00,
-1.760000E+02,-2.640000E+01,0.000000E+00,-1.200000E+01,0.000000E+00,
-1.750000E+02,-2.625000E+01,0.000000E+00,-1.193182E+01,0.000000E+00,
-1.740000E+02,-2.610000E+01,0.000000E+00,-1.186364E+01,0.000000E+00,
-1.730000E+02,-2.595000E+01,0.000000E+00,-1.179545E+01,0.000000E+00,
-1.720000E+02,-2.580000E+01,0.000000E+00,-1.172727E+01,0.000000E+00,
-1.710000E+02,-2.565000E+01,0.000000E+00,-1.165909E+01,0.000000E+00,
-1.700000E+02,-2.550000E+01,0.000000E+00,-1.159091E+01,0.000000E+00,
-1.690000E+02,-2.535000E+01,0.000000E+00,-1.152273E+01,0.000000E+00,
-1.680000E+02,-2.520000E+01,0.000000E+00,-1.145455E+01,0.000000E+00,
-1.670000E+02,-2.505000E+01,0.000000E+00,-1.138636E+01,0.000000E+00,
-1.660000E+02,-2.490000E+01,0.000000E+00,-1.131818E+01,0.000000E+00,
-1.650000E+02,-2.475000E+01,0.000000E+00,-1.125000E+01,0.000000E+00,
-1.640000E+02,-2.460000E+01,0.000000E+00,-1.118182E+01,0.000000E+00,
-1.630000E+02,-2.445000E+01,0.000000E+00,-1.111364E+01,0.000000E+00,
-1.620000E+02,-2.430000E+01,0.000000E+00,-1.104545E+01,0.000000E+00,
-1.610000E+02,-2.415000E+01,0.000000E+00,-1.097727E+01,0.000000E+00,
-1.600000E+02,-2.400000E+01,0.000000E+00,-1.090909E+01,0.000000E+00,
-1.590000E+02,-2.385000E+01,0.000000E+00,-1.084091E+01,0.000000E+00,
-1.580000E+02,-2.370000E+01,0.000000E+00,-1.077273E+01,0.000000E+00,
-1.570000E+02,-2.355000E+01,0.000000E+00,-1.070455E+01,0.000000E+00,
-1.560000E+02,-2.340000E+01,0.000000E+00,-1.063636E+01,0.000000E+00,
-1.550000E+02,-2.325000E+01,0.000000E+00,-1.056818E+01,0.000000E+00,
-1.540000E+02,-2.310000E+01,0.000000E+00,-1.050000E+01,0.000000E+00,
-1.530000E+02,-2.295000E+01,0.000000E+00,-1.043182E+01,0.000000E+00,
-1.520000E+02,-2.280000E+01,0.000000E+00,-1.036364E+01,0.000000E+00,
-1.510000E+02,-2.265000E+01,0.000000E+00,-1.029545E+01,0.000000E+00,
-1.500000E+02,-2.250000E+01,0.000000E+00,-1.022727E+01,0.000000E+00,
-1.490000E+02,-2.235000E+01,0.000000E+00,-1.015909E+01,0.000000E+00,
-1.480000E+02,-2.220000E+01,0.000000E+00,-1.009091E+01,0.000000E+00,
-1.470000E+02,-2.205000E+01,0.000000E+00,-1.002273E+01,0.000000E+00,
-1.460000E+02,-2.190000E+01,0.000000E+00,-9.954545E+00,0.000000E+00,
-1.450000E+02,-2.175000E+01,0.000000E+00,-9.886364E+00,0.000000E+00,
-1.440000E+02,-2.160000E+01,0.000000E+00,-9.818182E+00,0.000000E+00,
-1.430000E+02,-2.145000E+01,0.000000E+00,-9.750000E+00,0.000000E+00,
-1.420000E+02,-2.130000E+01,0.000000E+00,-9.681818E+00,0.000000E+00,
-1.410000E+02,-2.115000E+01,0.000000E+00,-9.613636E+00,0.000000E+00,
-1.400000E+02,-2.100000E+01,0.000000E+00,-9.545455E+00,0.000000E+00,
-1.390000E+02,-2.085000E+01,0.000000E+00,-9.477273E+00,0.000000E+00,
-1.380000E+02,-2.070000E+01,0.000000E+00,-9.409091E+00,0.000000E+00,
-1.370000E+02,-2.055000E+01,0.000000E+00,-9.340909E+00,0.000000E+00,
-1.360000E+02,-2.040000E+01,0.000000E+00,-9.272727E+00,0.000000E+00,
-1.350000E+02,-2.025000E+01,0.000000E+00,-9.204545E+00,0.000000E+00,
-1.340000E+02,-2.010000E+01,0.000000E+00,-9.136364E+00,0.000000E+00,
-1.330000E+02,-1.995000E+01,0.000000E+00,-9.068182E+00,0.000000E+00,
-1.320000E+02,-1.980000E+01,0.000000E+00,-9.000000E+00,0.000000E+00,
-1.310000E+02,-1.965000E+01,0.000000E+00,-8.931818E+00,0.000000E+00,
-1.300000E+02,-1.950000E+01,0.000000E+00,-8.863636E+00,0.000000E+00,
-1.290000E+02,-1.935000E+01,0.000000E+00,-8.795455E+00,0.000000E+00,
-1.280000E+02,-1.920000E+01,0.000000E+00,-8.727273E+00,0.000000E+00,
-1.270000E+02,-1.905000E+01,0.000000E+00,-8.659091E+00,0.000000E+00,
-1.260000E+02,-1.890000E+01,0.000000E+00,-8.590909E+00,0.000000E+00,
-1.250000E+02,-1.875000E+01,0.000000E+00,-8.522727E+00,0.000000E+00,
-1.240000E+02,-1.860000E+01,0.000000E+00,-8.454545E+00,0.000000E+00,
-1.230000E+02,-1.845000E+01,0.000000E+00,-8.386364E+00,0.000000E+00,
-1.220000E+02,-1.830000E+01,0.000000E+00,-8.318182E+00,0.000000E+00,
-1.210000E+02,-1.815000E+01,0.000000E+00,-8.250000E+00,0.000000E+00,
-1.200000E+02,-1.800000E+01,0.000000E+00,-8.181818E+00,0.000000E+00,
-1.190000E+02,-1.785000E+01,0.000000E+00,-8.113636E+00,0.000000E+00,
-1.180000E+02,-1.770000E+01,0.000000E+00,-8.045455E+00,0.000000E+00,
-1.170000E+02,-1.755000E+01,0.000000E+00,-7.977273E+00,0.000000E+00,
-1.160000E+02,-1.740000E+01,0.000000E+00,-7.909091E+00,0.000000E+00,
-1.150000E+02,-1.725000E+01,0.000000E+00,-7.840909E+00,0.000000E+00,
-1.140000E+02,-1.710000E+01,0.000000E+00,-7.772727E+00,0.000000E+00,
-1.130000E+02,-1.695000E+01,0.000000E+00,-7.704545E+00,0.000000E+00,
-1.120000E+02,-1.680000E+01,0.000000E+00,-7.636364E+00,0.000000E+00,
-1.110000E+02,-1.665000E+01,0.000000E+00,-7.568182E+00,0.000000E+00,
-1.100000E+02,-1.650000E+01,0.000000E+00,-7.500000E+00,0.000000E+00,
-1.090000E+02,-1.635000E+01,0.000000E+00,-7.431818E+00,0.000000E+00,
-1.080000E+02,-1.620000E+01,0.000000E+00,-7.363636E+00,0.000000E+00,
-1.070000E+02,-1.605000E+01,0.000000E+00,-7.295455E+00,0.000000E+00,
-1.060000E+02,-1.590000E+01,0.000000E+00,-7.227273E+00,0.000000E+00,
-1.050000E+02,-1.575000E+01,0.000000E+00,-7.159091E+00,0.000000E+00,
-1.040000E+02,-1.560000E+01,0.000000E+00,-7.090909E+00,0.000000E+00,
-1.030000E+02,-1.545000E+01,0.000000E+00,-7.022727E+00,0.000000E+00,
-1.020000E+02,-1.530000E+01,0.000000E+00,-6.954545E+00,0.000000E+00,
-1.010000E+02,-1.515000E+01,0.000000E+00,-6.886364E+00,0.000000E+00,
-1.000000E+02,-1.500000E+01,0.000000E+00,-6.818182E+00,0.000000E+00,
-9.900000E+01,-1.485000E+01,0.000000E+00,-6.750000E+00,0.000000E+00,
-9.800000E+01,-1.470000E+01,0.000000E+00,-6.681818E+00,0.000000E+00,
-9.700000E+01,-1.455000E+01,0.000000E+00,-6.613636E+00,0.000000E+00,
-9.600000E+01,-1.440000E+01,0.000000E+00,-6.545455E+00,0.000000E+00,
-9.500000E+01,-1.425000E+01,0.000000E+00,-6.477273E+00,0.000000E+00,
-9.400000E+01,-1.410000E+01,0.000000E+00,-6.409091E+00,0.000000E+00,
-9.300000E+01,-1.395000E+01,0.000000E+00,-6.340909E+00,0.000000E+00,
-9.200000E+01,-1.380000E+01,0.000000E+00,-6.272727E+00,0.000000E+00,
-9.100000E+01,-1.365000E+01,0.000000E+00,-6.204545E+00,0.000000E+00,
-9.000000E+01,-1.350000E+01,0.000000E+00,-6.136364E+00,0.000000E+00,
-8.900000E+01,-1.335000E+01,0.000000E+00,-6.068182E+00,0.000000E+00,
-8.800000E+01,-1.320000E+01,0.000000E+00,-6.000000E+00,0.000000E+00,
-8.700000E+01,-1.305000E+01,0.000000E+00,-5.931818E+00,0.000000E+00,
-8.600000E+01,-1.290000E+01,0.000000E+00,-5.863636E+00,0.000000E+00,
-8.500000E+01,-1.275000E+01,0.000000E+00,-5.795455E+00,0.000000E+00,
-8.400000E+01,-1.260000E+01,0.000000E+00,-5.727273E+00,0.000000E+00,
-8.300000E+01,-1.245000E+01,0.000000E+00,-5.659091E+00,0.000000E+00,
-8.200000E+01,-1.230000E+01,0.000000E+00,-5.590909E+00,0.000000E+00,
-8.100000E+01,-1.215000E+01,0.000000E+00,-5.522727E+00,0.000000E+00,
-8.000000E+01,-1.200000E+01,0.000000E+00,-5.454545E+00,0.000000E+00,
-7.900000E+01,-1.185000E+01,0.000000E+00,-5.386364E+00,0.000000E+00,
-7.800000E+01,-1.170000E+01,0.000000E+00,-5.318182E+00,0.000000E+00,
-7.700000E+01,-1.155000E+01,0.000000E+00,-5.250000E+00,0.000000E+00,
-7.600000E+01,-1.140000E+01,0.000000E+00,-5.181818E+00,0.000000E+00,
-7.500000E+01,-1.125000E+01,0.000000E+00,-5.113636E+00,0.000000E+00,
-7.400000E+01,-1.110000E+01,0.000000E+00,-5.045455E+00,0.000000E+00,
-7.300000E+01,-1.095000E+01,0.000000E+00,-4.977273E+00,0.000000E+00,
-7.200000E+01,-1.080000E+01,0.000000E+00,-4.909091E+00,0.000000E+00,
-7.100000E+01,-1.065000E+01,0.000000E+00,-4.840909E+00,0.000000E+00,
-7.000000E+01,-1.050000E+01,0.000000E+00,-4.772727E+00,0.000000E+00,
-6.900000E+01,-1.035000E+01,0.000000E+00,-4.704545E+00,0.000000E+00,
-6.800000E+01,-1.020000E+01,0.000000E+00,-4.636364E+00,0.000000E+00,
-6.700000E+01,-1.005000E+01,0.000000E+00,-4.568182E+00,0.000000E+00,
-6.600000E+01,-9.900000E+00,0.000000E+00,-4.500000E+00,0.000000E+00,
-6.500000E+01,-9.750000E+00,0.000000E+00,-4.431818E+00,0.000000E+00,
-6.400000E+01,-9.600000E+00,0.000000E+00,-4.363636E+00,0.000000E+00,
-6.300000E+01,-9.450000E+00,0.000000E+00,-4.295455E+00,0.000000E+00,
-6.200000E+01,-9.300000E+00,0.000000E+00,-4.227273E+00,0.000000E+00,
-6.100000E+01,-9.150000E+00,0.000000E+00,-4.159091E+00,0.000000E+00,
-6.000000E+01,-9.000000E+00,0.000000E+00,-4.090909E+00,0.000000E+00,
-5.900000E+01,-8.850000E+00,0.000000E+00,-4.022727E+00,0.000000E+00,
-5.800000E+01,-8.700000E+00,0.000000E+00,-3.954545E+00,0.000000E+00,
-5.700000E+01,-8.550000E+00,0.000000E+00,-3.886364E+00,0.000000E+00,
-5.600000E+01,-8.400000E+00,0.000000E+00,-3.818182E+00,0.000000E+00,
-5.500000E+01,-8.250000E+00,0.000000E+00,-3.750000E+00,0.000000E+00,
-5.400000E+01,-8.100000E+00,0.000000E+00,-3.681818E+00,0.000000E+00,
-5.300000E+01,-7.950000E+00,0.000000E+00,-3.613636E+00,0.000000E+00,
-5.200000E+01,-7.800000E+00,0.000000E+00,-3.545455E+00,0.000000E+00,
-5.100000E+01,-7.650000E+00,0.000000E+00,-3.477273E+00,0.000000E+00,
-5.000000E+01,-7.500000E+00,0.000000E+00,-3.409091E+00,0.000000E+00,
-4.900000E+01,-7.350000E+00,0.000000E+00,-3.340909E+00,0.000000E+00,
-4.800000E+01,-7.200000E+00,0.000000E+00,-3.272727E+00,0.000000E+00,
-4.700000E+01,-7.050000E+00,0.000000E+00,-3.204545E+00,0.000000E+00,
-4.600000E+01,-6.900000E+00,0.000000E+00,-3.136364E+00,0.000000E+00,
-4.500000E+01,-6.750000E+00,0.000000E+00,-3.068182E+00,0.000000E+00,
-4.400000E+01,-6.600000E+00,0.000000E+00,-3.000000E+00,0.000000E+00,
-4.300000E+01,-6.450000E+00,0.000000E+00,-2.931818E+00,0.000000E+00,
-4.200000E+01,-6.300000E+00,0.000000E+00,-2.863636E+00,0.000000E+00,
-4.100000E+01,-6.150000E+00,0.000000E+00,-2.795455E+00,0.000000E+00,
-4.000000E+01,-6.000000E+00,0.000000E+00,-2.727273E+00,0.000000E+00,
-3.900000E+01,-5.850000E+00,0.000000E+00,-2.659091E+00,0.000000E+00,
-3.800000E+01,-5.700000E+00,0.000000E+00,-2.590909E+00,0.000000E+00,
-3.700000E+01,-5.550000E+00,0.000000E+00,-2.522727E+00,0.000000E+00,
-3.600000E+01,-5.400000E+00,0.000000E+00,-2.454545E+00,0.000000E+00,
-3.500000E+01,-5.250000E+00,0.000000E+00,-2.386364E+00,0.000000E+00,
-3.400000E+01,-5.100000E+00,0.000000E+00,-2.318182E+00,0.000000E+00,
-3.300000E+01,-4.950000E+00,0.000000E+00,-2.250000E+00,0.000000E+00,
-3.200000E+01,-4.800000E+00,0.000000E+00,-2.181818E+00,0.000000E+00,
-3.100000E+01,-4.650000E+00,0.000000E+00,-2.113636E+00,0.000000E+00,
-3.000000E+01,-4.500000E+00,0.000000E+00,-2.045455E+00,0.000000E+00,
-2.900000E+01,-4.350000E+00,0.000000E+00,-1.977273E+00,0.000000E+00,
-2.800000E+01,-4.200000E+00,0.000000E+00,-1.909091E+00,0.000000E+00,
-2.700000E+01,-4.050000E+00,0.000000E+00,-1.840909E+00,0.000000E+00,
-2.600000E+01,-3.900000E+00,0.000000E+00,-1.772727E+00,0.000000E+00,
-2.500000E+01,-3.750000E+00,0.000000E+00,-1.704545E+00,0.000000E+00,
-2.400000E+01,-3.600000E+00,0.000000E+00,-1.636364E+00,0.000000E+00,
-2.300000E+01,-3.450000E+00,0.000000E+00,-1.568182E+00,0.000000E+00,
-2.200000E+01,-3.300000E+00,0.000000E+00,-1.500000E+00,0.000000E+00,
-2.100000E+01,-3.150000E+00,0.000000E+00,-1.431818E+00,0.000000E+00,
-2.000000E+01,-3.000000E+00,0.000000E+00,-1.363636E+00,0.000000E+00,
-1.900000E+01,-2.850000E+00,0.000000E+00,-1.295455E+00,0.000000E+00,
-1.800000E+01,-2.700000E+00,0.000000E+00,-1.227273E+00,0.000000E+00,
-1.700000E+01,-2.550000E+00,0.000000E+00,-1.159091E+00,0.000000E+00,
-1.600000E+01,-2.400000E+00,0.000000E+00,-1.090909E+00,0.000000E+00,
-1.500000E+01,-2.250000E+00,0.000000E+00,-1.022727E+00,0.000000E+00,
-1.400000E+01,-2.100000E+00,0.000000E+00,-9.545455E-01,0.000000E+00,
-1.300000E+01,-1.950000E+00,0.000000E+00,-8.863636E-01,0.000000E+00,
-1.200000E+01,-1.800000E+00,0.000000E+00,-8.181818E-01,0.000000E+00,
-1.100000E+01,-1.650000E+00,0.000000E+00,-7.500000E-01,0.000000E+00,
-1.000000E+01,-1.500000E+00,0.000000E+00,-6.818182E-01,0.000000E+00,
-9.000000E+00,-1.350000E+00,0.000000E+00,-6.136364E-01,0.000000E+00,
-8.000000E+00,-1.200000E+00,0.000000E+00,-5.454545E-01,0.000000E+00,
-7.000000E+00,-1.050000E+00,0.000000E+00,-4.772727E-01,0.000000E+00,
-6.000000E+00,-9.000000E-01,0.000000E+00,-4.090909E-01,0.000000E+00,
-5.000000E+00,-7.500000E-01,6.000000E-05,-3.409091E-01,1.320000E-04,
-4.000000E+00,-6.000000E-01,4.493330E-03,-2.727273E-01,9.885326E-03,
-3.000000E+00,-4.500000E-01,4.027330E-02,-2.045455E-01,8.860126E-02,
-2.000000E+00,-3.000000E-01,1.265670E-01,-1.363636E-01,2.784474E-01,
-1.000000E+00,-1.500000E-01,2.259200E-01,-6.818182E-02,4.970240E-01,
0.000000E+00,0.000000E+00,2.944930E-01,0.000000E+00,6.478846E-01,
1.000000E+00,1.500000E-01,3.323800E-01,6.818182E-02,7.312360E-01,
2.000000E+00,3.000000E-01,3.447200E-01,1.363636E-01,7.583840E-01,
3.000000E+00,4.500000E-01,3.435530E-01,2.045455E-01,7.558166E-01,
4.000000E+00,6.000000E-01,3.359730E-01,2.727273E-01,7.391406E-01,
5.000000E+00,7.500000E-01,3.254800E-01,3.409091E-01,7.160560E-01,
6.000000E+00,9.000000E-01,3.160870E-01,4.090909E-01,6.953914E-01,
7.000000E+00,1.050000E+00,2.996130E-01,4.772727E-01,6.591486E-01,
8.000000E+00,1.200000E+00,2.868070E-01,5.454545E-01,6.309754E-01,
9.000000E+00,1.350000E+00,2.726400E-01,6.136364E-01,5.998080E-01,
1.000000E+01,1.500000E+00,2.547330E-01,6.818182E-01,5.604126E-01,
1.100000E+01,1.650000E+00,2.404200E-01,7.500000E-01,5.289240E-01,
1.200000E+01,1.800000E+00,2.245000E-01,8.181818E-01,4.939000E-01,
1.300000E+01,1.950000E+00,2.110670E-01,8.863636E-01,4.643474E-01,
1.400000E+01,2.100000E+00,1.963470E-01,9.545455E-01,4.319634E-01,
1.500000E+01,2.250000E+00,1.819070E-01,1.022727E+00,4.001954E-01,
1.600000E+01,2.400000E+00,1.679600E-01,1.090909E+00,3.695120E-01,
1.700000E+01,2.550000E+00,1.575800E-01,1.159091E+00,3.466760E-01,
1.800000E+01,2.700000E+00,1.443070E-01,1.227273E+00,3.174754E-01,
1.900000E+01,2.850000E+00,1.352000E-01,1.295455E+00,2.974400E-01,
2.000000E+01,3.000000E+00,1.234930E-01,1.363636E+00,2.716846E-01,
2.100000E+01,3.150000E+00,1.119530E-01,1.431818E+00,2.462966E-01,
2.200000E+01,3.300000E+00,1.034130E-01,1.500000E+00,2.275086E-01,
2.300000E+01,3.450000E+00,9.283330E-02,1.568182E+00,2.042333E-01,
2.400000E+01,3.600000E+00,8.503330E-02,1.636364E+00,1.870733E-01,
2.500000E+01,3.750000E+00,7.628670E-02,1.704545E+00,1.678307E-01,
2.600000E+01,3.900000E+00,7.074000E-02,1.772727E+00,1.556280E-01,
2.700000E+01,4.050000E+00,6.308670E-02,1.840909E+00,1.387907E-01,
2.800000E+01,4.200000E+00,5.745330E-02,1.909091E+00,1.263973E-01,
2.900000E+01,4.350000E+00,5.100670E-02,1.977273E+00,1.122147E-01,
3.000000E+01,4.500000E+00,4.590000E-02,2.045455E+00,1.009800E-01,
3.100000E+01,4.650000E+00,4.070670E-02,2.113636E+00,8.955474E-02,
3.200000E+01,4.800000E+00,3.620670E-02,2.181818E+00,7.965474E-02,
3.300000E+01,4.950000E+00,3.154670E-02,2.250000E+00,6.940274E-02,
3.400000E+01,5.100000E+00,2.849330E-02,2.318182E+00,6.268526E-02,
3.500000E+01,5.250000E+00,2.565330E-02,2.386364E+00,5.643726E-02,
3.600000E+01,5.400000E+00,2.230670E-02,2.454545E+00,4.907474E-02,
3.700000E+01,5.550000E+00,1.955330E-02,2.522727E+00,4.301726E-02,
3.800000E+01,5.700000E+00,1.719330E-02,2.590909E+00,3.782526E-02,
3.900000E+01,5.850000E+00,1.438000E-02,2.659091E+00,3.163600E-02,
4.000000E+01,6.000000E+00,1.256670E-02,2.727273E+00,2.764674E-02,
4.100000E+01,6.150000E+00,1.077330E-02,2.795455E+00,2.370126E-02,
4.200000E+01,6.300000E+00,9.160000E-03,2.863636E+00,2.015200E-02,
4.300000E+01,6.450000E+00,8.226670E-03,2.931818E+00,1.809867E-02,
4.400000E+01,6.600000E+00,7.166670E-03,3.000000E+00,1.576667E-02,
4.500000E+01,6.750000E+00,6.140000E-03,3.068182E+00,1.350800E-02,
4.600000E+01,6.900000E+00,5.380000E-03,3.136364E+00,1.183600E-02,
4.700000E+01,7.050000E+00,4.513330E-03,3.204545E+00,9.929326E-03,
4.800000E+01,7.200000E+00,3.706670E-03,3.272727E+00,8.154674E-03,
4.900000E+01,7.350000E+00,3.146670E-03,3.340909E+00,6.922674E-03,
5.000000E+01,7.500000E+00,2.760000E-03,3.409091E+00,6.072000E-03,
5.100000E+01,7.650000E+00,2.240000E-03,3.477273E+00,4.928000E-03,
5.200000E+01,7.800000E+00,1.806670E-03,3.545455E+00,3.974674E-03,
5.300000E+01,7.950000E+00,1.653330E-03,3.613636E+00,3.637326E-03,
5.400000E+01,8.100000E+00,1.340000E-03,3.681818E+00,2.948000E-03,
5.500000E+01,8.250000E+00,1.120000E-03,3.750000E+00,2.464000E-03,
5.600000E+01,8.400000E+00,7.733330E-04,3.818182E+00,1.701333E-03,
5.700000E+01,8.550000E+00,7.266670E-04,3.886364E+00,1.598667E-03,
5.800000E+01,8.700000E+00,6.866670E-04,3.954545E+00,1.510667E-03,
5.900000E+01,8.850000E+00,4.933330E-04,4.022727E+00,1.085333E-03,
6.000000E+01,9.000000E+00,4.333330E-04,4.090909E+00,9.533326E-04,
6.100000E+01,9.150000E+00,4.066670E-04,4.159091E+00,8.946674E-04,
6.200000E+01,9.300000E+00,2.133330E-04,4.227273E+00,4.693326E-04,
6.300000E+01,9.450000E+00,2.000000E-04,4.295455E+00,4.400000E-04,
6.400000E+01,9.600000E+00,1.600000E-04,4.363636E+00,3.520000E-04,
6.500000E+01,9.750000E+00,1.000000E-04,4.431818E+00,2.200000E-04,
6.600000E+01,9.900000E+00,8.000000E-05,4.500000E+00,1.760000E-04,
6.700000E+01,1.005000E+01,6.000000E-05,4.568182E+00,1.320000E-04,
6.800000E+01,1.020000E+01,5.333330E-05,4.636364E+00,1.173333E-04,
6.900000E+01,1.035000E+01,6.000000E-05,4.704545E+00,1.320000E-04,
7.000000E+01,1.050000E+01,4.000000E-05,4.772727E+00,8.800000E-05,
7.100000E+01,1.065000E+01,6.000000E-05,4.840909E+00,1.320000E-04,
7.200000E+01,1.080000E+01,3.333330E-05,4.909091E+00,7.333326E-05,
7.300000E+01,1.095000E+01,2.000000E-05,4.977273E+00,4.400000E-05,
7.400000E+01,1.110000E+01,0.000000E+00,5.045455E+00,0.000000E+00,
7.500000E+01,1.125000E+01,6.666670E-06,5.113636E+00,1.466667E-05,
7.600000E+01,1.140000E+01,1.333330E-05,5.181818E+00,2.933326E-05,
7.700000E+01,1.155000E+01,6.666670E-06,5.250000E+00,1.466667E-05,
7.800000E+01,1.170000E+01,0.000000E+00,5.318182E+00,0.000000E+00,
7.900000E+01,1.185000E+01,0.000000E+00,5.386364E+00,0.000000E+00,
8.000000E+01,1.200000E+01,0.000000E+00,5.454545E+00,0.000000E+00,
8.100000E+01,1.215000E+01,0.000000E+00,5.522727E+00,0.000000E+00,
8.200000E+01,1.230000E+01,6.666670E-06,5.590909E+00,1.466667E-05,
8.300000E+01,1.245000E+01,0.000000E+00,5.659091E+00,0.000000E+00,
8.400000E+01,1.260000E+01,0.000000E+00,5.727273E+00,0.000000E+00,
8.500000E+01,1.275000E+01,0.000000E+00,5.795455E+00,0.000000E+00,
8.600000E+01,1.290000E+01,0.000000E+00,5.863636E+00,0.000000E+00,
8.700000E+01,1.305000E+01,1.333330E-05,5.931818E+00,2.933326E-05,
8.800000E+01,1.320000E+01,0.000000E+00,6.000000E+00,0.000000E+00,
8.900000E+01,1.335000E+01,0.000000E+00,6.068182E+00,0.000000E+00,
9.000000E+01,1.350000E+01,0.000000E+00,6.136364E+00,0.000000E+00,
9.100000E+01,1.365000E+01,0.000000E+00,6.204545E+00,0.000000E+00,
9.200000E+01,1.380000E+01,0.000000E+00,6.272727E+00,0.000000E+00,
9.300000E+01,1.395000E+01,0.000000E+00,6.340909E+00,0.000000E+00,
9.400000E+01,1.410000E+01,0.000000E+00,6.409091E+00,0.000000E+00,
9.500000E+01,1.425000E+01,0.000000E+00,6.477273E+00,0.000000E+00,
9.600000E+01,1.440000E+01,0.000000E+00,6.545455E+00,0.000000E+00,
9.700000E+01,1.455000E+01,0.000000E+00,6.613636E+00,0.000000E+00,
9.800000E+01,1.470000E+01,0.000000E+00,6.681818E+00,0.000000E+00,
9.900000E+01,1.485000E+01,0.000000E+00,6.750000E+00,0.000000E+00,
1.000000E+02,1.500000E+01,0.000000E+00,6.818182E+00,0.000000E+00,
1.010000E+02,1.515000E+01,0.000000E+00,6.886364E+00,0.000000E+00,
1.020000E+02,1.530000E+01,0.000000E+00,6.954545E+00,0.000000E+00,
1.030000E+02,1.545000E+01,0.000000E+00,7.022727E+00,0.000000E+00,
1.040000E+02,1.560000E+01,0.000000E+00,7.090909E+00,0.000000E+00,
1.050000E+02,1.575000E+01,0.000000E+00,7.159091E+00,0.000000E+00,
1.060000E+02,1.590000E+01,0.000000E+00,7.227273E+00,0.000000E+00,
1.070000E+02,1.605000E+01,0.000000E+00,7.295455E+00,0.000000E+00,
1.080000E+02,1.620000E+01,0.000000E+00,7.363636E+00,0.000000E+00,
1.090000E+02,1.635000E+01,0.000000E+00,7.431818E+00,0.000000E+00,
1.100000E+02,1.650000E+01,0.000000E+00,7.500000E+00,0.000000E+00,
1.110000E+02,1.665000E+01,0.000000E+00,7.568182E+00,0.000000E+00,
1.120000E+02,1.680000E+01,0.000000E+00,7.636364E+00,0.000000E+00,
1.130000E+02,1.695000E+01,0.000000E+00,7.704545E+00,0.000000E+00,
1.140000E+02,1.710000E+01,0.000000E+00,7.772727E+00,0.000000E+00,
1.150000E+02,1.725000E+01,0.000000E+00,7.840909E+00,0.000000E+00,
1.160000E+02,1.740000E+01,0.000000E+00,7.909091E+00,0.000000E+00,
1.170000E+02,1.755000E+01,0.000000E+00,7.977273E+00,0.000000E+00,
1.180000E+02,1.770000E+01,0.000000E+00,8.045455E+00,0.000000E+00,
1.190000E+02,1.785000E+01,0.000000E+00,8.113636E+00,0.000000E+00,
1.200000E+02,1.800000E+01,0.000000E+00,8.181818E+00,0.000000E+00,
1.210000E+02,1.815000E+01,0.000000E+00,8.250000E+00,0.000000E+00,
1.220000E+02,1.830000E+01,0.000000E+00,8.318182E+00,0.000000E+00,
1.230000E+02,1.845000E+01,0.000000E+00,8.386364E+00,0.000000E+00,
1.240000E+02,1.860000E+01,0.000000E+00,8.454545E+00,0.000000E+00,
1.250000E+02,1.875000E+01,0.000000E+00,8.522727E+00,0.000000E+00,
1.260000E+02,1.890000E+01,0.000000E+00,8.590909E+00,0.000000E+00,
1.270000E+02,1.905000E+01,0.000000E+00,8.659091E+00,0.000000E+00,
1.280000E+02,1.920000E+01,0.000000E+00,8.727273E+00,0.000000E+00,
1.290000E+02,1.935000E+01,0.000000E+00,8.795455E+00,0.000000E+00,
1.300000E+02,1.950000E+01,0.000000E+00,8.863636E+00,0.000000E+00,
1.310000E+02,1.965000E+01,0.000000E+00,8.931818E+00,0.000000E+00,
1.320000E+02,1.980000E+01,0.000000E+00,9.000000E+00,0.000000E+00,
1.330000E+02,1.995000E+01,0.000000E+00,9.068182E+00,0.000000E+00,
1.340000E+02,2.010000E+01,0.000000E+00,9.136364E+00,0.000000E+00,
1.350000E+02,2.025000E+01,0.000000E+00,9.204545E+00,0.000000E+00,
1.360000E+02,2.040000E+01,0.000000E+00,9.272727E+00,0.000000E+00,
1.370000E+02,2.055000E+01,0.000000E+00,9.340909E+00,0.000000E+00,
1.380000E+02,2.070000E+01,0.000000E+00,9.409091E+00,0.000000E+00,
1.390000E+02,2.085000E+01,0.000000E+00,9.477273E+00,0.000000E+00,
1.400000E+02,2.100000E+01,0.000000E+00,9.545455E+00,0.000000E+00,
1.410000E+02,2.115000E+01,0.000000E+00,9.613636E+00,0.000000E+00,
1.420000E+02,2.130000E+01,0.000000E+00,9.681818E+00,0.000000E+00,
1.430000E+02,2.145000E+01,0.000000E+00,9.750000E+00,0.000000E+00,
1.440000E+02,2.160000E+01,0.000000E+00,9.818182E+00,0.000000E+00,
1.450000E+02,2.175000E+01,0.000000E+00,9.886364E+00,0.000000E+00,
1.460000E+02,2.190000E+01,0.000000E+00,9.954545E+00,0.000000E+00,
1.470000E+02,2.205000E+01,0.000000E+00,1.002273E+01,0.000000E+00,
1.480000E+02,2.220000E+01,0.000000E+00,1.009091E+01,0.000000E+00,
1.490000E+02,2.235000E+01,0.000000E+00,1.015909E+01,0.000000E+00,
1.500000E+02,2.250000E+01,0.000000E+00,1.022727E+01,0.000000E+00,
1.510000E+02,2.265000E+01,0.000000E+00,1.029545E+01,0.000000E+00,
1.520000E+02,2.280000E+01,0.000000E+00,1.036364E+01,0.000000E+00,
1.530000E+02,2.295000E+01,0.000000E+00,1.043182E+01,0.000000E+00,
1.540000E+02,2.310000E+01,0.000000E+00,1.050000E+01,0.000000E+00,
1.550000E+02,2.325000E+01,0.000000E+00,1.056818E+01,0.000000E+00,
1.560000E+02,2.340000E+01,0.000000E+00,1.063636E+01,0.000000E+00,
1.570000E+02,2.355000E+01,0.000000E+00,1.070455E+01,0.000000E+00,
1.580000E+02,2.370000E+01,0.000000E+00,1.077273E+01,0.000000E+00,
1.590000E+02,2.385000E+01,0.000000E+00,1.084091E+01,0.000000E+00,
1.600000E+02,2.400000E+01,0.000000E+00,1.090909E+01,0.000000E+00,
1.610000E+02,2.415000E+01,0.000000E+00,1.097727E+01,0.000000E+00,
1.620000E+02,2.430000E+01,0.000000E+00,1.104545E+01,0.000000E+00,
1.630000E+02,2.445000E+01,0.000000E+00,1.111364E+01,0.000000E+00,
1.640000E+02,2.460000E+01,0.000000E+00,1.118182E+01,0.000000E+00,
1.650000E+02,2.475000E+01,0.000000E+00,1.125000E+01,0.000000E+00,
1.660000E+02,2.490000E+01,0.000000E+00,1.131818E+01,0.000000E+00,
1.670000E+02,2.505000E+01,0.000000E+00,1.138636E+01,0.000000E+00,
1.680000E+02,2.520000E+01,0.000000E+00,1.145455E+01,0.000000E+00,
1.690000E+02,2.535000E+01,0.000000E+00,1.152273E+01,0.000000E+00,
1.700000E+02,2.550000E+01,0.000000E+00,1.159091E+01,0.000000E+00,
1.710000E+02,2.565000E+01,0.000000E+00,1.165909E+01,0.000000E+00,
1.720000E+02,2.580000E+01,0.000000E+00,1.172727E+01,0.000000E+00,
1.730000E+02,2.595000E+01,0.000000E+00,1.179545E+01,0.000000E+00,
1.740000E+02,2.610000E+01,0.000000E+00,1.186364E+01,0.000000E+00,
1.750000E+02,2.625000E+01,0.000000E+00,1.193182E+01,0.000000E+00,
1.760000E+02,2.640000E+01,0.000000E+00,1.200000E+01,0.000000E+00,
1.770000E+02,2.655000E+01,0.000000E+00,1.206818E+01,0.000000E+00,
1.780000E+02,2.670000E+01,0.000000E+00,1.213636E+01,0.000000E+00,
1.790000E+02,2.685000E+01,0.000000E+00,1.220455E+01,0.000000E+00,
1.800000E+02,2.700000E+01,0.000000E+00,1.227273E+01,0.000000E+00,
1.810000E+02,2.715000E+01,0.000000E+00,1.234091E+01,0.000000E+00,
1.820000E+02,2.730000E+01,0.000000E+00,1.240909E+01,0.000000E+00,
1.830000E+02,2.745000E+01,0.000000E+00,1.247727E+01,0.000000E+00,
1.840000E+02,2.760000E+01,0.000000E+00,1.254545E+01,0.000000E+00,
1.850000E+02,2.775000E+01,0.000000E+00,1.261364E+01,0.000000E+00,
1.860000E+02,2.790000E+01,0.000000E+00,1.268182E+01,0.000000E+00,
1.870000E+02,2.805000E+01,0.000000E+00,1.275000E+01,0.000000E+00,
1.880000E+02,2.820000E+01,0.000000E+00,1.281818E+01,0.000000E+00,
1.890000E+02,2.835000E+01,0.000000E+00,1.288636E+01,0.000000E+00,
1.900000E+02,2.850000E+01,0.000000E+00,1.295455E+01,0.000000E+00,
1.910000E+02,2.865000E+01,0.000000E+00,1.302273E+01,0.000000E+00,
1.920000E+02,2.880000E+01,0.000000E+00,1.309091E+01,0.000000E+00,
1.930000E+02,2.895000E+01,0.000000E+00,1.315909E+01,0.000000E+00,
1.940000E+02,2.910000E+01,0.000000E+00,1.322727E+01,0.000000E+00,
1.950000E+02,2.925000E+01,0.000000E+00,1.329545E+01,0.000000E+00,
1.960000E+02,2.940000E+01,0.000000E+00,1.336364E+01,0.000000E+00,
1.970000E+02,2.955000E+01,0.000000E+00,1.343182E+01,0.000000E+00,
1.980000E+02,2.970000E+01,0.000000E+00,1.350000E+01,0.000000E+00,
1.990000E+02,2.985000E+01,0.000000E+00,1.356818E+01,0.000000E+00,
2.000000E+02,3.000000E+01,0.000000E+00,1.363636E+01,0.000000E+00,
,,,,,
