﻿ibin,x=(MAXX*ibin)/NBIN,P(x),x/sigma,P*sigma,Ni,
-2.000000E+02,-5.000000E+01,0.000000E+00,-2.821310E+00,0.000000E+00,0,Percentage
-1.990000E+02,-4.975000E+01,0.000000E+00,-2.807210E+00,0.000000E+00,0,99%
-1.980000E+02,-4.950000E+01,0.000000E+00,-2.793100E+00,0.000000E+00,0,Sigma
-1.970000E+02,-4.925000E+01,0.000000E+00,-2.778990E+00,0.000000E+00,0,17.722266
-1.960000E+02,-4.900000E+01,0.000000E+00,-2.764890E+00,0.000000E+00,0,
-1.950000E+02,-4.875000E+01,0.000000E+00,-2.750780E+00,0.000000E+00,0,
-1.940000E+02,-4.850000E+01,0.000000E+00,-2.736670E+00,0.000000E+00,0,
-1.930000E+02,-4.825000E+01,0.000000E+00,-2.722570E+00,0.000000E+00,0,
-1.920000E+02,-4.800000E+01,0.000000E+00,-2.708460E+00,0.000000E+00,0,
-1.910000E+02,-4.775000E+01,0.000000E+00,-2.694350E+00,0.000000E+00,0,
-1.900000E+02,-4.750000E+01,0.000000E+00,-2.680250E+00,0.000000E+00,0,
-1.890000E+02,-4.725000E+01,0.000000E+00,-2.666140E+00,0.000000E+00,0,
-1.880000E+02,-4.700000E+01,0.000000E+00,-2.652030E+00,0.000000E+00,0,
-1.870000E+02,-4.675000E+01,0.000000E+00,-2.637930E+00,0.000000E+00,0,
-1.860000E+02,-4.650000E+01,0.000000E+00,-2.623820E+00,0.000000E+00,0,
-1.850000E+02,-4.625000E+01,0.000000E+00,-2.609710E+00,0.000000E+00,0,
-1.840000E+02,-4.600000E+01,0.000000E+00,-2.595610E+00,0.000000E+00,0,
-1.830000E+02,-4.575000E+01,0.000000E+00,-2.581500E+00,0.000000E+00,0,
-1.820000E+02,-4.550000E+01,0.000000E+00,-2.567390E+00,0.000000E+00,0,
-1.810000E+02,-4.525000E+01,0.000000E+00,-2.553290E+00,0.000000E+00,0,
-1.800000E+02,-4.500000E+01,0.000000E+00,-2.539180E+00,0.000000E+00,0,
-1.790000E+02,-4.475000E+01,0.000000E+00,-2.525070E+00,0.000000E+00,0,
-1.780000E+02,-4.450000E+01,0.000000E+00,-2.510970E+00,0.000000E+00,0,
-1.770000E+02,-4.425000E+01,0.000000E+00,-2.496860E+00,0.000000E+00,0,
-1.760000E+02,-4.400000E+01,0.000000E+00,-2.482750E+00,0.000000E+00,0,
-1.750000E+02,-4.375000E+01,0.000000E+00,-2.468650E+00,0.000000E+00,0,
-1.740000E+02,-4.350000E+01,0.000000E+00,-2.454540E+00,0.000000E+00,0,
-1.730000E+02,-4.325000E+01,0.000000E+00,-2.440430E+00,0.000000E+00,0,
-1.720000E+02,-4.300000E+01,0.000000E+00,-2.426330E+00,0.000000E+00,0,
-1.710000E+02,-4.275000E+01,0.000000E+00,-2.412220E+00,0.000000E+00,0,
-1.700000E+02,-4.250000E+01,0.000000E+00,-2.398120E+00,0.000000E+00,0,
-1.690000E+02,-4.225000E+01,0.000000E+00,-2.384010E+00,0.000000E+00,0,
-1.680000E+02,-4.200000E+01,0.000000E+00,-2.369900E+00,0.000000E+00,0,
-1.670000E+02,-4.175000E+01,0.000000E+00,-2.355800E+00,0.000000E+00,0,
-1.660000E+02,-4.150000E+01,0.000000E+00,-2.341690E+00,0.000000E+00,0,
-1.650000E+02,-4.125000E+01,0.000000E+00,-2.327580E+00,0.000000E+00,0,
-1.640000E+02,-4.100000E+01,0.000000E+00,-2.313480E+00,0.000000E+00,0,
-1.630000E+02,-4.075000E+01,0.000000E+00,-2.299370E+00,0.000000E+00,0,
-1.620000E+02,-4.050000E+01,0.000000E+00,-2.285260E+00,0.000000E+00,0,
-1.610000E+02,-4.025000E+01,0.000000E+00,-2.271160E+00,0.000000E+00,0,
-1.600000E+02,-4.000000E+01,0.000000E+00,-2.257050E+00,0.000000E+00,0,
-1.590000E+02,-3.975000E+01,0.000000E+00,-2.242940E+00,0.000000E+00,0,
-1.580000E+02,-3.950000E+01,0.000000E+00,-2.228840E+00,0.000000E+00,0,
-1.570000E+02,-3.925000E+01,0.000000E+00,-2.214730E+00,0.000000E+00,0,
-1.560000E+02,-3.900000E+01,0.000000E+00,-2.200620E+00,0.000000E+00,0,
-1.550000E+02,-3.875000E+01,0.000000E+00,-2.186520E+00,0.000000E+00,0,
-1.540000E+02,-3.850000E+01,0.000000E+00,-2.172410E+00,0.000000E+00,0,
-1.530000E+02,-3.825000E+01,0.000000E+00,-2.158300E+00,0.000000E+00,0,
-1.520000E+02,-3.800000E+01,0.000000E+00,-2.144200E+00,0.000000E+00,0,
-1.510000E+02,-3.775000E+01,0.000000E+00,-2.130090E+00,0.000000E+00,0,
-1.500000E+02,-3.750000E+01,0.000000E+00,-2.115980E+00,0.000000E+00,0,
-1.490000E+02,-3.725000E+01,0.000000E+00,-2.101880E+00,0.000000E+00,0,
-1.480000E+02,-3.700000E+01,0.000000E+00,-2.087770E+00,0.000000E+00,0,
-1.470000E+02,-3.675000E+01,0.000000E+00,-2.073660E+00,0.000000E+00,0,
-1.460000E+02,-3.650000E+01,0.000000E+00,-2.059560E+00,0.000000E+00,0,
-1.450000E+02,-3.625000E+01,0.000000E+00,-2.045450E+00,0.000000E+00,0,
-1.440000E+02,-3.600000E+01,0.000000E+00,-2.031340E+00,0.000000E+00,0,
-1.430000E+02,-3.575000E+01,0.000000E+00,-2.017240E+00,0.000000E+00,0,
-1.420000E+02,-3.550000E+01,0.000000E+00,-2.003130E+00,0.000000E+00,0,
-1.410000E+02,-3.525000E+01,0.000000E+00,-1.989020E+00,0.000000E+00,0,
-1.400000E+02,-3.500000E+01,0.000000E+00,-1.974920E+00,0.000000E+00,0,
-1.390000E+02,-3.475000E+01,0.000000E+00,-1.960810E+00,0.000000E+00,0,
-1.380000E+02,-3.450000E+01,0.000000E+00,-1.946710E+00,0.000000E+00,0,
-1.370000E+02,-3.425000E+01,0.000000E+00,-1.932600E+00,0.000000E+00,0,
-1.360000E+02,-3.400000E+01,0.000000E+00,-1.918490E+00,0.000000E+00,0,
-1.350000E+02,-3.375000E+01,0.000000E+00,-1.904390E+00,0.000000E+00,0,
-1.340000E+02,-3.350000E+01,0.000000E+00,-1.890280E+00,0.000000E+00,0,
-1.330000E+02,-3.325000E+01,0.000000E+00,-1.876170E+00,0.000000E+00,0,
-1.320000E+02,-3.300000E+01,0.000000E+00,-1.862070E+00,0.000000E+00,0,
-1.310000E+02,-3.275000E+01,0.000000E+00,-1.847960E+00,0.000000E+00,0,
-1.300000E+02,-3.250000E+01,0.000000E+00,-1.833850E+00,0.000000E+00,0,
-1.290000E+02,-3.225000E+01,0.000000E+00,-1.819750E+00,0.000000E+00,0,
-1.280000E+02,-3.200000E+01,0.000000E+00,-1.805640E+00,0.000000E+00,0,
-1.270000E+02,-3.175000E+01,0.000000E+00,-1.791530E+00,0.000000E+00,0,
-1.260000E+02,-3.150000E+01,0.000000E+00,-1.777430E+00,0.000000E+00,0,
-1.250000E+02,-3.125000E+01,0.000000E+00,-1.763320E+00,0.000000E+00,0,
-1.240000E+02,-3.100000E+01,0.000000E+00,-1.749210E+00,0.000000E+00,0,
-1.230000E+02,-3.075000E+01,0.000000E+00,-1.735110E+00,0.000000E+00,0,
-1.220000E+02,-3.050000E+01,0.000000E+00,-1.721000E+00,0.000000E+00,0,
-1.210000E+02,-3.025000E+01,0.000000E+00,-1.706890E+00,0.000000E+00,0,
-1.200000E+02,-3.000000E+01,0.000000E+00,-1.692790E+00,0.000000E+00,0,
-1.190000E+02,-2.975000E+01,0.000000E+00,-1.678680E+00,0.000000E+00,0,
-1.180000E+02,-2.950000E+01,0.000000E+00,-1.664570E+00,0.000000E+00,0,
-1.170000E+02,-2.925000E+01,0.000000E+00,-1.650470E+00,0.000000E+00,0,
-1.160000E+02,-2.900000E+01,0.000000E+00,-1.636360E+00,0.000000E+00,0,
-1.150000E+02,-2.875000E+01,0.000000E+00,-1.622250E+00,0.000000E+00,0,
-1.140000E+02,-2.850000E+01,0.000000E+00,-1.608150E+00,0.000000E+00,0,
-1.130000E+02,-2.825000E+01,0.000000E+00,-1.594040E+00,0.000000E+00,0,
-1.120000E+02,-2.800000E+01,0.000000E+00,-1.579930E+00,0.000000E+00,0,
-1.110000E+02,-2.775000E+01,0.000000E+00,-1.565830E+00,0.000000E+00,0,
-1.100000E+02,-2.750000E+01,0.000000E+00,-1.551720E+00,0.000000E+00,0,
-1.090000E+02,-2.725000E+01,0.000000E+00,-1.537610E+00,0.000000E+00,0,
-1.080000E+02,-2.700000E+01,0.000000E+00,-1.523510E+00,0.000000E+00,0,
-1.070000E+02,-2.675000E+01,0.000000E+00,-1.509400E+00,0.000000E+00,0,
-1.060000E+02,-2.650000E+01,0.000000E+00,-1.495300E+00,0.000000E+00,0,
-1.050000E+02,-2.625000E+01,0.000000E+00,-1.481190E+00,0.000000E+00,0,
-1.040000E+02,-2.600000E+01,0.000000E+00,-1.467080E+00,0.000000E+00,0,
-1.030000E+02,-2.575000E+01,0.000000E+00,-1.452980E+00,0.000000E+00,0,
-1.020000E+02,-2.550000E+01,0.000000E+00,-1.438870E+00,0.000000E+00,0,
-1.010000E+02,-2.525000E+01,0.000000E+00,-1.424760E+00,0.000000E+00,0,
-1.000000E+02,-2.500000E+01,0.000000E+00,-1.410660E+00,0.000000E+00,0,
-9.900000E+01,-2.475000E+01,0.000000E+00,-1.396550E+00,0.000000E+00,0,
-9.800000E+01,-2.450000E+01,0.000000E+00,-1.382440E+00,0.000000E+00,0,
-9.700000E+01,-2.425000E+01,0.000000E+00,-1.368340E+00,0.000000E+00,0,
-9.600000E+01,-2.400000E+01,0.000000E+00,-1.354230E+00,0.000000E+00,0,
-9.500000E+01,-2.375000E+01,0.000000E+00,-1.340120E+00,0.000000E+00,0,
-9.400000E+01,-2.350000E+01,0.000000E+00,-1.326020E+00,0.000000E+00,0,
-9.300000E+01,-2.325000E+01,0.000000E+00,-1.311910E+00,0.000000E+00,0,
-9.200000E+01,-2.300000E+01,0.000000E+00,-1.297800E+00,0.000000E+00,0,
-9.100000E+01,-2.275000E+01,0.000000E+00,-1.283700E+00,0.000000E+00,0,
-9.000000E+01,-2.250000E+01,0.000000E+00,-1.269590E+00,0.000000E+00,0,
-8.900000E+01,-2.225000E+01,0.000000E+00,-1.255480E+00,0.000000E+00,0,
-8.800000E+01,-2.200000E+01,0.000000E+00,-1.241380E+00,0.000000E+00,0,
-8.700000E+01,-2.175000E+01,0.000000E+00,-1.227270E+00,0.000000E+00,0,
-8.600000E+01,-2.150000E+01,0.000000E+00,-1.213160E+00,0.000000E+00,0,
-8.500000E+01,-2.125000E+01,0.000000E+00,-1.199060E+00,0.000000E+00,0,
-8.400000E+01,-2.100000E+01,0.000000E+00,-1.184950E+00,0.000000E+00,0,
-8.300000E+01,-2.075000E+01,0.000000E+00,-1.170840E+00,0.000000E+00,0,
-8.200000E+01,-2.050000E+01,0.000000E+00,-1.156740E+00,0.000000E+00,0,
-8.100000E+01,-2.025000E+01,0.000000E+00,-1.142630E+00,0.000000E+00,0,
-8.000000E+01,-2.000000E+01,0.000000E+00,-1.128520E+00,0.000000E+00,0,
-7.900000E+01,-1.975000E+01,0.000000E+00,-1.114420E+00,0.000000E+00,0,
-7.800000E+01,-1.950000E+01,0.000000E+00,-1.100310E+00,0.000000E+00,0,
-7.700000E+01,-1.925000E+01,0.000000E+00,-1.086210E+00,0.000000E+00,0,
-7.600000E+01,-1.900000E+01,0.000000E+00,-1.072100E+00,0.000000E+00,0,
-7.500000E+01,-1.875000E+01,0.000000E+00,-1.057990E+00,0.000000E+00,0,
-7.400000E+01,-1.850000E+01,0.000000E+00,-1.043890E+00,0.000000E+00,0,
-7.300000E+01,-1.825000E+01,0.000000E+00,-1.029780E+00,0.000000E+00,0,
-7.200000E+01,-1.800000E+01,0.000000E+00,-1.015670E+00,0.000000E+00,0,
-7.100000E+01,-1.775000E+01,0.000000E+00,-1.001570E+00,0.000000E+00,0,
-7.000000E+01,-1.750000E+01,0.000000E+00,-9.874590E-01,0.000000E+00,0,
-6.900000E+01,-1.725000E+01,0.000000E+00,-9.733530E-01,0.000000E+00,0,
-6.800000E+01,-1.700000E+01,0.000000E+00,-9.592460E-01,0.000000E+00,0,
-6.700000E+01,-1.675000E+01,0.000000E+00,-9.451390E-01,0.000000E+00,0,
-6.600000E+01,-1.650000E+01,0.000000E+00,-9.310330E-01,0.000000E+00,0,
-6.500000E+01,-1.625000E+01,0.000000E+00,-9.169260E-01,0.000000E+00,0,
-6.400000E+01,-1.600000E+01,0.000000E+00,-9.028200E-01,0.000000E+00,0,
-6.300000E+01,-1.575000E+01,0.000000E+00,-8.887130E-01,0.000000E+00,0,
-6.200000E+01,-1.550000E+01,0.000000E+00,-8.746070E-01,0.000000E+00,0,
-6.100000E+01,-1.525000E+01,0.000000E+00,-8.605000E-01,0.000000E+00,0,
-6.000000E+01,-1.500000E+01,0.000000E+00,-8.463940E-01,0.000000E+00,0,
-5.900000E+01,-1.475000E+01,0.000000E+00,-8.322870E-01,0.000000E+00,0,
-5.800000E+01,-1.450000E+01,0.000000E+00,-8.181800E-01,0.000000E+00,0,
-5.700000E+01,-1.425000E+01,0.000000E+00,-8.040740E-01,0.000000E+00,0,
-5.600000E+01,-1.400000E+01,0.000000E+00,-7.899670E-01,0.000000E+00,0,
-5.500000E+01,-1.375000E+01,0.000000E+00,-7.758610E-01,0.000000E+00,0,
-5.400000E+01,-1.350000E+01,0.000000E+00,-7.617540E-01,0.000000E+00,0,
-5.300000E+01,-1.325000E+01,0.000000E+00,-7.476480E-01,0.000000E+00,0,
-5.200000E+01,-1.300000E+01,0.000000E+00,-7.335410E-01,0.000000E+00,0,
-5.100000E+01,-1.275000E+01,0.000000E+00,-7.194350E-01,0.000000E+00,0,
-5.000000E+01,-1.250000E+01,0.000000E+00,-7.053280E-01,0.000000E+00,0,
-4.900000E+01,-1.225000E+01,0.000000E+00,-6.912210E-01,0.000000E+00,0,
-4.800000E+01,-1.200000E+01,0.000000E+00,-6.771150E-01,0.000000E+00,0,
-4.700000E+01,-1.175000E+01,0.000000E+00,-6.630080E-01,0.000000E+00,0,
-4.600000E+01,-1.150000E+01,0.000000E+00,-6.489020E-01,0.000000E+00,0,
-4.500000E+01,-1.125000E+01,0.000000E+00,-6.347950E-01,0.000000E+00,0,
-4.400000E+01,-1.100000E+01,0.000000E+00,-6.206890E-01,0.000000E+00,0,
-4.300000E+01,-1.075000E+01,0.000000E+00,-6.065820E-01,0.000000E+00,0,
-4.200000E+01,-1.050000E+01,0.000000E+00,-5.924750E-01,0.000000E+00,0,
-4.100000E+01,-1.025000E+01,0.000000E+00,-5.783690E-01,0.000000E+00,0,
-4.000000E+01,-1.000000E+01,0.000000E+00,-5.642620E-01,0.000000E+00,0,
-3.900000E+01,-9.750000E+00,0.000000E+00,-5.501560E-01,0.000000E+00,0,
-3.800000E+01,-9.500000E+00,0.000000E+00,-5.360490E-01,0.000000E+00,0,
-3.700000E+01,-9.250000E+00,0.000000E+00,-5.219430E-01,0.000000E+00,0,
-3.600000E+01,-9.000000E+00,0.000000E+00,-5.078360E-01,0.000000E+00,0,
-3.500000E+01,-8.750000E+00,0.000000E+00,-4.937300E-01,0.000000E+00,0,
-3.400000E+01,-8.500000E+00,0.000000E+00,-4.796230E-01,0.000000E+00,0,
-3.300000E+01,-8.250000E+00,0.000000E+00,-4.655160E-01,0.000000E+00,0,
-3.200000E+01,-8.000000E+00,0.000000E+00,-4.514100E-01,0.000000E+00,0,
-3.100000E+01,-7.750000E+00,0.000000E+00,-4.373030E-01,0.000000E+00,0,
-3.000000E+01,-7.500000E+00,0.000000E+00,-4.231970E-01,0.000000E+00,0,
-2.900000E+01,-7.250000E+00,0.000000E+00,-4.090900E-01,0.000000E+00,0,
-2.800000E+01,-7.000000E+00,0.000000E+00,-3.949840E-01,0.000000E+00,0,
-2.700000E+01,-6.750000E+00,0.000000E+00,-3.808770E-01,0.000000E+00,0,
-2.600000E+01,-6.500000E+00,0.000000E+00,-3.667710E-01,0.000000E+00,0,
-2.500000E+01,-6.250000E+00,0.000000E+00,-3.526640E-01,0.000000E+00,0,
-2.400000E+01,-6.000000E+00,0.000000E+00,-3.385570E-01,0.000000E+00,0,
-2.300000E+01,-5.750000E+00,0.000000E+00,-3.244510E-01,0.000000E+00,0,
-2.200000E+01,-5.500000E+00,0.000000E+00,-3.103440E-01,0.000000E+00,0,
-2.100000E+01,-5.250000E+00,0.000000E+00,-2.962380E-01,0.000000E+00,0,
-2.000000E+01,-5.000000E+00,0.000000E+00,-2.821310E-01,0.000000E+00,0,
-1.900000E+01,-4.750000E+00,0.000000E+00,-2.680250E-01,0.000000E+00,0,
-1.800000E+01,-4.500000E+00,0.000000E+00,-2.539180E-01,0.000000E+00,0,
-1.700000E+01,-4.250000E+00,0.000000E+00,-2.398120E-01,0.000000E+00,0,
-1.600000E+01,-4.000000E+00,0.000000E+00,-2.257050E-01,0.000000E+00,0,
-1.500000E+01,-3.750000E+00,0.000000E+00,-2.115980E-01,0.000000E+00,0,
-1.400000E+01,-3.500000E+00,0.000000E+00,-1.974920E-01,0.000000E+00,0,
-1.300000E+01,-3.250000E+00,0.000000E+00,-1.833850E-01,0.000000E+00,0,
-1.200000E+01,-3.000000E+00,0.000000E+00,-1.692790E-01,0.000000E+00,0,
-1.100000E+01,-2.750000E+00,0.000000E+00,-1.551720E-01,0.000000E+00,0,
-1.000000E+01,-2.500000E+00,0.000000E+00,-1.410660E-01,0.000000E+00,0,
-9.000000E+00,-2.250000E+00,0.000000E+00,-1.269590E-01,0.000000E+00,0,
-8.000000E+00,-2.000000E+00,0.000000E+00,-1.128520E-01,0.000000E+00,0,
-7.000000E+00,-1.750000E+00,0.000000E+00,-9.874590E-02,0.000000E+00,0,
-6.000000E+00,-1.500000E+00,0.000000E+00,-8.463940E-02,0.000000E+00,0,
-5.000000E+00,-1.250000E+00,0.000000E+00,-7.053280E-02,0.000000E+00,0,
-4.000000E+00,-1.000000E+00,0.000000E+00,-5.642620E-02,0.000000E+00,0,
-3.000000E+00,-7.500000E-01,2.590670E-05,-4.231970E-02,4.591260E-04,5,
-2.000000E+00,-5.000000E-01,3.170980E-03,-2.821310E-02,5.619700E-02,612,
-1.000000E+00,-2.500000E-01,1.980310E-02,-1.410660E-02,3.509560E-01,3822,
0.000000E+00,0.000000E+00,3.798960E-02,0.000000E+00,6.732620E-01,7332,
1.000000E+00,2.500000E-01,4.777200E-02,1.410660E-02,8.466280E-01,9220,
2.000000E+00,5.000000E-01,5.117620E-02,2.821310E-02,9.069570E-01,9877,
3.000000E+00,7.500000E-01,5.232120E-02,4.231970E-02,9.272500E-01,10098,
4.000000E+00,1.000000E+00,5.230570E-02,5.642620E-02,9.269750E-01,10095,
5.000000E+00,1.250000E+00,5.155960E-02,7.053280E-02,9.137520E-01,9951,
6.000000E+00,1.500000E+00,5.174610E-02,8.463940E-02,9.170580E-01,9987,
7.000000E+00,1.750000E+00,5.134720E-02,9.874590E-02,9.099870E-01,9910,
8.000000E+00,2.000000E+00,5.170470E-02,1.128520E-01,9.163230E-01,9979,
9.000000E+00,2.250000E+00,5.043010E-02,1.269590E-01,8.937340E-01,9733,
1.000000E+01,2.500000E+00,5.016060E-02,1.410660E-01,8.889590E-01,9681,
1.100000E+01,2.750000E+00,4.913990E-02,1.551720E-01,8.708700E-01,9484,
1.200000E+01,3.000000E+00,4.908810E-02,1.692790E-01,8.699510E-01,9474,
1.300000E+01,3.250000E+00,4.865280E-02,1.833850E-01,8.622380E-01,9390,
1.400000E+01,3.500000E+00,4.829020E-02,1.974920E-01,8.558100E-01,9320,
1.500000E+01,3.750000E+00,4.751810E-02,2.115980E-01,8.421280E-01,9171,
1.600000E+01,4.000000E+00,4.669950E-02,2.257050E-01,8.276200E-01,9013,
1.700000E+01,4.250000E+00,4.762690E-02,2.398120E-01,8.440570E-01,9192,
1.800000E+01,4.500000E+00,4.583420E-02,2.539180E-01,8.122850E-01,8846,
1.900000E+01,4.750000E+00,4.582900E-02,2.680250E-01,8.121930E-01,8845,
2.000000E+01,5.000000E+00,4.508810E-02,2.821310E-01,7.990620E-01,8702,
2.100000E+01,5.250000E+00,4.530570E-02,2.962380E-01,8.029190E-01,8744,
2.200000E+01,5.500000E+00,4.394820E-02,3.103440E-01,7.788610E-01,8482,
2.300000E+01,5.750000E+00,4.407250E-02,3.244510E-01,7.810650E-01,8506,
2.400000E+01,6.000000E+00,4.365800E-02,3.385570E-01,7.737190E-01,8426,
2.500000E+01,6.250000E+00,4.340930E-02,3.526640E-01,7.693110E-01,8378,
2.600000E+01,6.500000E+00,4.216580E-02,3.667710E-01,7.472730E-01,8138,
2.700000E+01,6.750000E+00,4.205700E-02,3.808770E-01,7.453450E-01,8117,
2.800000E+01,7.000000E+00,4.212440E-02,3.949840E-01,7.465380E-01,8130,
2.900000E+01,7.250000E+00,4.125390E-02,4.090900E-01,7.311120E-01,7962,
3.000000E+01,7.500000E+00,4.126420E-02,4.231970E-01,7.312950E-01,7964,
3.100000E+01,7.750000E+00,4.056990E-02,4.373030E-01,7.189910E-01,7830,
3.200000E+01,8.000000E+00,3.941450E-02,4.514100E-01,6.985140E-01,7607,
3.300000E+01,8.250000E+00,4.020730E-02,4.655160E-01,7.125630E-01,7760,
3.400000E+01,8.500000E+00,3.941450E-02,4.796230E-01,6.985140E-01,7607,
3.500000E+01,8.750000E+00,3.809840E-02,4.937300E-01,6.751900E-01,7353,
3.600000E+01,9.000000E+00,3.849740E-02,5.078360E-01,6.822610E-01,7430,
3.700000E+01,9.250000E+00,3.762180E-02,5.219430E-01,6.667420E-01,7261,
3.800000E+01,9.500000E+00,3.812440E-02,5.360490E-01,6.756490E-01,7358,
3.900000E+01,9.750000E+00,3.734720E-02,5.501560E-01,6.618760E-01,7208,
4.000000E+01,1.000000E+01,3.643520E-02,5.642620E-01,6.457140E-01,7032,
4.100000E+01,1.025000E+01,3.615030E-02,5.783690E-01,6.406640E-01,6977,
4.200000E+01,1.050000E+01,3.507770E-02,5.924750E-01,6.216560E-01,6770,
4.300000E+01,1.075000E+01,3.564770E-02,6.065820E-01,6.317570E-01,6880,
4.400000E+01,1.100000E+01,3.501550E-02,6.206890E-01,6.205540E-01,6758,
4.500000E+01,1.125000E+01,3.425910E-02,6.347950E-01,6.071480E-01,6612,
4.600000E+01,1.150000E+01,3.413470E-02,6.489020E-01,6.049440E-01,6588,
4.700000E+01,1.175000E+01,3.336790E-02,6.630080E-01,5.913540E-01,6440,
4.800000E+01,1.200000E+01,3.350260E-02,6.771150E-01,5.937410E-01,6466,
4.900000E+01,1.225000E+01,3.341970E-02,6.912210E-01,5.922720E-01,6450,
5.000000E+01,1.250000E+01,3.259590E-02,7.053280E-01,5.776720E-01,6291,
5.100000E+01,1.275000E+01,3.215540E-02,7.194350E-01,5.698670E-01,6206,
5.200000E+01,1.300000E+01,3.098960E-02,7.335410E-01,5.492060E-01,5981,
5.300000E+01,1.325000E+01,3.168910E-02,7.476480E-01,5.616030E-01,6116,
5.400000E+01,1.350000E+01,3.149740E-02,7.617540E-01,5.582050E-01,6079,
5.500000E+01,1.375000E+01,3.058030E-02,7.758610E-01,5.419520E-01,5902,
5.600000E+01,1.400000E+01,3.061140E-02,7.899670E-01,5.425030E-01,5908,
5.700000E+01,1.425000E+01,2.977200E-02,8.040740E-01,5.276270E-01,5746,
5.800000E+01,1.450000E+01,2.961660E-02,8.181800E-01,5.248730E-01,5716,
5.900000E+01,1.475000E+01,2.900000E-02,8.322870E-01,5.139450E-01,5597,
6.000000E+01,1.500000E+01,2.887050E-02,8.463940E-01,5.116500E-01,5572,
6.100000E+01,1.525000E+01,2.838340E-02,8.605000E-01,5.030180E-01,5478,
6.200000E+01,1.550000E+01,2.800000E-02,8.746070E-01,4.962230E-01,5404,
6.300000E+01,1.575000E+01,2.758030E-02,8.887130E-01,4.887850E-01,5323,
6.400000E+01,1.600000E+01,2.734200E-02,9.028200E-01,4.845610E-01,5277,
6.500000E+01,1.625000E+01,2.709840E-02,9.169260E-01,4.802450E-01,5230,
6.600000E+01,1.650000E+01,2.617620E-02,9.310330E-01,4.639010E-01,5052,
6.700000E+01,1.675000E+01,2.633160E-02,9.451390E-01,4.666550E-01,5082,
6.800000E+01,1.700000E+01,2.587560E-02,9.592460E-01,4.585750E-01,4994,
6.900000E+01,1.725000E+01,2.550780E-02,9.733530E-01,4.520550E-01,4923,
7.000000E+01,1.750000E+01,2.516060E-02,9.874590E-01,4.459030E-01,4856,
7.100000E+01,1.775000E+01,2.449740E-02,1.001570E+00,4.341490E-01,4728,
7.200000E+01,1.800000E+01,2.393780E-02,1.015670E+00,4.242320E-01,4620,
7.300000E+01,1.825000E+01,2.415540E-02,1.029780E+00,4.280890E-01,4662,
7.400000E+01,1.850000E+01,2.306220E-02,1.043890E+00,4.087140E-01,4451,
7.500000E+01,1.875000E+01,2.274610E-02,1.057990E+00,4.031120E-01,4390,
7.600000E+01,1.900000E+01,2.276680E-02,1.072100E+00,4.034800E-01,4394,
7.700000E+01,1.925000E+01,2.312440E-02,1.086210E+00,4.098160E-01,4463,
7.800000E+01,1.950000E+01,2.212950E-02,1.100310E+00,3.921850E-01,4271,
7.900000E+01,1.975000E+01,2.162690E-02,1.114420E+00,3.832780E-01,4174,
8.000000E+01,2.000000E+01,2.148190E-02,1.128520E+00,3.807070E-01,4146,
8.100000E+01,2.025000E+01,2.111920E-02,1.142630E+00,3.742790E-01,4076,
8.200000E+01,2.050000E+01,2.102070E-02,1.156740E+00,3.725350E-01,4057,
8.300000E+01,2.075000E+01,2.048190E-02,1.170840E+00,3.629850E-01,3953,
8.400000E+01,2.100000E+01,2.028500E-02,1.184950E+00,3.594950E-01,3915,
8.500000E+01,2.125000E+01,2.026940E-02,1.199060E+00,3.592200E-01,3912,
8.600000E+01,2.150000E+01,1.956480E-02,1.213160E+00,3.467320E-01,3776,
8.700000E+01,2.175000E+01,1.914510E-02,1.227270E+00,3.392940E-01,3695,
8.800000E+01,2.200000E+01,1.877200E-02,1.241380E+00,3.326820E-01,3623,
8.900000E+01,2.225000E+01,1.819170E-02,1.255480E+00,3.223980E-01,3511,
9.000000E+01,2.250000E+01,1.865280E-02,1.269590E+00,3.305710E-01,3600,
9.100000E+01,2.275000E+01,1.775130E-02,1.283700E+00,3.145930E-01,3426,
9.200000E+01,2.300000E+01,1.744040E-02,1.297800E+00,3.090830E-01,3366,
9.300000E+01,2.325000E+01,1.725390E-02,1.311910E+00,3.057780E-01,3330,
9.400000E+01,2.350000E+01,1.731610E-02,1.326020E+00,3.068800E-01,3342,
9.500000E+01,2.375000E+01,1.710880E-02,1.340120E+00,3.032070E-01,3302,
9.600000E+01,2.400000E+01,1.602070E-02,1.354230E+00,2.839230E-01,3092,
9.700000E+01,2.425000E+01,1.563730E-02,1.368340E+00,2.771280E-01,3018,
9.800000E+01,2.450000E+01,1.555960E-02,1.382440E+00,2.757510E-01,3003,
9.900000E+01,2.475000E+01,1.508810E-02,1.396550E+00,2.673950E-01,2912,
1.000000E+02,2.500000E+01,1.486010E-02,1.410660E+00,2.633550E-01,2868,
1.010000E+02,2.525000E+01,1.515030E-02,1.424760E+00,2.684970E-01,2924,
1.020000E+02,2.550000E+01,1.452330E-02,1.438870E+00,2.573860E-01,2803,
1.030000E+02,2.575000E+01,1.382900E-02,1.452980E+00,2.450810E-01,2669,
1.040000E+02,2.600000E+01,1.403110E-02,1.467080E+00,2.486620E-01,2708,
1.050000E+02,2.625000E+01,1.378760E-02,1.481190E+00,2.443470E-01,2661,
1.060000E+02,2.650000E+01,1.357510E-02,1.495300E+00,2.405820E-01,2620,
1.070000E+02,2.675000E+01,1.310360E-02,1.509400E+00,2.322260E-01,2529,
1.080000E+02,2.700000E+01,1.304660E-02,1.523510E+00,2.312160E-01,2518,
1.090000E+02,2.725000E+01,1.245080E-02,1.537610E+00,2.206560E-01,2403,
1.100000E+02,2.750000E+01,1.231090E-02,1.551720E+00,2.181770E-01,2376,
1.110000E+02,2.775000E+01,1.256990E-02,1.565830E+00,2.227680E-01,2426,
1.120000E+02,2.800000E+01,1.228500E-02,1.579930E+00,2.177170E-01,2371,
1.130000E+02,2.825000E+01,1.124870E-02,1.594040E+00,1.993520E-01,2171,
1.140000E+02,2.850000E+01,1.168910E-02,1.608150E+00,2.071580E-01,2256,
1.150000E+02,2.875000E+01,1.156990E-02,1.622250E+00,2.050460E-01,2233,
1.160000E+02,2.900000E+01,1.131610E-02,1.636360E+00,2.005460E-01,2184,
1.170000E+02,2.925000E+01,1.065800E-02,1.650470E+00,1.888840E-01,2057,
1.180000E+02,2.950000E+01,1.113470E-02,1.664570E+00,1.973320E-01,2149,
1.190000E+02,2.975000E+01,1.042490E-02,1.678680E+00,1.847520E-01,2012,
1.200000E+02,3.000000E+01,1.030050E-02,1.692790E+00,1.825480E-01,1988,
1.210000E+02,3.025000E+01,1.014510E-02,1.706890E+00,1.797940E-01,1958,
1.220000E+02,3.050000E+01,9.829020E-03,1.721000E+00,1.741920E-01,1897,
1.230000E+02,3.075000E+01,8.906740E-03,1.735110E+00,1.578470E-01,1719,
1.240000E+02,3.100000E+01,9.160620E-03,1.749210E+00,1.623470E-01,1768,
1.250000E+02,3.125000E+01,9.145080E-03,1.763320E+00,1.620710E-01,1765,
1.260000E+02,3.150000E+01,8.709840E-03,1.777430E+00,1.543580E-01,1681,
1.270000E+02,3.175000E+01,8.430050E-03,1.791530E+00,1.494000E-01,1627,
1.280000E+02,3.200000E+01,8.870470E-03,1.805640E+00,1.572050E-01,1712,
1.290000E+02,3.225000E+01,8.740930E-03,1.819750E+00,1.549090E-01,1687,
1.300000E+02,3.250000E+01,8.005180E-03,1.833850E+00,1.418700E-01,1545,
1.310000E+02,3.275000E+01,8.284970E-03,1.847960E+00,1.468280E-01,1599,
1.320000E+02,3.300000E+01,7.989640E-03,1.862070E+00,1.415940E-01,1542,
1.330000E+02,3.325000E+01,7.922280E-03,1.876170E+00,1.404010E-01,1529,
1.340000E+02,3.350000E+01,7.269430E-03,1.890280E+00,1.288310E-01,1403,
1.350000E+02,3.375000E+01,7.233160E-03,1.904390E+00,1.281880E-01,1396,
1.360000E+02,3.400000E+01,7.202070E-03,1.918490E+00,1.276370E-01,1390,
1.370000E+02,3.425000E+01,6.906740E-03,1.932600E+00,1.224030E-01,1333,
1.380000E+02,3.450000E+01,6.709840E-03,1.946710E+00,1.189140E-01,1295,
1.390000E+02,3.475000E+01,6.326420E-03,1.960810E+00,1.121180E-01,1221,
1.400000E+02,3.500000E+01,6.150260E-03,1.974920E+00,1.089960E-01,1187,
1.410000E+02,3.525000E+01,6.041450E-03,1.989020E+00,1.070680E-01,1166,
1.420000E+02,3.550000E+01,5.974090E-03,2.003130E+00,1.058740E-01,1153,
1.430000E+02,3.575000E+01,6.134720E-03,2.017240E+00,1.087210E-01,1184,
1.440000E+02,3.600000E+01,5.740930E-03,2.031340E+00,1.017420E-01,1108,
1.450000E+02,3.625000E+01,5.906740E-03,2.045450E+00,1.046810E-01,1140,
1.460000E+02,3.650000E+01,5.564770E-03,2.059560E+00,9.862020E-02,1074,
1.470000E+02,3.675000E+01,5.404150E-03,2.073660E+00,9.577360E-02,1043,
1.480000E+02,3.700000E+01,5.259070E-03,2.087770E+00,9.320250E-02,1015,
1.490000E+02,3.725000E+01,5.310880E-03,2.101880E+00,9.412080E-02,1025,
1.500000E+02,3.750000E+01,5.103630E-03,2.115980E+00,9.044780E-02,985,
1.510000E+02,3.775000E+01,4.911920E-03,2.130090E+00,8.705020E-02,948,
1.520000E+02,3.800000E+01,4.829020E-03,2.144200E+00,8.558100E-02,932,
1.530000E+02,3.825000E+01,4.720210E-03,2.158300E+00,8.365270E-02,911,
1.540000E+02,3.850000E+01,4.658030E-03,2.172410E+00,8.255080E-02,899,
1.550000E+02,3.875000E+01,4.352330E-03,2.186520E+00,7.713310E-02,840,
1.560000E+02,3.900000E+01,4.155440E-03,2.200620E+00,7.364380E-02,802,
1.570000E+02,3.925000E+01,4.233160E-03,2.214730E+00,7.502110E-02,817,
1.580000E+02,3.950000E+01,4.067360E-03,2.228840E+00,7.208270E-02,785,
1.590000E+02,3.975000E+01,4.243520E-03,2.242940E+00,7.520480E-02,819,
1.600000E+02,4.000000E+01,3.974090E-03,2.257050E+00,7.042990E-02,767,
1.610000E+02,4.025000E+01,3.715030E-03,2.271160E+00,6.583860E-02,717,
1.620000E+02,4.050000E+01,3.455960E-03,2.285260E+00,6.124740E-02,667,
1.630000E+02,4.075000E+01,3.601040E-03,2.299370E+00,6.381850E-02,695,
1.640000E+02,4.100000E+01,3.450780E-03,2.313480E+00,6.115550E-02,666,
1.650000E+02,4.125000E+01,3.295340E-03,2.327580E+00,5.840080E-02,636,
1.660000E+02,4.150000E+01,2.875650E-03,2.341690E+00,5.096300E-02,555,
1.670000E+02,4.175000E+01,3.145080E-03,2.355800E+00,5.573790E-02,607,
1.680000E+02,4.200000E+01,3.093260E-03,2.369900E+00,5.481960E-02,597,
1.690000E+02,4.225000E+01,3.186530E-03,2.384010E+00,5.647250E-02,615,
1.700000E+02,4.250000E+01,3.046630E-03,2.398120E+00,5.399320E-02,588,
1.710000E+02,4.275000E+01,3.000000E-03,2.412220E+00,5.316680E-02,579,
1.720000E+02,4.300000E+01,2.751300E-03,2.426330E+00,4.875920E-02,531,
1.730000E+02,4.325000E+01,2.694300E-03,2.440430E+00,4.774910E-02,520,
1.740000E+02,4.350000E+01,2.481870E-03,2.454540E+00,4.398420E-02,479,
1.750000E+02,4.375000E+01,2.528500E-03,2.468650E+00,4.481070E-02,488,
1.760000E+02,4.400000E+01,2.378240E-03,2.482750E+00,4.214770E-02,459,
1.770000E+02,4.425000E+01,2.575130E-03,2.496860E+00,4.563710E-02,497,
1.780000E+02,4.450000E+01,2.300520E-03,2.510970E+00,4.077040E-02,444,
1.790000E+02,4.475000E+01,2.341970E-03,2.525070E+00,4.150500E-02,452,
1.800000E+02,4.500000E+01,2.129530E-03,2.539180E+00,3.774010E-02,411,
1.810000E+02,4.525000E+01,2.113990E-03,2.553290E+00,3.746470E-02,408,
1.820000E+02,4.550000E+01,2.124350E-03,2.567390E+00,3.764830E-02,410,
1.830000E+02,4.575000E+01,2.113990E-03,2.581500E+00,3.746470E-02,408,
1.840000E+02,4.600000E+01,2.025910E-03,2.595610E+00,3.590360E-02,391,
1.850000E+02,4.625000E+01,1.829020E-03,2.609710E+00,3.241430E-02,353,
1.860000E+02,4.650000E+01,1.875650E-03,2.623820E+00,3.324070E-02,362,
1.870000E+02,4.675000E+01,1.756480E-03,2.637930E+00,3.112870E-02,339,
1.880000E+02,4.700000E+01,1.704660E-03,2.652030E+00,3.021050E-02,329,
1.890000E+02,4.725000E+01,1.668390E-03,2.666140E+00,2.956770E-02,322,
1.900000E+02,4.750000E+01,1.663210E-03,2.680250E+00,2.947590E-02,321,
1.910000E+02,4.775000E+01,1.533680E-03,2.694350E+00,2.718020E-02,296,
1.920000E+02,4.800000E+01,1.585490E-03,2.708460E+00,2.809850E-02,306,
1.930000E+02,4.825000E+01,1.538860E-03,2.722570E+00,2.727210E-02,297,
1.940000E+02,4.850000E+01,1.409330E-03,2.736670E+00,2.497640E-02,272,
1.950000E+02,4.875000E+01,1.393780E-03,2.750780E+00,2.470100E-02,269,
1.960000E+02,4.900000E+01,1.176170E-03,2.764890E+00,2.084430E-02,227,
1.970000E+02,4.925000E+01,1.373060E-03,2.778990E+00,2.433370E-02,265,
1.980000E+02,4.950000E+01,1.119170E-03,2.793100E+00,1.983420E-02,216,
1.990000E+02,4.975000E+01,1.253890E-03,2.807210E+00,2.222170E-02,242,
2.000000E+02,5.000000E+01,1.098450E-03,2.821310E+00,1.946690E-02,212,
