 program mpi_genlang17 on          192  CPUs
 Density distribution at time   327.680000000000     
 Time step   1.000000000000000E-002
 Fractional  T
 Correlation exponent gamma  0.400000000000000     
 Damping constant alpha   1.00000000000000     
 TEMPERATURE      1.00000000000000     
 NEXAC=        1000  NAPP1=        4500  NAPP2=       35000  NAPP3=      250000
 NWIN1=         115  NWIN2=        1265  NWIN3=       18975  NWIN4=      398475
 Wall force constants F0, LAM   5.00000000000000        5.00000000000000     
 Wall force shift XXW  0.250000000000000     
 IRINIT=     1000001
 Number of walkers      190080 of      1000000
 ==================================
    ibin    x=(MAXX*ibin)/NBIN   P(x)   x/sigma   P*sigma
    -200  -0.300000E+02   0.000000E+00  -0.890743E+01   0.000000E+00
    -199  -0.298500E+02   0.000000E+00  -0.886289E+01   0.000000E+00
    -198  -0.297000E+02   0.000000E+00  -0.881836E+01   0.000000E+00
    -197  -0.295500E+02   0.000000E+00  -0.877382E+01   0.000000E+00
    -196  -0.294000E+02   0.000000E+00  -0.872928E+01   0.000000E+00
    -195  -0.292500E+02   0.000000E+00  -0.868475E+01   0.000000E+00
    -194  -0.291000E+02   0.000000E+00  -0.864021E+01   0.000000E+00
    -193  -0.289500E+02   0.000000E+00  -0.859567E+01   0.000000E+00
    -192  -0.288000E+02   0.000000E+00  -0.855113E+01   0.000000E+00
    -191  -0.286500E+02   0.000000E+00  -0.850660E+01   0.000000E+00
    -190  -0.285000E+02   0.000000E+00  -0.846206E+01   0.000000E+00
    -189  -0.283500E+02   0.000000E+00  -0.841752E+01   0.000000E+00
    -188  -0.282000E+02   0.000000E+00  -0.837299E+01   0.000000E+00
    -187  -0.280500E+02   0.000000E+00  -0.832845E+01   0.000000E+00
    -186  -0.279000E+02   0.000000E+00  -0.828391E+01   0.000000E+00
    -185  -0.277500E+02   0.000000E+00  -0.823937E+01   0.000000E+00
    -184  -0.276000E+02   0.000000E+00  -0.819484E+01   0.000000E+00
    -183  -0.274500E+02   0.000000E+00  -0.815030E+01   0.000000E+00
    -182  -0.273000E+02   0.000000E+00  -0.810576E+01   0.000000E+00
    -181  -0.271500E+02   0.000000E+00  -0.806123E+01   0.000000E+00
    -180  -0.270000E+02   0.000000E+00  -0.801669E+01   0.000000E+00
    -179  -0.268500E+02   0.000000E+00  -0.797215E+01   0.000000E+00
    -178  -0.267000E+02   0.000000E+00  -0.792761E+01   0.000000E+00
    -177  -0.265500E+02   0.000000E+00  -0.788308E+01   0.000000E+00
    -176  -0.264000E+02   0.000000E+00  -0.783854E+01   0.000000E+00
    -175  -0.262500E+02   0.000000E+00  -0.779400E+01   0.000000E+00
    -174  -0.261000E+02   0.000000E+00  -0.774946E+01   0.000000E+00
    -173  -0.259500E+02   0.000000E+00  -0.770493E+01   0.000000E+00
    -172  -0.258000E+02   0.000000E+00  -0.766039E+01   0.000000E+00
    -171  -0.256500E+02   0.000000E+00  -0.761585E+01   0.000000E+00
    -170  -0.255000E+02   0.000000E+00  -0.757132E+01   0.000000E+00
    -169  -0.253500E+02   0.000000E+00  -0.752678E+01   0.000000E+00
    -168  -0.252000E+02   0.000000E+00  -0.748224E+01   0.000000E+00
    -167  -0.250500E+02   0.000000E+00  -0.743770E+01   0.000000E+00
    -166  -0.249000E+02   0.000000E+00  -0.739317E+01   0.000000E+00
    -165  -0.247500E+02   0.000000E+00  -0.734863E+01   0.000000E+00
    -164  -0.246000E+02   0.000000E+00  -0.730409E+01   0.000000E+00
    -163  -0.244500E+02   0.000000E+00  -0.725956E+01   0.000000E+00
    -162  -0.243000E+02   0.000000E+00  -0.721502E+01   0.000000E+00
    -161  -0.241500E+02   0.000000E+00  -0.717048E+01   0.000000E+00
    -160  -0.240000E+02   0.000000E+00  -0.712594E+01   0.000000E+00
    -159  -0.238500E+02   0.000000E+00  -0.708141E+01   0.000000E+00
    -158  -0.237000E+02   0.000000E+00  -0.703687E+01   0.000000E+00
    -157  -0.235500E+02   0.000000E+00  -0.699233E+01   0.000000E+00
    -156  -0.234000E+02   0.000000E+00  -0.694780E+01   0.000000E+00
    -155  -0.232500E+02   0.000000E+00  -0.690326E+01   0.000000E+00
    -154  -0.231000E+02   0.000000E+00  -0.685872E+01   0.000000E+00
    -153  -0.229500E+02   0.000000E+00  -0.681418E+01   0.000000E+00
    -152  -0.228000E+02   0.000000E+00  -0.676965E+01   0.000000E+00
    -151  -0.226500E+02   0.000000E+00  -0.672511E+01   0.000000E+00
    -150  -0.225000E+02   0.000000E+00  -0.668057E+01   0.000000E+00
    -149  -0.223500E+02   0.000000E+00  -0.663604E+01   0.000000E+00
    -148  -0.222000E+02   0.000000E+00  -0.659150E+01   0.000000E+00
    -147  -0.220500E+02   0.000000E+00  -0.654696E+01   0.000000E+00
    -146  -0.219000E+02   0.000000E+00  -0.650242E+01   0.000000E+00
    -145  -0.217500E+02   0.000000E+00  -0.645789E+01   0.000000E+00
    -144  -0.216000E+02   0.000000E+00  -0.641335E+01   0.000000E+00
    -143  -0.214500E+02   0.000000E+00  -0.636881E+01   0.000000E+00
    -142  -0.213000E+02   0.000000E+00  -0.632428E+01   0.000000E+00
    -141  -0.211500E+02   0.000000E+00  -0.627974E+01   0.000000E+00
    -140  -0.210000E+02   0.000000E+00  -0.623520E+01   0.000000E+00
    -139  -0.208500E+02   0.000000E+00  -0.619066E+01   0.000000E+00
    -138  -0.207000E+02   0.000000E+00  -0.614613E+01   0.000000E+00
    -137  -0.205500E+02   0.000000E+00  -0.610159E+01   0.000000E+00
    -136  -0.204000E+02   0.000000E+00  -0.605705E+01   0.000000E+00
    -135  -0.202500E+02   0.000000E+00  -0.601252E+01   0.000000E+00
    -134  -0.201000E+02   0.000000E+00  -0.596798E+01   0.000000E+00
    -133  -0.199500E+02   0.000000E+00  -0.592344E+01   0.000000E+00
    -132  -0.198000E+02   0.000000E+00  -0.587890E+01   0.000000E+00
    -131  -0.196500E+02   0.000000E+00  -0.583437E+01   0.000000E+00
    -130  -0.195000E+02   0.000000E+00  -0.578983E+01   0.000000E+00
    -129  -0.193500E+02   0.000000E+00  -0.574529E+01   0.000000E+00
    -128  -0.192000E+02   0.000000E+00  -0.570076E+01   0.000000E+00
    -127  -0.190500E+02   0.000000E+00  -0.565622E+01   0.000000E+00
    -126  -0.189000E+02   0.000000E+00  -0.561168E+01   0.000000E+00
    -125  -0.187500E+02   0.000000E+00  -0.556714E+01   0.000000E+00
    -124  -0.186000E+02   0.000000E+00  -0.552261E+01   0.000000E+00
    -123  -0.184500E+02   0.000000E+00  -0.547807E+01   0.000000E+00
    -122  -0.183000E+02   0.000000E+00  -0.543353E+01   0.000000E+00
    -121  -0.181500E+02   0.000000E+00  -0.538900E+01   0.000000E+00
    -120  -0.180000E+02   0.000000E+00  -0.534446E+01   0.000000E+00
    -119  -0.178500E+02   0.000000E+00  -0.529992E+01   0.000000E+00
    -118  -0.177000E+02   0.000000E+00  -0.525538E+01   0.000000E+00
    -117  -0.175500E+02   0.000000E+00  -0.521085E+01   0.000000E+00
    -116  -0.174000E+02   0.000000E+00  -0.516631E+01   0.000000E+00
    -115  -0.172500E+02   0.000000E+00  -0.512177E+01   0.000000E+00
    -114  -0.171000E+02   0.000000E+00  -0.507724E+01   0.000000E+00
    -113  -0.169500E+02   0.000000E+00  -0.503270E+01   0.000000E+00
    -112  -0.168000E+02   0.000000E+00  -0.498816E+01   0.000000E+00
    -111  -0.166500E+02   0.000000E+00  -0.494362E+01   0.000000E+00
    -110  -0.165000E+02   0.000000E+00  -0.489909E+01   0.000000E+00
    -109  -0.163500E+02   0.000000E+00  -0.485455E+01   0.000000E+00
    -108  -0.162000E+02   0.000000E+00  -0.481001E+01   0.000000E+00
    -107  -0.160500E+02   0.000000E+00  -0.476548E+01   0.000000E+00
    -106  -0.159000E+02   0.000000E+00  -0.472094E+01   0.000000E+00
    -105  -0.157500E+02   0.000000E+00  -0.467640E+01   0.000000E+00
    -104  -0.156000E+02   0.000000E+00  -0.463186E+01   0.000000E+00
    -103  -0.154500E+02   0.000000E+00  -0.458733E+01   0.000000E+00
    -102  -0.153000E+02   0.000000E+00  -0.454279E+01   0.000000E+00
    -101  -0.151500E+02   0.000000E+00  -0.449825E+01   0.000000E+00
    -100  -0.150000E+02   0.000000E+00  -0.445372E+01   0.000000E+00
     -99  -0.148500E+02   0.000000E+00  -0.440918E+01   0.000000E+00
     -98  -0.147000E+02   0.000000E+00  -0.436464E+01   0.000000E+00
     -97  -0.145500E+02   0.000000E+00  -0.432010E+01   0.000000E+00
     -96  -0.144000E+02   0.000000E+00  -0.427557E+01   0.000000E+00
     -95  -0.142500E+02   0.000000E+00  -0.423103E+01   0.000000E+00
     -94  -0.141000E+02   0.000000E+00  -0.418649E+01   0.000000E+00
     -93  -0.139500E+02   0.000000E+00  -0.414196E+01   0.000000E+00
     -92  -0.138000E+02   0.000000E+00  -0.409742E+01   0.000000E+00
     -91  -0.136500E+02   0.000000E+00  -0.405288E+01   0.000000E+00
     -90  -0.135000E+02   0.000000E+00  -0.400834E+01   0.000000E+00
     -89  -0.133500E+02   0.000000E+00  -0.396381E+01   0.000000E+00
     -88  -0.132000E+02   0.000000E+00  -0.391927E+01   0.000000E+00
     -87  -0.130500E+02   0.000000E+00  -0.387473E+01   0.000000E+00
     -86  -0.129000E+02   0.000000E+00  -0.383020E+01   0.000000E+00
     -85  -0.127500E+02   0.000000E+00  -0.378566E+01   0.000000E+00
     -84  -0.126000E+02   0.000000E+00  -0.374112E+01   0.000000E+00
     -83  -0.124500E+02   0.000000E+00  -0.369658E+01   0.000000E+00
     -82  -0.123000E+02   0.000000E+00  -0.365205E+01   0.000000E+00
     -81  -0.121500E+02   0.000000E+00  -0.360751E+01   0.000000E+00
     -80  -0.120000E+02   0.000000E+00  -0.356297E+01   0.000000E+00
     -79  -0.118500E+02   0.000000E+00  -0.351844E+01   0.000000E+00
     -78  -0.117000E+02   0.000000E+00  -0.347390E+01   0.000000E+00
     -77  -0.115500E+02   0.000000E+00  -0.342936E+01   0.000000E+00
     -76  -0.114000E+02   0.000000E+00  -0.338482E+01   0.000000E+00
     -75  -0.112500E+02   0.000000E+00  -0.334029E+01   0.000000E+00
     -74  -0.111000E+02   0.000000E+00  -0.329575E+01   0.000000E+00
     -73  -0.109500E+02   0.000000E+00  -0.325121E+01   0.000000E+00
     -72  -0.108000E+02   0.000000E+00  -0.320668E+01   0.000000E+00
     -71  -0.106500E+02   0.000000E+00  -0.316214E+01   0.000000E+00
     -70  -0.105000E+02   0.000000E+00  -0.311760E+01   0.000000E+00
     -69  -0.103500E+02   0.000000E+00  -0.307306E+01   0.000000E+00
     -68  -0.102000E+02   0.000000E+00  -0.302853E+01   0.000000E+00
     -67  -0.100500E+02   0.000000E+00  -0.298399E+01   0.000000E+00
     -66  -0.990000E+01   0.000000E+00  -0.293945E+01   0.000000E+00
     -65  -0.975000E+01   0.000000E+00  -0.289492E+01   0.000000E+00
     -64  -0.960000E+01   0.000000E+00  -0.285038E+01   0.000000E+00
     -63  -0.945000E+01   0.000000E+00  -0.280584E+01   0.000000E+00
     -62  -0.930000E+01   0.000000E+00  -0.276130E+01   0.000000E+00
     -61  -0.915000E+01   0.000000E+00  -0.271677E+01   0.000000E+00
     -60  -0.900000E+01   0.000000E+00  -0.267223E+01   0.000000E+00
     -59  -0.885000E+01   0.000000E+00  -0.262769E+01   0.000000E+00
     -58  -0.870000E+01   0.000000E+00  -0.258315E+01   0.000000E+00
     -57  -0.855000E+01   0.000000E+00  -0.253862E+01   0.000000E+00
     -56  -0.840000E+01   0.000000E+00  -0.249408E+01   0.000000E+00
     -55  -0.825000E+01   0.000000E+00  -0.244954E+01   0.000000E+00
     -54  -0.810000E+01   0.000000E+00  -0.240501E+01   0.000000E+00
     -53  -0.795000E+01   0.000000E+00  -0.236047E+01   0.000000E+00
     -52  -0.780000E+01   0.000000E+00  -0.231593E+01   0.000000E+00
     -51  -0.765000E+01   0.000000E+00  -0.227139E+01   0.000000E+00
     -50  -0.750000E+01   0.000000E+00  -0.222686E+01   0.000000E+00
     -49  -0.735000E+01   0.000000E+00  -0.218232E+01   0.000000E+00
     -48  -0.720000E+01   0.000000E+00  -0.213778E+01   0.000000E+00
     -47  -0.705000E+01   0.000000E+00  -0.209325E+01   0.000000E+00
     -46  -0.690000E+01   0.000000E+00  -0.204871E+01   0.000000E+00
     -45  -0.675000E+01   0.000000E+00  -0.200417E+01   0.000000E+00
     -44  -0.660000E+01   0.000000E+00  -0.195963E+01   0.000000E+00
     -43  -0.645000E+01   0.000000E+00  -0.191510E+01   0.000000E+00
     -42  -0.630000E+01   0.000000E+00  -0.187056E+01   0.000000E+00
     -41  -0.615000E+01   0.000000E+00  -0.182602E+01   0.000000E+00
     -40  -0.600000E+01   0.000000E+00  -0.178149E+01   0.000000E+00
     -39  -0.585000E+01   0.000000E+00  -0.173695E+01   0.000000E+00
     -38  -0.570000E+01   0.000000E+00  -0.169241E+01   0.000000E+00
     -37  -0.555000E+01   0.000000E+00  -0.164787E+01   0.000000E+00
     -36  -0.540000E+01   0.000000E+00  -0.160334E+01   0.000000E+00
     -35  -0.525000E+01   0.000000E+00  -0.155880E+01   0.000000E+00
     -34  -0.510000E+01   0.000000E+00  -0.151426E+01   0.000000E+00
     -33  -0.495000E+01   0.000000E+00  -0.146973E+01   0.000000E+00
     -32  -0.480000E+01   0.000000E+00  -0.142519E+01   0.000000E+00
     -31  -0.465000E+01   0.000000E+00  -0.138065E+01   0.000000E+00
     -30  -0.450000E+01   0.000000E+00  -0.133611E+01   0.000000E+00
     -29  -0.435000E+01   0.000000E+00  -0.129158E+01   0.000000E+00
     -28  -0.420000E+01   0.000000E+00  -0.124704E+01   0.000000E+00
     -27  -0.405000E+01   0.000000E+00  -0.120250E+01   0.000000E+00
     -26  -0.390000E+01   0.000000E+00  -0.115797E+01   0.000000E+00
     -25  -0.375000E+01   0.000000E+00  -0.111343E+01   0.000000E+00
     -24  -0.360000E+01   0.000000E+00  -0.106889E+01   0.000000E+00
     -23  -0.345000E+01   0.000000E+00  -0.102435E+01   0.000000E+00
     -22  -0.330000E+01   0.000000E+00  -0.979817E+00   0.000000E+00
     -21  -0.315000E+01   0.000000E+00  -0.935280E+00   0.000000E+00
     -20  -0.300000E+01   0.000000E+00  -0.890743E+00   0.000000E+00
     -19  -0.285000E+01   0.000000E+00  -0.846206E+00   0.000000E+00
     -18  -0.270000E+01   0.000000E+00  -0.801669E+00   0.000000E+00
     -17  -0.255000E+01   0.000000E+00  -0.757132E+00   0.000000E+00
     -16  -0.240000E+01   0.000000E+00  -0.712594E+00   0.000000E+00
     -15  -0.225000E+01   0.000000E+00  -0.668057E+00   0.000000E+00
     -14  -0.210000E+01   0.000000E+00  -0.623520E+00   0.000000E+00
     -13  -0.195000E+01   0.000000E+00  -0.578983E+00   0.000000E+00
     -12  -0.180000E+01   0.000000E+00  -0.534446E+00   0.000000E+00
     -11  -0.165000E+01   0.000000E+00  -0.489909E+00   0.000000E+00
     -10  -0.150000E+01   0.000000E+00  -0.445372E+00   0.000000E+00
      -9  -0.135000E+01   0.000000E+00  -0.400834E+00   0.000000E+00
      -8  -0.120000E+01   0.000000E+00  -0.356297E+00   0.000000E+00
      -7  -0.105000E+01   0.000000E+00  -0.311760E+00   0.000000E+00
      -6  -0.900000E+00   0.000000E+00  -0.267223E+00   0.000000E+00
      -5  -0.750000E+00   0.701459E-04  -0.222686E+00   0.236250E-03
      -4  -0.600000E+00   0.231481E-02  -0.178149E+00   0.779624E-02
      -3  -0.450000E+00   0.271815E-01  -0.133611E+00   0.915467E-01
      -2  -0.300000E+00   0.859638E-01  -0.890743E-01   0.289524E+00
      -1  -0.150000E+00   0.151164E+00  -0.445372E-01   0.509118E+00
       0   0.000000E+00   0.197776E+00   0.000000E+00   0.666106E+00
       1   0.150000E+00   0.226536E+00   0.445372E-01   0.762968E+00
       2   0.300000E+00   0.239583E+00   0.890743E-01   0.806911E+00
       3   0.450000E+00   0.237865E+00   0.133611E+00   0.801122E+00
       4   0.600000E+00   0.240495E+00   0.178149E+00   0.809982E+00
       5   0.750000E+00   0.233866E+00   0.222686E+00   0.787656E+00
       6   0.900000E+00   0.236462E+00   0.267223E+00   0.796397E+00
       7   0.105000E+01   0.228009E+00   0.311760E+00   0.767929E+00
       8   0.120000E+01   0.225203E+00   0.356297E+00   0.758479E+00
       9   0.135000E+01   0.215629E+00   0.400834E+00   0.726231E+00
      10   0.150000E+01   0.212262E+00   0.445372E+00   0.714891E+00
      11   0.165000E+01   0.198267E+00   0.489909E+00   0.667760E+00
      12   0.180000E+01   0.193042E+00   0.534446E+00   0.650159E+00
      13   0.195000E+01   0.184870E+00   0.578983E+00   0.622636E+00
      14   0.210000E+01   0.179819E+00   0.623520E+00   0.605626E+00
      15   0.225000E+01   0.172173E+00   0.668057E+00   0.579875E+00
      16   0.240000E+01   0.165123E+00   0.712594E+00   0.556132E+00
      17   0.255000E+01   0.154321E+00   0.757132E+00   0.519749E+00
      18   0.270000E+01   0.154987E+00   0.801669E+00   0.521994E+00
      19   0.285000E+01   0.146991E+00   0.846206E+00   0.495061E+00
      20   0.300000E+01   0.137346E+00   0.890743E+00   0.462577E+00
      21   0.315000E+01   0.133453E+00   0.935280E+00   0.449465E+00
      22   0.330000E+01   0.128472E+00   0.979817E+00   0.432691E+00
      23   0.345000E+01   0.120160E+00   0.102435E+01   0.404696E+00
      24   0.360000E+01   0.113636E+00   0.106889E+01   0.382724E+00
      25   0.375000E+01   0.106902E+00   0.111343E+01   0.360044E+00
      26   0.390000E+01   0.100940E+00   0.115797E+01   0.339963E+00
      27   0.405000E+01   0.997825E-01   0.120250E+01   0.336065E+00
      28   0.420000E+01   0.949074E-01   0.124704E+01   0.319646E+00
      29   0.435000E+01   0.884891E-01   0.129158E+01   0.298029E+00
      30   0.450000E+01   0.820707E-01   0.133611E+01   0.276412E+00
      31   0.465000E+01   0.791947E-01   0.138065E+01   0.266726E+00
      32   0.480000E+01   0.753718E-01   0.142519E+01   0.253850E+00
      33   0.495000E+01   0.717593E-01   0.146973E+01   0.241683E+00
      34   0.510000E+01   0.659021E-01   0.151426E+01   0.221957E+00
      35   0.525000E+01   0.615180E-01   0.155880E+01   0.207191E+00
      36   0.540000E+01   0.596942E-01   0.160334E+01   0.201048E+00
      37   0.555000E+01   0.566779E-01   0.164787E+01   0.190890E+00
      38   0.570000E+01   0.521535E-01   0.169241E+01   0.175652E+00
      39   0.585000E+01   0.483656E-01   0.173695E+01   0.162894E+00
      40   0.600000E+01   0.457001E-01   0.178149E+01   0.153917E+00
      41   0.615000E+01   0.436308E-01   0.182602E+01   0.146947E+00
      42   0.630000E+01   0.388608E-01   0.187056E+01   0.130882E+00
      43   0.645000E+01   0.364408E-01   0.191510E+01   0.122732E+00
      44   0.660000E+01   0.333895E-01   0.195963E+01   0.112455E+00
      45   0.675000E+01   0.333544E-01   0.200417E+01   0.112337E+00
      46   0.690000E+01   0.281987E-01   0.204871E+01   0.949723E-01
      47   0.705000E+01   0.269360E-01   0.209325E+01   0.907199E-01
      48   0.720000E+01   0.241653E-01   0.213778E+01   0.813880E-01
      49   0.735000E+01   0.241653E-01   0.218232E+01   0.813880E-01
      50   0.750000E+01   0.234638E-01   0.222686E+01   0.790255E-01
      51   0.765000E+01   0.205878E-01   0.227139E+01   0.693393E-01
      52   0.780000E+01   0.182730E-01   0.231593E+01   0.615430E-01
      53   0.795000E+01   0.169753E-01   0.236047E+01   0.571724E-01
      54   0.810000E+01   0.155022E-01   0.240501E+01   0.522112E-01
      55   0.825000E+01   0.143448E-01   0.244954E+01   0.483130E-01
      56   0.840000E+01   0.138187E-01   0.249408E+01   0.465412E-01
      57   0.855000E+01   0.117494E-01   0.253862E+01   0.395718E-01
      58   0.870000E+01   0.103816E-01   0.258315E+01   0.349649E-01
      59   0.885000E+01   0.911897E-02   0.262769E+01   0.307124E-01
      60   0.900000E+01   0.901375E-02   0.267223E+01   0.303581E-01
      61   0.915000E+01   0.799663E-02   0.271677E+01   0.269325E-01
      62   0.930000E+01   0.711981E-02   0.276130E+01   0.239793E-01
      63   0.945000E+01   0.634820E-02   0.280584E+01   0.213806E-01
      64   0.960000E+01   0.613777E-02   0.285038E+01   0.206718E-01
      65   0.975000E+01   0.543631E-02   0.289492E+01   0.183093E-01
      66   0.990000E+01   0.519080E-02   0.293945E+01   0.174825E-01
      67   0.100500E+02   0.448934E-02   0.298399E+01   0.151200E-01
      68   0.102000E+02   0.364759E-02   0.302853E+01   0.122850E-01
      69   0.103500E+02   0.378788E-02   0.307306E+01   0.127575E-01
      70   0.105000E+02   0.347222E-02   0.311760E+01   0.116944E-01
      71   0.106500E+02   0.301627E-02   0.316214E+01   0.101587E-01
      72   0.108000E+02   0.312149E-02   0.320668E+01   0.105131E-01
      73   0.109500E+02   0.259540E-02   0.325121E+01   0.874124E-02
      74   0.111000E+02   0.234989E-02   0.329575E+01   0.791436E-02
      75   0.112500E+02   0.203423E-02   0.334029E+01   0.685124E-02
      76   0.114000E+02   0.263047E-02   0.338482E+01   0.885936E-02
      77   0.115500E+02   0.185887E-02   0.342936E+01   0.626061E-02
      78   0.117000E+02   0.164843E-02   0.347390E+01   0.555187E-02
      79   0.118500E+02   0.133277E-02   0.351844E+01   0.448874E-02
      80   0.120000E+02   0.911897E-03   0.356297E+01   0.307124E-02
      81   0.121500E+02   0.876824E-03   0.360751E+01   0.295312E-02
      82   0.123000E+02   0.596240E-03   0.365205E+01   0.200812E-02
      83   0.124500E+02   0.806678E-03   0.369658E+01   0.271687E-02
      84   0.126000E+02   0.631313E-03   0.374112E+01   0.212625E-02
      85   0.127500E+02   0.455948E-03   0.378566E+01   0.153562E-02
      86   0.129000E+02   0.631313E-03   0.383020E+01   0.212625E-02
      87   0.130500E+02   0.350730E-03   0.387473E+01   0.118125E-02
      88   0.132000E+02   0.350730E-03   0.391927E+01   0.118125E-02
      89   0.133500E+02   0.175365E-03   0.396381E+01   0.590624E-03
      90   0.135000E+02   0.245511E-03   0.400834E+01   0.826874E-03
      91   0.136500E+02   0.140292E-03   0.405288E+01   0.472499E-03
      92   0.138000E+02   0.140292E-03   0.409742E+01   0.472499E-03
      93   0.139500E+02   0.140292E-03   0.414196E+01   0.472499E-03
      94   0.141000E+02   0.140292E-03   0.418649E+01   0.472499E-03
      95   0.142500E+02   0.105219E-03   0.423103E+01   0.354374E-03
      96   0.144000E+02   0.701459E-04   0.427557E+01   0.236250E-03
      97   0.145500E+02   0.105219E-03   0.432010E+01   0.354374E-03
      98   0.147000E+02   0.000000E+00   0.436464E+01   0.000000E+00
      99   0.148500E+02   0.105219E-03   0.440918E+01   0.354374E-03
     100   0.150000E+02   0.175365E-03   0.445372E+01   0.590624E-03
     101   0.151500E+02   0.701459E-04   0.449825E+01   0.236250E-03
     102   0.153000E+02   0.000000E+00   0.454279E+01   0.000000E+00
     103   0.154500E+02   0.350730E-04   0.458733E+01   0.118125E-03
     104   0.156000E+02   0.701459E-04   0.463186E+01   0.236250E-03
     105   0.157500E+02   0.000000E+00   0.467640E+01   0.000000E+00
     106   0.159000E+02   0.000000E+00   0.472094E+01   0.000000E+00
     107   0.160500E+02   0.350730E-04   0.476548E+01   0.118125E-03
     108   0.162000E+02   0.350730E-04   0.481001E+01   0.118125E-03
     109   0.163500E+02   0.701459E-04   0.485455E+01   0.236250E-03
     110   0.165000E+02   0.350730E-04   0.489909E+01   0.118125E-03
     111   0.166500E+02   0.000000E+00   0.494362E+01   0.000000E+00
     112   0.168000E+02   0.350730E-04   0.498816E+01   0.118125E-03
     113   0.169500E+02   0.350730E-04   0.503270E+01   0.118125E-03
     114   0.171000E+02   0.000000E+00   0.507724E+01   0.000000E+00
     115   0.172500E+02   0.000000E+00   0.512177E+01   0.000000E+00
     116   0.174000E+02   0.000000E+00   0.516631E+01   0.000000E+00
     117   0.175500E+02   0.350730E-04   0.521085E+01   0.118125E-03
     118   0.177000E+02   0.000000E+00   0.525538E+01   0.000000E+00
     119   0.178500E+02   0.000000E+00   0.529992E+01   0.000000E+00
     120   0.180000E+02   0.000000E+00   0.534446E+01   0.000000E+00
     121   0.181500E+02   0.000000E+00   0.538900E+01   0.000000E+00
     122   0.183000E+02   0.000000E+00   0.543353E+01   0.000000E+00
     123   0.184500E+02   0.000000E+00   0.547807E+01   0.000000E+00
     124   0.186000E+02   0.000000E+00   0.552261E+01   0.000000E+00
     125   0.187500E+02   0.000000E+00   0.556714E+01   0.000000E+00
     126   0.189000E+02   0.000000E+00   0.561168E+01   0.000000E+00
     127   0.190500E+02   0.000000E+00   0.565622E+01   0.000000E+00
     128   0.192000E+02   0.000000E+00   0.570076E+01   0.000000E+00
     129   0.193500E+02   0.000000E+00   0.574529E+01   0.000000E+00
     130   0.195000E+02   0.000000E+00   0.578983E+01   0.000000E+00
     131   0.196500E+02   0.000000E+00   0.583437E+01   0.000000E+00
     132   0.198000E+02   0.000000E+00   0.587890E+01   0.000000E+00
     133   0.199500E+02   0.000000E+00   0.592344E+01   0.000000E+00
     134   0.201000E+02   0.000000E+00   0.596798E+01   0.000000E+00
     135   0.202500E+02   0.000000E+00   0.601252E+01   0.000000E+00
     136   0.204000E+02   0.000000E+00   0.605705E+01   0.000000E+00
     137   0.205500E+02   0.000000E+00   0.610159E+01   0.000000E+00
     138   0.207000E+02   0.000000E+00   0.614613E+01   0.000000E+00
     139   0.208500E+02   0.000000E+00   0.619066E+01   0.000000E+00
     140   0.210000E+02   0.000000E+00   0.623520E+01   0.000000E+00
     141   0.211500E+02   0.000000E+00   0.627974E+01   0.000000E+00
     142   0.213000E+02   0.000000E+00   0.632428E+01   0.000000E+00
     143   0.214500E+02   0.000000E+00   0.636881E+01   0.000000E+00
     144   0.216000E+02   0.000000E+00   0.641335E+01   0.000000E+00
     145   0.217500E+02   0.000000E+00   0.645789E+01   0.000000E+00
     146   0.219000E+02   0.000000E+00   0.650242E+01   0.000000E+00
     147   0.220500E+02   0.000000E+00   0.654696E+01   0.000000E+00
     148   0.222000E+02   0.000000E+00   0.659150E+01   0.000000E+00
     149   0.223500E+02   0.000000E+00   0.663604E+01   0.000000E+00
     150   0.225000E+02   0.000000E+00   0.668057E+01   0.000000E+00
     151   0.226500E+02   0.000000E+00   0.672511E+01   0.000000E+00
     152   0.228000E+02   0.000000E+00   0.676965E+01   0.000000E+00
     153   0.229500E+02   0.000000E+00   0.681418E+01   0.000000E+00
     154   0.231000E+02   0.000000E+00   0.685872E+01   0.000000E+00
     155   0.232500E+02   0.000000E+00   0.690326E+01   0.000000E+00
     156   0.234000E+02   0.000000E+00   0.694780E+01   0.000000E+00
     157   0.235500E+02   0.000000E+00   0.699233E+01   0.000000E+00
     158   0.237000E+02   0.000000E+00   0.703687E+01   0.000000E+00
     159   0.238500E+02   0.000000E+00   0.708141E+01   0.000000E+00
     160   0.240000E+02   0.000000E+00   0.712594E+01   0.000000E+00
     161   0.241500E+02   0.000000E+00   0.717048E+01   0.000000E+00
     162   0.243000E+02   0.000000E+00   0.721502E+01   0.000000E+00
     163   0.244500E+02   0.000000E+00   0.725956E+01   0.000000E+00
     164   0.246000E+02   0.000000E+00   0.730409E+01   0.000000E+00
     165   0.247500E+02   0.000000E+00   0.734863E+01   0.000000E+00
     166   0.249000E+02   0.000000E+00   0.739317E+01   0.000000E+00
     167   0.250500E+02   0.000000E+00   0.743770E+01   0.000000E+00
     168   0.252000E+02   0.000000E+00   0.748224E+01   0.000000E+00
     169   0.253500E+02   0.000000E+00   0.752678E+01   0.000000E+00
     170   0.255000E+02   0.000000E+00   0.757132E+01   0.000000E+00
     171   0.256500E+02   0.000000E+00   0.761585E+01   0.000000E+00
     172   0.258000E+02   0.000000E+00   0.766039E+01   0.000000E+00
     173   0.259500E+02   0.000000E+00   0.770493E+01   0.000000E+00
     174   0.261000E+02   0.000000E+00   0.774946E+01   0.000000E+00
     175   0.262500E+02   0.000000E+00   0.779400E+01   0.000000E+00
     176   0.264000E+02   0.000000E+00   0.783854E+01   0.000000E+00
     177   0.265500E+02   0.000000E+00   0.788308E+01   0.000000E+00
     178   0.267000E+02   0.000000E+00   0.792761E+01   0.000000E+00
     179   0.268500E+02   0.000000E+00   0.797215E+01   0.000000E+00
     180   0.270000E+02   0.000000E+00   0.801669E+01   0.000000E+00
     181   0.271500E+02   0.000000E+00   0.806123E+01   0.000000E+00
     182   0.273000E+02   0.000000E+00   0.810576E+01   0.000000E+00
     183   0.274500E+02   0.000000E+00   0.815030E+01   0.000000E+00
     184   0.276000E+02   0.000000E+00   0.819484E+01   0.000000E+00
     185   0.277500E+02   0.000000E+00   0.823937E+01   0.000000E+00
     186   0.279000E+02   0.000000E+00   0.828391E+01   0.000000E+00
     187   0.280500E+02   0.000000E+00   0.832845E+01   0.000000E+00
     188   0.282000E+02   0.000000E+00   0.837299E+01   0.000000E+00
     189   0.283500E+02   0.000000E+00   0.841752E+01   0.000000E+00
     190   0.285000E+02   0.000000E+00   0.846206E+01   0.000000E+00
     191   0.286500E+02   0.000000E+00   0.850660E+01   0.000000E+00
     192   0.288000E+02   0.000000E+00   0.855113E+01   0.000000E+00
     193   0.289500E+02   0.000000E+00   0.859567E+01   0.000000E+00
     194   0.291000E+02   0.000000E+00   0.864021E+01   0.000000E+00
     195   0.292500E+02   0.000000E+00   0.868475E+01   0.000000E+00
     196   0.294000E+02   0.000000E+00   0.872928E+01   0.000000E+00
     197   0.295500E+02   0.000000E+00   0.877382E+01   0.000000E+00
     198   0.297000E+02   0.000000E+00   0.881836E+01   0.000000E+00
     199   0.298500E+02   0.000000E+00   0.886289E+01   0.000000E+00
     200   0.300000E+02   0.000000E+00   0.890743E+01   0.000000E+00
