forrtl: error (78): process killed (SIGTERM)
Image              PC                Routine            Line        Source             
fle17.out          000000000052F7A5  Unknown               Unknown  Unknown
fle17.out          000000000052D567  Unknown               Unknown  Unknown
fle17.out          00000000004E31E4  Unknown               Unknown  Unknown
fle17.out          00000000004E2FF6  Unknown               Unknown  Unknown
fle17.out          00000000004AF5D6  Unknown               Unknown  Unknown
fle17.out          00000000004B2BBE  Unknown               Unknown  Unknown
libpthread.so.0    00007F174B4AD100  Unknown               Unknown  Unknown
libpthread.so.0    00007F174B4AC96D  Unknown               Unknown  Unknown
libopen-rte.so.12  00007F174AA5C0BF  Unknown               Unknown  Unknown
libopen-rte.so.12  00007F174AA5D51A  Unknown               Unknown  Unknown
libopen-rte.so.12  00007F174AA031B8  Unknown               Unknown  Unknown
libopen-rte.so.12  00007F174AA05E58  Unknown               Unknown  Unknown
libopen-rte.so.12  00007F174A9CA664  Unknown               Unknown  Unknown
libmpi.so.12       00007F174BA37352  Unknown               Unknown  Unknown
libmpi.so.12       00007F174BA594C4  Unknown               Unknown  Unknown
libmpi_mpifh.so.1  00007F174BF7FD67  Unknown               Unknown  Unknown
fle17.out          0000000000492CBB  MAIN__                    180  mpi_genlang17.f90
fle17.out          0000000000408D1E  Unknown               Unknown  Unknown
libc.so.6          00007F174AEF9B15  Unknown               Unknown  Unknown
fle17.out          0000000000408C29  Unknown               Unknown  Unknown
forrtl: error (78): process killed (SIGTERM)
Image              PC                Routine            Line        Source             
fle17.out          000000000052F7A5  Unknown               Unknown  Unknown
fle17.out          000000000052D567  Unknown               Unknown  Unknown
fle17.out          00000000004E31E4  Unknown               Unknown  Unknown
fle17.out          00000000004E2FF6  Unknown               Unknown  Unknown
fle17.out          00000000004AF5D6  Unknown               Unknown  Unknown
fle17.out          00000000004B2BBE  Unknown               Unknown  Unknown
libpthread.so.0    00007F4097D06100  Unknown               Unknown  Unknown
libc.so.6          00007F409780CB77  Unknown               Unknown  Unknown
libmpi.so.12       00007F409829075D  Unknown               Unknown  Unknown
libmpi.so.12       00007F40982B24C4  Unknown               Unknown  Unknown
libmpi_mpifh.so.1  00007F40987D8D67  Unknown               Unknown  Unknown
fle17.out          0000000000492CBB  MAIN__                    180  mpi_genlang17.f90
fle17.out          0000000000408D1E  Unknown               Unknown  Unknown
libc.so.6          00007F4097752B15  Unknown               Unknown  Unknown
fle17.out          0000000000408C29  Unknown               Unknown  Unknown
forrtl: error (78): process killed (SIGTERM)
Image              PC                Routine            Line        Source             
fle17.out          000000000052F7A5  Unknown               Unknown  Unknown
fle17.out          000000000052D567  Unknown               Unknown  Unknown
fle17.out          00000000004E31E4  Unknown               Unknown  Unknown
fle17.out          00000000004E2FF6  Unknown               Unknown  Unknown
fle17.out          00000000004AF5D6  Unknown               Unknown  Unknown
fle17.out          00000000004B2BBE  Unknown               Unknown  Unknown
libpthread.so.0    00007FC172EEB100  Unknown               Unknown  Unknown
libc.so.6          00007FC1729F1B77  Unknown               Unknown  Unknown
libmpi.so.12       00007FC17347575D  Unknown               Unknown  Unknown
libmpi.so.12       00007FC1734974C4  Unknown               Unknown  Unknown
libmpi_mpifh.so.1  00007FC1739BDD67  Unknown               Unknown  Unknown
fle17.out          0000000000492CBB  MAIN__                    180  mpi_genlang17.f90
fle17.out          0000000000408D1E  Unknown               Unknown  Unknown
libc.so.6          00007FC172937B15  Unknown               Unknown  Unknown
fle17.out          0000000000408C29  Unknown               Unknown  Unknown
forrtl: error (78): process killed (SIGTERM)
Image              PC                Routine            Line        Source             
fle17.out          000000000052F7A5  Unknown               Unknown  Unknown
fle17.out          000000000052D567  Unknown               Unknown  Unknown
fle17.out          00000000004E31E4  Unknown               Unknown  Unknown
fle17.out          00000000004E2FF6  Unknown               Unknown  Unknown
fle17.out          00000000004AF5D6  Unknown               Unknown  Unknown
fle17.out          00000000004B2BBE  Unknown               Unknown  Unknown
libpthread.so.0    00007FD33FD35100  Unknown               Unknown  Unknown
libpthread.so.0    00007FD33FD3496D  Unknown               Unknown  Unknown
libopen-rte.so.12  00007FD33F2E40BF  Unknown               Unknown  Unknown
libopen-rte.so.12  00007FD33F2E551A  Unknown               Unknown  Unknown
libopen-rte.so.12  00007FD33F28B1B8  Unknown               Unknown  Unknown
libopen-rte.so.12  00007FD33F28DE58  Unknown               Unknown  Unknown
libopen-rte.so.12  00007FD33F252664  Unknown               Unknown  Unknown
libmpi.so.12       00007FD3402BF352  Unknown               Unknown  Unknown
libmpi.so.12       00007FD3402E14C4  Unknown               Unknown  Unknown
libmpi_mpifh.so.1  00007FD340807D67  Unknown               Unknown  Unknown
fle17.out          0000000000492CBB  MAIN__                    180  mpi_genlang17.f90
fle17.out          0000000000408D1E  Unknown               Unknown  Unknown
libc.so.6          00007FD33F781B15  Unknown               Unknown  Unknown
fle17.out          0000000000408C29  Unknown               Unknown  Unknown
forrtl: error (78): process killed (SIGTERM)
Image              PC                Routine            Line        Source             
fle17.out          000000000052F7A5  Unknown               Unknown  Unknown
fle17.out          000000000052D567  Unknown               Unknown  Unknown
fle17.out          00000000004E31E4  Unknown               Unknown  Unknown
fle17.out          00000000004E2FF6  Unknown               Unknown  Unknown
fle17.out          00000000004AF5D6  Unknown               Unknown  Unknown
fle17.out          00000000004B2BBE  Unknown               Unknown  Unknown
libpthread.so.0    00007F4FD6261100  Unknown               Unknown  Unknown
libc.so.6          00007F4FD5D67B77  Unknown               Unknown  Unknown
libmpi.so.12       00007F4FD67EB75D  Unknown               Unknown  Unknown
libmpi.so.12       00007F4FD680D4C4  Unknown               Unknown  Unknown
libmpi_mpifh.so.1  00007F4FD6D33D67  Unknown               Unknown  Unknown
fle17.out          0000000000492CBB  MAIN__                    180  mpi_genlang17.f90
fle17.out          0000000000408D1E  Unknown               Unknown  Unknown
libc.so.6          00007F4FD5CADB15  Unknown               Unknown  Unknown
fle17.out          0000000000408C29  Unknown               Unknown  Unknown
forrtl: error (78): process killed (SIGTERM)
Image              PC                Routine            Line        Source             
fle17.out          000000000052F7A5  Unknown               Unknown  Unknown
fle17.out          000000000052D567  Unknown               Unknown  Unknown
fle17.out          00000000004E31E4  Unknown               Unknown  Unknown
fle17.out          00000000004E2FF6  Unknown               Unknown  Unknown
fle17.out          00000000004AF5D6  Unknown               Unknown  Unknown
fle17.out          00000000004B2BBE  Unknown               Unknown  Unknown
libpthread.so.0    00007FF0758A0100  Unknown               Unknown  Unknown
libc.so.6          00007FF0753B769D  Unknown               Unknown  Unknown
libopen-pal.so.13  00007FF073585DEA  Unknown               Unknown  Unknown
libopen-pal.so.13  00007FF07357ACFF  Unknown               Unknown  Unknown
libopen-pal.so.13  00007FF07353817D  Unknown               Unknown  Unknown
libmpi.so.12       00007FF075E2A75D  Unknown               Unknown  Unknown
libmpi.so.12       00007FF075E4C4C4  Unknown               Unknown  Unknown
libmpi_mpifh.so.1  00007FF076372D67  Unknown               Unknown  Unknown
fle17.out          0000000000492CBB  MAIN__                    180  mpi_genlang17.f90
fle17.out          0000000000408D1E  Unknown               Unknown  Unknown
libc.so.6          00007FF0752ECB15  Unknown               Unknown  Unknown
fle17.out          0000000000408C29  Unknown               Unknown  Unknown
