﻿ibin_i0,x=(MAXX*ibin)/NBIN_i0,P(x)_i0,x/sigma_i0,P*sigma_i0
-2.000000E+02,-2.000000E+01,3.646070E-06,-4.157740E+00,1.753870E-05
-1.990000E+02,-1.990000E+01,4.759730E-06,-4.136950E+00,2.289570E-05
-1.980000E+02,-1.980000E+01,5.385200E-06,-4.116160E+00,2.590450E-05
-1.970000E+02,-1.970000E+01,6.941270E-06,-4.095370E+00,3.338960E-05
-1.960000E+02,-1.960000E+01,7.505720E-06,-4.074580E+00,3.610480E-05
-1.950000E+02,-1.950000E+01,9.138060E-06,-4.053800E+00,4.395690E-05
-1.940000E+02,-1.940000E+01,9.961860E-06,-4.033010E+00,4.791960E-05
-1.930000E+02,-1.930000E+01,1.258580E-05,-4.012220E+00,6.054160E-05
-1.920000E+02,-1.920000E+01,1.260110E-05,-3.991430E+00,6.061500E-05
-1.910000E+02,-1.910000E+01,1.354690E-05,-3.970640E+00,6.516480E-05
-1.900000E+02,-1.900000E+01,1.726930E-05,-3.949850E+00,8.307040E-05
-1.890000E+02,-1.890000E+01,1.945080E-05,-3.929060E+00,9.356430E-05
-1.880000E+02,-1.880000E+01,2.088480E-05,-3.908270E+00,1.004620E-04
-1.870000E+02,-1.870000E+01,2.392070E-05,-3.887490E+00,1.150660E-04
-1.860000E+02,-1.860000E+01,2.312740E-05,-3.866700E+00,1.112500E-04
-1.850000E+02,-1.850000E+01,2.771930E-05,-3.845910E+00,1.333380E-04
-1.840000E+02,-1.840000E+01,3.156370E-05,-3.825120E+00,1.518310E-04
-1.830000E+02,-1.830000E+01,3.182300E-05,-3.804330E+00,1.530790E-04
-1.820000E+02,-1.820000E+01,3.553010E-05,-3.783540E+00,1.709110E-04
-1.810000E+02,-1.810000E+01,4.096110E-05,-3.762750E+00,1.970350E-04
-1.800000E+02,-1.800000E+01,4.863460E-05,-3.741970E+00,2.339470E-04
-1.790000E+02,-1.790000E+01,4.715480E-05,-3.721180E+00,2.268290E-04
-1.780000E+02,-1.780000E+01,5.652170E-05,-3.700390E+00,2.718870E-04
-1.770000E+02,-1.770000E+01,6.032040E-05,-3.679600E+00,2.901590E-04
-1.760000E+02,-1.760000E+01,6.627000E-05,-3.658810E+00,3.187790E-04
-1.750000E+02,-1.750000E+01,7.296720E-05,-3.638020E+00,3.509950E-04
-1.740000E+02,-1.740000E+01,8.237990E-05,-3.617230E+00,3.962720E-04
-1.730000E+02,-1.730000E+01,8.811590E-05,-3.596440E+00,4.238650E-04
-1.720000E+02,-1.720000E+01,9.496570E-05,-3.575660E+00,4.568140E-04
-1.710000E+02,-1.710000E+01,1.014490E-04,-3.554870E+00,4.880020E-04
-1.700000E+02,-1.700000E+01,1.154390E-04,-3.534080E+00,5.552950E-04
-1.690000E+02,-1.690000E+01,1.118540E-04,-3.513290E+00,5.380500E-04
-1.680000E+02,-1.680000E+01,1.250950E-04,-3.492500E+00,6.017470E-04
-1.670000E+02,-1.670000E+01,1.314110E-04,-3.471710E+00,6.321280E-04
-1.660000E+02,-1.660000E+01,1.468040E-04,-3.450920E+00,7.061720E-04
-1.650000E+02,-1.650000E+01,1.653850E-04,-3.430130E+00,7.955540E-04
-1.640000E+02,-1.640000E+01,1.830360E-04,-3.409350E+00,8.804590E-04
-1.630000E+02,-1.630000E+01,1.958350E-04,-3.388560E+00,9.420280E-04
-1.620000E+02,-1.620000E+01,2.128150E-04,-3.367770E+00,1.023700E-03
-1.610000E+02,-1.610000E+01,2.276430E-04,-3.346980E+00,1.095030E-03
-1.600000E+02,-1.600000E+01,2.535470E-04,-3.326190E+00,1.219640E-03
-1.590000E+02,-1.590000E+01,2.556670E-04,-3.305400E+00,1.229840E-03
-1.580000E+02,-1.580000E+01,2.698090E-04,-3.284610E+00,1.297870E-03
-1.570000E+02,-1.570000E+01,3.161250E-04,-3.263830E+00,1.520660E-03
-1.560000E+02,-1.560000E+01,3.211440E-04,-3.243040E+00,1.544800E-03
-1.550000E+02,-1.550000E+01,3.466820E-04,-3.222250E+00,1.667650E-03
-1.540000E+02,-1.540000E+01,3.709380E-04,-3.201460E+00,1.784330E-03
-1.530000E+02,-1.530000E+01,3.988860E-04,-3.180670E+00,1.918770E-03
-1.520000E+02,-1.520000E+01,4.369340E-04,-3.159880E+00,2.101780E-03
-1.510000E+02,-1.510000E+01,4.783830E-04,-3.139090E+00,2.301170E-03
-1.500000E+02,-1.500000E+01,5.328600E-04,-3.118300E+00,2.563220E-03
-1.490000E+02,-1.490000E+01,5.568120E-04,-3.097520E+00,2.678430E-03
-1.480000E+02,-1.480000E+01,5.994810E-04,-3.076730E+00,2.883690E-03
-1.470000E+02,-1.470000E+01,6.359270E-04,-3.055940E+00,3.059000E-03
-1.460000E+02,-1.460000E+01,6.776050E-04,-3.035150E+00,3.259490E-03
-1.450000E+02,-1.450000E+01,7.399540E-04,-3.014360E+00,3.559410E-03
-1.440000E+02,-1.440000E+01,8.009920E-04,-2.993570E+00,3.853020E-03
-1.430000E+02,-1.430000E+01,8.709990E-04,-2.972780E+00,4.189770E-03
-1.420000E+02,-1.420000E+01,8.984130E-04,-2.951990E+00,4.321640E-03
-1.410000E+02,-1.410000E+01,9.468340E-04,-2.931210E+00,4.554560E-03
-1.400000E+02,-1.400000E+01,1.020140E-03,-2.910420E+00,4.907170E-03
-1.390000E+02,-1.390000E+01,1.071930E-03,-2.889630E+00,5.156310E-03
-1.380000E+02,-1.380000E+01,1.148190E-03,-2.868840E+00,5.523160E-03
-1.370000E+02,-1.370000E+01,1.251330E-03,-2.848050E+00,6.019300E-03
-1.360000E+02,-1.360000E+01,1.341020E-03,-2.827260E+00,6.450730E-03
-1.350000E+02,-1.350000E+01,1.437620E-03,-2.806470E+00,6.915390E-03
-1.340000E+02,-1.340000E+01,1.515930E-03,-2.785690E+00,7.292070E-03
-1.330000E+02,-1.330000E+01,1.612940E-03,-2.764900E+00,7.758720E-03
-1.320000E+02,-1.320000E+01,1.672490E-03,-2.744110E+00,8.045210E-03
-1.310000E+02,-1.310000E+01,1.742910E-03,-2.723320E+00,8.383950E-03
-1.300000E+02,-1.300000E+01,1.825140E-03,-2.702530E+00,8.779490E-03
-1.290000E+02,-1.290000E+01,1.994020E-03,-2.681740E+00,9.591850E-03
-1.280000E+02,-1.280000E+01,2.090920E-03,-2.660950E+00,1.005800E-02
-1.270000E+02,-1.270000E+01,2.182030E-03,-2.640160E+00,1.049620E-02
-1.260000E+02,-1.260000E+01,2.301690E-03,-2.619380E+00,1.107190E-02
-1.250000E+02,-1.250000E+01,2.454110E-03,-2.598590E+00,1.180500E-02
-1.240000E+02,-1.240000E+01,2.551660E-03,-2.577800E+00,1.227420E-02
-1.230000E+02,-1.230000E+01,2.671900E-03,-2.557010E+00,1.285270E-02
-1.220000E+02,-1.220000E+01,2.886910E-03,-2.536220E+00,1.388690E-02
-1.210000E+02,-1.210000E+01,3.062350E-03,-2.515430E+00,1.473080E-02
-1.200000E+02,-1.200000E+01,3.167400E-03,-2.494640E+00,1.523620E-02
-1.190000E+02,-1.190000E+01,3.337930E-03,-2.473850E+00,1.605640E-02
-1.180000E+02,-1.180000E+01,3.578060E-03,-2.453070E+00,1.721160E-02
-1.170000E+02,-1.170000E+01,3.736340E-03,-2.432280E+00,1.797290E-02
-1.160000E+02,-1.160000E+01,3.907700E-03,-2.411490E+00,1.879730E-02
-1.150000E+02,-1.150000E+01,4.156450E-03,-2.390700E+00,1.999380E-02
-1.140000E+02,-1.140000E+01,4.386940E-03,-2.369910E+00,2.110250E-02
-1.130000E+02,-1.130000E+01,4.585220E-03,-2.349120E+00,2.205630E-02
-1.120000E+02,-1.120000E+01,4.851780E-03,-2.328330E+00,2.333850E-02
-1.110000E+02,-1.110000E+01,5.064930E-03,-2.307550E+00,2.436390E-02
-1.100000E+02,-1.100000E+01,5.384610E-03,-2.286760E+00,2.590160E-02
-1.090000E+02,-1.090000E+01,5.583260E-03,-2.265970E+00,2.685720E-02
-1.080000E+02,-1.080000E+01,5.904090E-03,-2.245180E+00,2.840050E-02
-1.070000E+02,-1.070000E+01,6.128650E-03,-2.224390E+00,2.948070E-02
-1.060000E+02,-1.060000E+01,6.412230E-03,-2.203600E+00,3.084480E-02
-1.050000E+02,-1.050000E+01,6.725130E-03,-2.182810E+00,3.234990E-02
-1.040000E+02,-1.040000E+01,7.127490E-03,-2.162020E+00,3.428540E-02
-1.030000E+02,-1.030000E+01,7.489870E-03,-2.141240E+00,3.602860E-02
-1.020000E+02,-1.020000E+01,7.841770E-03,-2.120450E+00,3.772130E-02
-1.010000E+02,-1.010000E+01,8.238890E-03,-2.099660E+00,3.963160E-02
-1.000000E+02,-1.000000E+01,8.588220E-03,-2.078870E+00,4.131200E-02
-9.900000E+01,-9.900000E+00,8.959370E-03,-2.058080E+00,4.309730E-02
-9.800000E+01,-9.800000E+00,9.237640E-03,-2.037290E+00,4.443590E-02
-9.700000E+01,-9.700000E+00,9.761360E-03,-2.016500E+00,4.695510E-02
-9.600000E+01,-9.600000E+00,1.021250E-02,-1.995710E+00,4.912540E-02
-9.500000E+01,-9.500000E+00,1.066680E-02,-1.974930E+00,5.131040E-02
-9.400000E+01,-9.400000E+00,1.114950E-02,-1.954140E+00,5.363230E-02
-9.300000E+01,-9.300000E+00,1.168400E-02,-1.933350E+00,5.620340E-02
-9.200000E+01,-9.200000E+00,1.226560E-02,-1.912560E+00,5.900130E-02
-9.100000E+01,-9.100000E+00,1.274440E-02,-1.891770E+00,6.130440E-02
-9.000000E+01,-9.000000E+00,1.325340E-02,-1.870980E+00,6.375280E-02
-8.900000E+01,-8.900000E+00,1.385710E-02,-1.850190E+00,6.665680E-02
-8.800000E+01,-8.800000E+00,1.439320E-02,-1.829410E+00,6.923580E-02
-8.700000E+01,-8.700000E+00,1.501720E-02,-1.808620E+00,7.223730E-02
-8.600000E+01,-8.600000E+00,1.568090E-02,-1.787830E+00,7.542970E-02
-8.500000E+01,-8.500000E+00,1.635980E-02,-1.767040E+00,7.869560E-02
-8.400000E+01,-8.400000E+00,1.695730E-02,-1.746250E+00,8.157000E-02
-8.300000E+01,-8.300000E+00,1.773300E-02,-1.725460E+00,8.530100E-02
-8.200000E+01,-8.200000E+00,1.839600E-02,-1.704670E+00,8.849020E-02
-8.100000E+01,-8.100000E+00,1.902060E-02,-1.683880E+00,9.149500E-02
-8.000000E+01,-8.000000E+00,1.968900E-02,-1.663100E+00,9.471010E-02
-7.900000E+01,-7.900000E+00,2.039390E-02,-1.642310E+00,9.810110E-02
-7.800000E+01,-7.800000E+00,2.119530E-02,-1.621520E+00,1.019560E-01
-7.700000E+01,-7.700000E+00,2.201150E-02,-1.600730E+00,1.058820E-01
-7.600000E+01,-7.600000E+00,2.285440E-02,-1.579940E+00,1.099370E-01
-7.500000E+01,-7.500000E+00,2.368000E-02,-1.559150E+00,1.139080E-01
-7.400000E+01,-7.400000E+00,2.435900E-02,-1.538360E+00,1.171740E-01
-7.300000E+01,-7.300000E+00,2.534510E-02,-1.517570E+00,1.219180E-01
-7.200000E+01,-7.200000E+00,2.614910E-02,-1.496790E+00,1.257850E-01
-7.100000E+01,-7.100000E+00,2.684020E-02,-1.476000E+00,1.291100E-01
-7.000000E+01,-7.000000E+00,2.770130E-02,-1.455210E+00,1.332520E-01
-6.900000E+01,-6.900000E+00,2.862590E-02,-1.434420E+00,1.376990E-01
-6.800000E+01,-6.800000E+00,2.953910E-02,-1.413630E+00,1.420920E-01
-6.700000E+01,-6.700000E+00,3.045380E-02,-1.392840E+00,1.464920E-01
-6.600000E+01,-6.600000E+00,3.124600E-02,-1.372050E+00,1.503030E-01
-6.500000E+01,-6.500000E+00,3.235650E-02,-1.351270E+00,1.556450E-01
-6.400000E+01,-6.400000E+00,3.328660E-02,-1.330480E+00,1.601190E-01
-6.300000E+01,-6.300000E+00,3.425490E-02,-1.309690E+00,1.647770E-01
-6.200000E+01,-6.200000E+00,3.524110E-02,-1.288900E+00,1.695200E-01
-6.100000E+01,-6.100000E+00,3.622500E-02,-1.268110E+00,1.742530E-01
-6.000000E+01,-6.000000E+00,3.722590E-02,-1.247320E+00,1.790680E-01
-5.900000E+01,-5.900000E+00,3.832690E-02,-1.226530E+00,1.843640E-01
-5.800000E+01,-5.800000E+00,3.956670E-02,-1.205740E+00,1.903280E-01
-5.700000E+01,-5.700000E+00,4.079570E-02,-1.184960E+00,1.962400E-01
-5.600000E+01,-5.600000E+00,4.165380E-02,-1.164170E+00,2.003670E-01
-5.500000E+01,-5.500000E+00,4.277460E-02,-1.143380E+00,2.057590E-01
-5.400000E+01,-5.400000E+00,4.369120E-02,-1.122590E+00,2.101680E-01
-5.300000E+01,-5.300000E+00,4.477800E-02,-1.101800E+00,2.153960E-01
-5.200000E+01,-5.200000E+00,4.577870E-02,-1.081010E+00,2.202100E-01
-5.100000E+01,-5.100000E+00,4.685830E-02,-1.060220E+00,2.254030E-01
-5.000000E+01,-5.000000E+00,4.801360E-02,-1.039430E+00,2.309600E-01
-4.900000E+01,-4.900000E+00,4.917290E-02,-1.018650E+00,2.365370E-01
-4.800000E+01,-4.800000E+00,5.053320E-02,-9.978570E-01,2.430800E-01
-4.700000E+01,-4.700000E+00,5.152160E-02,-9.770690E-01,2.478350E-01
-4.600000E+01,-4.600000E+00,5.251580E-02,-9.562800E-01,2.526170E-01
-4.500000E+01,-4.500000E+00,5.373490E-02,-9.354910E-01,2.584810E-01
-4.400000E+01,-4.400000E+00,5.460450E-02,-9.147030E-01,2.626640E-01
-4.300000E+01,-4.300000E+00,5.572240E-02,-8.939140E-01,2.680420E-01
-4.200000E+01,-4.200000E+00,5.685010E-02,-8.731250E-01,2.734670E-01
-4.100000E+01,-4.100000E+00,5.806580E-02,-8.523370E-01,2.793140E-01
-4.000000E+01,-4.000000E+00,5.890970E-02,-8.315480E-01,2.833740E-01
-3.900000E+01,-3.900000E+00,6.009100E-02,-8.107590E-01,2.890560E-01
-3.800000E+01,-3.800000E+00,6.117520E-02,-7.899700E-01,2.942720E-01
-3.700000E+01,-3.700000E+00,6.219900E-02,-7.691820E-01,2.991960E-01
-3.600000E+01,-3.600000E+00,6.338310E-02,-7.483930E-01,3.048920E-01
-3.500000E+01,-3.500000E+00,6.421290E-02,-7.276040E-01,3.088840E-01
-3.400000E+01,-3.400000E+00,6.511190E-02,-7.068160E-01,3.132080E-01
-3.300000E+01,-3.300000E+00,6.626850E-02,-6.860270E-01,3.187720E-01
-3.200000E+01,-3.200000E+00,6.725060E-02,-6.652380E-01,3.234960E-01
-3.100000E+01,-3.100000E+00,6.824080E-02,-6.444500E-01,3.282590E-01
-3.000000E+01,-3.000000E+00,6.914360E-02,-6.236610E-01,3.326020E-01
-2.900000E+01,-2.900000E+00,6.991890E-02,-6.028720E-01,3.363310E-01
-2.800000E+01,-2.800000E+00,7.096530E-02,-5.820830E-01,3.413650E-01
-2.700000E+01,-2.700000E+00,7.202310E-02,-5.612950E-01,3.464530E-01
-2.600000E+01,-2.600000E+00,7.287730E-02,-5.405060E-01,3.505620E-01
-2.500000E+01,-2.500000E+00,7.366160E-02,-5.197170E-01,3.543350E-01
-2.400000E+01,-2.400000E+00,7.467680E-02,-4.989290E-01,3.592180E-01
-2.300000E+01,-2.300000E+00,7.521320E-02,-4.781400E-01,3.617980E-01
-2.200000E+01,-2.200000E+00,7.624670E-02,-4.573510E-01,3.667700E-01
-2.100000E+01,-2.100000E+00,7.679870E-02,-4.365630E-01,3.694250E-01
-2.000000E+01,-2.000000E+00,7.737200E-02,-4.157740E-01,3.721830E-01
-1.900000E+01,-1.900000E+00,7.777370E-02,-3.949850E-01,3.741150E-01
-1.800000E+01,-1.800000E+00,7.891120E-02,-3.741970E-01,3.795870E-01
-1.700000E+01,-1.700000E+00,7.943440E-02,-3.534080E-01,3.821040E-01
-1.600000E+01,-1.600000E+00,8.004080E-02,-3.326190E-01,3.850210E-01
-1.500000E+01,-1.500000E+00,8.050910E-02,-3.118300E-01,3.872730E-01
-1.400000E+01,-1.400000E+00,8.119700E-02,-2.910420E-01,3.905830E-01
-1.300000E+01,-1.300000E+00,8.152460E-02,-2.702530E-01,3.921580E-01
-1.200000E+01,-1.200000E+00,8.221840E-02,-2.494640E-01,3.954960E-01
-1.100000E+01,-1.100000E+00,8.256380E-02,-2.286760E-01,3.971570E-01
-1.000000E+01,-1.000000E+00,8.314640E-02,-2.078870E-01,3.999600E-01
-9.000000E+00,-9.000000E-01,8.375880E-02,-1.870980E-01,4.029060E-01
-8.000000E+00,-8.000000E-01,8.387530E-02,-1.663100E-01,4.034660E-01
-7.000000E+00,-7.000000E-01,8.409420E-02,-1.455210E-01,4.045190E-01
-6.000000E+00,-6.000000E-01,8.431890E-02,-1.247320E-01,4.056000E-01
-5.000000E+00,-5.000000E-01,8.481800E-02,-1.039430E-01,4.080010E-01
-4.000000E+00,-4.000000E-01,8.509290E-02,-8.315480E-02,4.093230E-01
-3.000000E+00,-3.000000E-01,8.558840E-02,-6.236610E-02,4.117060E-01
-2.000000E+00,-2.000000E-01,8.539810E-02,-4.157740E-02,4.107910E-01
-1.000000E+00,-1.000000E-01,8.560810E-02,-2.078870E-02,4.118010E-01
0.000000E+00,0.000000E+00,8.552810E-02,0.000000E+00,4.114170E-01
1.000000E+00,1.000000E-01,8.538740E-02,2.078870E-02,4.107390E-01
2.000000E+00,2.000000E-01,8.557020E-02,4.157740E-02,4.116190E-01
3.000000E+00,3.000000E-01,8.559040E-02,6.236610E-02,4.117160E-01
4.000000E+00,4.000000E-01,8.520130E-02,8.315480E-02,4.098440E-01
5.000000E+00,5.000000E-01,8.506580E-02,1.039430E-01,4.091920E-01
6.000000E+00,6.000000E-01,8.520220E-02,1.247320E-01,4.098490E-01
7.000000E+00,7.000000E-01,8.486660E-02,1.455210E-01,4.082340E-01
8.000000E+00,8.000000E-01,8.483980E-02,1.663100E-01,4.081050E-01
9.000000E+00,9.000000E-01,8.419040E-02,1.870980E-01,4.049820E-01
1.000000E+01,1.000000E+00,8.359370E-02,2.078870E-01,4.021110E-01
1.100000E+01,1.100000E+00,8.310090E-02,2.286760E-01,3.997410E-01
1.200000E+01,1.200000E+00,8.252580E-02,2.494640E-01,3.969740E-01
1.300000E+01,1.300000E+00,8.244260E-02,2.702530E-01,3.965740E-01
1.400000E+01,1.400000E+00,8.192040E-02,2.910420E-01,3.940620E-01
1.500000E+01,1.500000E+00,8.123680E-02,3.118300E-01,3.907740E-01
1.600000E+01,1.600000E+00,8.045590E-02,3.326190E-01,3.870170E-01
1.700000E+01,1.700000E+00,7.996010E-02,3.534080E-01,3.846320E-01
1.800000E+01,1.800000E+00,7.927720E-02,3.741970E-01,3.813480E-01
1.900000E+01,1.900000E+00,7.865350E-02,3.949850E-01,3.783470E-01
2.000000E+01,2.000000E+00,7.820960E-02,4.157740E-01,3.762120E-01
2.100000E+01,2.100000E+00,7.737070E-02,4.365630E-01,3.721770E-01
2.200000E+01,2.200000E+00,7.663240E-02,4.573510E-01,3.686250E-01
2.300000E+01,2.300000E+00,7.577830E-02,4.781400E-01,3.645170E-01
2.400000E+01,2.400000E+00,7.486760E-02,4.989290E-01,3.601360E-01
2.500000E+01,2.500000E+00,7.414010E-02,5.197170E-01,3.566370E-01
2.600000E+01,2.600000E+00,7.344730E-02,5.405060E-01,3.533040E-01
2.700000E+01,2.700000E+00,7.254670E-02,5.612950E-01,3.489720E-01
2.800000E+01,2.800000E+00,7.170240E-02,5.820830E-01,3.449100E-01
2.900000E+01,2.900000E+00,7.076550E-02,6.028720E-01,3.404040E-01
3.000000E+01,3.000000E+00,6.985170E-02,6.236610E-01,3.360080E-01
3.100000E+01,3.100000E+00,6.883590E-02,6.444500E-01,3.311220E-01
3.200000E+01,3.200000E+00,6.758810E-02,6.652380E-01,3.251190E-01
3.300000E+01,3.300000E+00,6.657020E-02,6.860270E-01,3.202230E-01
3.400000E+01,3.400000E+00,6.572780E-02,7.068160E-01,3.161710E-01
3.500000E+01,3.500000E+00,6.458780E-02,7.276040E-01,3.106870E-01
3.600000E+01,3.600000E+00,6.345130E-02,7.483930E-01,3.052200E-01
3.700000E+01,3.700000E+00,6.251150E-02,7.691820E-01,3.007000E-01
3.800000E+01,3.800000E+00,6.134940E-02,7.899700E-01,2.951100E-01
3.900000E+01,3.900000E+00,6.023840E-02,8.107590E-01,2.897650E-01
4.000000E+01,4.000000E+00,5.927820E-02,8.315480E-01,2.851460E-01
4.100000E+01,4.100000E+00,5.829210E-02,8.523370E-01,2.804030E-01
4.200000E+01,4.200000E+00,5.719460E-02,8.731250E-01,2.751240E-01
4.300000E+01,4.300000E+00,5.618480E-02,8.939140E-01,2.702660E-01
4.400000E+01,4.400000E+00,5.503420E-02,9.147030E-01,2.647310E-01
4.500000E+01,4.500000E+00,5.393140E-02,9.354910E-01,2.594260E-01
4.600000E+01,4.600000E+00,5.263110E-02,9.562800E-01,2.531720E-01
4.700000E+01,4.700000E+00,5.148930E-02,9.770690E-01,2.476790E-01
4.800000E+01,4.800000E+00,5.033290E-02,9.978570E-01,2.421170E-01
4.900000E+01,4.900000E+00,4.921320E-02,1.018650E+00,2.367310E-01
5.000000E+01,5.000000E+00,4.804970E-02,1.039430E+00,2.311340E-01
5.100000E+01,5.100000E+00,4.682010E-02,1.060220E+00,2.252190E-01
5.200000E+01,5.200000E+00,4.557320E-02,1.081010E+00,2.192210E-01
5.300000E+01,5.300000E+00,4.473710E-02,1.101800E+00,2.151990E-01
5.400000E+01,5.400000E+00,4.360350E-02,1.122590E+00,2.097460E-01
5.500000E+01,5.500000E+00,4.269900E-02,1.143380E+00,2.053950E-01
5.600000E+01,5.600000E+00,4.148310E-02,1.164170E+00,1.995460E-01
5.700000E+01,5.700000E+00,4.027390E-02,1.184960E+00,1.937300E-01
5.800000E+01,5.800000E+00,3.928960E-02,1.205740E+00,1.889950E-01
5.900000E+01,5.900000E+00,3.818550E-02,1.226530E+00,1.836840E-01
6.000000E+01,6.000000E+00,3.712330E-02,1.247320E+00,1.785750E-01
6.100000E+01,6.100000E+00,3.621750E-02,1.268110E+00,1.742170E-01
6.200000E+01,6.200000E+00,3.512890E-02,1.288900E+00,1.689810E-01
6.300000E+01,6.300000E+00,3.435870E-02,1.309690E+00,1.652760E-01
6.400000E+01,6.400000E+00,3.325090E-02,1.330480E+00,1.599470E-01
6.500000E+01,6.500000E+00,3.234860E-02,1.351270E+00,1.556060E-01
6.600000E+01,6.600000E+00,3.140350E-02,1.372050E+00,1.510610E-01
6.700000E+01,6.700000E+00,3.038610E-02,1.392840E+00,1.461660E-01
6.800000E+01,6.800000E+00,2.948070E-02,1.413630E+00,1.418110E-01
6.900000E+01,6.900000E+00,2.853860E-02,1.434420E+00,1.372800E-01
7.000000E+01,7.000000E+00,2.766080E-02,1.455210E+00,1.330570E-01
7.100000E+01,7.100000E+00,2.691650E-02,1.476000E+00,1.294760E-01
7.200000E+01,7.200000E+00,2.612670E-02,1.496790E+00,1.256770E-01
7.300000E+01,7.300000E+00,2.522970E-02,1.517570E+00,1.213630E-01
7.400000E+01,7.400000E+00,2.431870E-02,1.538360E+00,1.169800E-01
7.500000E+01,7.500000E+00,2.346530E-02,1.559150E+00,1.128750E-01
7.600000E+01,7.600000E+00,2.262440E-02,1.579940E+00,1.088300E-01
7.700000E+01,7.700000E+00,2.183440E-02,1.600730E+00,1.050300E-01
7.800000E+01,7.800000E+00,2.109470E-02,1.621520E+00,1.014720E-01
7.900000E+01,7.900000E+00,2.042380E-02,1.642310E+00,9.824470E-02
8.000000E+01,8.000000E+00,1.975620E-02,1.663100E+00,9.503320E-02
8.100000E+01,8.100000E+00,1.919340E-02,1.683880E+00,9.232600E-02
8.200000E+01,8.200000E+00,1.838940E-02,1.704670E+00,8.845860E-02
8.300000E+01,8.300000E+00,1.781310E-02,1.725460E+00,8.568660E-02
8.400000E+01,8.400000E+00,1.712990E-02,1.746250E+00,8.240020E-02
8.500000E+01,8.500000E+00,1.648810E-02,1.767040E+00,7.931290E-02
8.600000E+01,8.600000E+00,1.583110E-02,1.787830E+00,7.615240E-02
8.700000E+01,8.700000E+00,1.520220E-02,1.808620E+00,7.312730E-02
8.800000E+01,8.800000E+00,1.461430E-02,1.829410E+00,7.029930E-02
8.900000E+01,8.900000E+00,1.387320E-02,1.850190E+00,6.673430E-02
9.000000E+01,9.000000E+00,1.332370E-02,1.870980E+00,6.409120E-02
9.100000E+01,9.100000E+00,1.285660E-02,1.891770E+00,6.184410E-02
9.200000E+01,9.200000E+00,1.233500E-02,1.912560E+00,5.933530E-02
9.300000E+01,9.300000E+00,1.185240E-02,1.933350E+00,5.701350E-02
9.400000E+01,9.400000E+00,1.149030E-02,1.954140E+00,5.527190E-02
9.500000E+01,9.500000E+00,1.092880E-02,1.974930E+00,5.257100E-02
9.600000E+01,9.600000E+00,1.046540E-02,1.995710E+00,5.034160E-02
9.700000E+01,9.700000E+00,1.002870E-02,2.016500E+00,4.824130E-02
9.800000E+01,9.800000E+00,9.688950E-03,2.037290E+00,4.660680E-02
9.900000E+01,9.900000E+00,9.283390E-03,2.058080E+00,4.465590E-02
1.000000E+02,1.000000E+01,8.909820E-03,2.078870E+00,4.285900E-02
1.010000E+02,1.010000E+01,8.472600E-03,2.099660E+00,4.075580E-02
1.020000E+02,1.020000E+01,8.133820E-03,2.120450E+00,3.912620E-02
1.030000E+02,1.030000E+01,7.778310E-03,2.141240E+00,3.741600E-02
1.040000E+02,1.040000E+01,7.432310E-03,2.162020E+00,3.575170E-02
1.050000E+02,1.050000E+01,7.030560E-03,2.182810E+00,3.381910E-02
1.060000E+02,1.060000E+01,6.721590E-03,2.203600E+00,3.233290E-02
1.070000E+02,1.070000E+01,6.374720E-03,2.224390E+00,3.066440E-02
1.080000E+02,1.080000E+01,6.035710E-03,2.245180E+00,2.903360E-02
1.090000E+02,1.090000E+01,5.712770E-03,2.265970E+00,2.748020E-02
1.100000E+02,1.100000E+01,5.462430E-03,2.286760E+00,2.627590E-02
1.110000E+02,1.110000E+01,5.310400E-03,2.307550E+00,2.554470E-02
1.120000E+02,1.120000E+01,5.063490E-03,2.328330E+00,2.435700E-02
1.130000E+02,1.130000E+01,4.778310E-03,2.349120E+00,2.298510E-02
1.140000E+02,1.140000E+01,4.482070E-03,2.369910E+00,2.156020E-02
1.150000E+02,1.150000E+01,4.215190E-03,2.390700E+00,2.027640E-02
1.160000E+02,1.160000E+01,4.079100E-03,2.411490E+00,1.962170E-02
1.170000E+02,1.170000E+01,3.846730E-03,2.432280E+00,1.850390E-02
1.180000E+02,1.180000E+01,3.672490E-03,2.453070E+00,1.766580E-02
1.190000E+02,1.190000E+01,3.469670E-03,2.473850E+00,1.669020E-02
1.200000E+02,1.200000E+01,3.334130E-03,2.494640E+00,1.603820E-02
1.210000E+02,1.210000E+01,3.170300E-03,2.515430E+00,1.525010E-02
1.220000E+02,1.220000E+01,2.993200E-03,2.536220E+00,1.439820E-02
1.230000E+02,1.230000E+01,2.841370E-03,2.557010E+00,1.366790E-02
1.240000E+02,1.240000E+01,2.653580E-03,2.577800E+00,1.276450E-02
1.250000E+02,1.250000E+01,2.462260E-03,2.598590E+00,1.184420E-02
1.260000E+02,1.260000E+01,2.311300E-03,2.619380E+00,1.111810E-02
1.270000E+02,1.270000E+01,2.221650E-03,2.640160E+00,1.068680E-02
1.280000E+02,1.280000E+01,2.117470E-03,2.660950E+00,1.018570E-02
1.290000E+02,1.290000E+01,1.961890E-03,2.681740E+00,9.437300E-03
1.300000E+02,1.300000E+01,1.823510E-03,2.702530E+00,8.771640E-03
1.310000E+02,1.310000E+01,1.756090E-03,2.723320E+00,8.447350E-03
1.320000E+02,1.320000E+01,1.658690E-03,2.744110E+00,7.978800E-03
1.330000E+02,1.330000E+01,1.549600E-03,2.764900E+00,7.454030E-03
1.340000E+02,1.340000E+01,1.440000E-03,2.785690E+00,6.926840E-03
1.350000E+02,1.350000E+01,1.333470E-03,2.806470E+00,6.414400E-03
1.360000E+02,1.360000E+01,1.262680E-03,2.827260E+00,6.073900E-03
1.370000E+02,1.370000E+01,1.211990E-03,2.848050E+00,5.830050E-03
1.380000E+02,1.380000E+01,1.124560E-03,2.868840E+00,5.409480E-03
1.390000E+02,1.390000E+01,1.039120E-03,2.889630E+00,4.998460E-03
1.400000E+02,1.400000E+01,1.004770E-03,2.910420E+00,4.833280E-03
1.410000E+02,1.410000E+01,9.337450E-04,2.931210E+00,4.491600E-03
1.420000E+02,1.420000E+01,8.895960E-04,2.951990E+00,4.279230E-03
1.430000E+02,1.430000E+01,8.416930E-04,2.972780E+00,4.048800E-03
1.440000E+02,1.440000E+01,7.757890E-04,2.993570E+00,3.731790E-03
1.450000E+02,1.450000E+01,7.322040E-04,3.014360E+00,3.522130E-03
1.460000E+02,1.460000E+01,7.028070E-04,3.035150E+00,3.380720E-03
1.470000E+02,1.470000E+01,6.502820E-04,3.055940E+00,3.128060E-03
1.480000E+02,1.480000E+01,6.227000E-04,3.076730E+00,2.995380E-03
1.490000E+02,1.490000E+01,5.614340E-04,3.097520E+00,2.700670E-03
1.500000E+02,1.500000E+01,5.178950E-04,3.118300E+00,2.491230E-03
1.510000E+02,1.510000E+01,4.743710E-04,3.139090E+00,2.281870E-03
1.520000E+02,1.520000E+01,4.265140E-04,3.159880E+00,2.051660E-03
1.530000E+02,1.530000E+01,4.172080E-04,3.180670E+00,2.006900E-03
1.540000E+02,1.540000E+01,3.996030E-04,3.201460E+00,1.922210E-03
1.550000E+02,1.550000E+01,3.500530E-04,3.222250E+00,1.683860E-03
1.560000E+02,1.560000E+01,3.248360E-04,3.243040E+00,1.562560E-03
1.570000E+02,1.570000E+01,3.022270E-04,3.263830E+00,1.453810E-03
1.580000E+02,1.580000E+01,2.766290E-04,3.284610E+00,1.330670E-03
1.590000E+02,1.590000E+01,2.630210E-04,3.305400E+00,1.265210E-03
1.600000E+02,1.600000E+01,2.371930E-04,3.326190E+00,1.140970E-03
1.610000E+02,1.610000E+01,2.327840E-04,3.346980E+00,1.119760E-03
1.620000E+02,1.620000E+01,2.206860E-04,3.367770E+00,1.061570E-03
1.630000E+02,1.630000E+01,2.011590E-04,3.388560E+00,9.676380E-04
1.640000E+02,1.640000E+01,1.771780E-04,3.409350E+00,8.522790E-04
1.650000E+02,1.650000E+01,1.636160E-04,3.430130E+00,7.870410E-04
1.660000E+02,1.660000E+01,1.513040E-04,3.450920E+00,7.278200E-04
1.670000E+02,1.670000E+01,1.540660E-04,3.471710E+00,7.411030E-04
1.680000E+02,1.680000E+01,1.416170E-04,3.492500E+00,6.812220E-04
1.690000E+02,1.690000E+01,1.329520E-04,3.513290E+00,6.395400E-04
1.700000E+02,1.700000E+01,1.311670E-04,3.534080E+00,6.309540E-04
1.710000E+02,1.710000E+01,1.231730E-04,3.554870E+00,5.925010E-04
1.720000E+02,1.720000E+01,1.188860E-04,3.575660E+00,5.718800E-04
1.730000E+02,1.730000E+01,1.197710E-04,3.596440E+00,5.761360E-04
1.740000E+02,1.740000E+01,1.076580E-04,3.617230E+00,5.178690E-04
1.750000E+02,1.750000E+01,9.693360E-05,3.638020E+00,4.662810E-04
1.760000E+02,1.760000E+01,9.064840E-05,3.658810E+00,4.360460E-04
1.770000E+02,1.770000E+01,8.134250E-05,3.679600E+00,3.912820E-04
1.780000E+02,1.780000E+01,7.182300E-05,3.700390E+00,3.454910E-04
1.790000E+02,1.790000E+01,7.066360E-05,3.721180E+00,3.399140E-04
1.800000E+02,1.800000E+01,6.983980E-05,3.741970E+00,3.359510E-04
1.810000E+02,1.810000E+01,6.035090E-05,3.762750E+00,2.903060E-04
1.820000E+02,1.820000E+01,6.085430E-05,3.783540E+00,2.927280E-04
1.830000E+02,1.830000E+01,5.639970E-05,3.804330E+00,2.713000E-04
1.840000E+02,1.840000E+01,6.028990E-05,3.825120E+00,2.900130E-04
1.850000E+02,1.850000E+01,6.141880E-05,3.845910E+00,2.954430E-04
1.860000E+02,1.860000E+01,5.122810E-05,3.866700E+00,2.464230E-04
1.870000E+02,1.870000E+01,5.150270E-05,3.887490E+00,2.477440E-04
1.880000E+02,1.880000E+01,4.340200E-05,3.908270E+00,2.087770E-04
1.890000E+02,1.890000E+01,4.671240E-05,3.929060E+00,2.247010E-04
1.900000E+02,1.900000E+01,3.633870E-05,3.949850E+00,1.748000E-04
1.910000E+02,1.910000E+01,3.607930E-05,3.970640E+00,1.735530E-04
1.920000E+02,1.920000E+01,3.206710E-05,3.991430E+00,1.542530E-04
1.930000E+02,1.930000E+01,2.887870E-05,4.012220E+00,1.389150E-04
1.940000E+02,1.940000E+01,3.093820E-05,4.033010E+00,1.488220E-04
1.950000E+02,1.950000E+01,2.361560E-05,4.053800E+00,1.135980E-04
1.960000E+02,1.960000E+01,2.239510E-05,4.074580E+00,1.077270E-04
1.970000E+02,1.970000E+01,2.082380E-05,4.095370E+00,1.001690E-04
1.980000E+02,1.980000E+01,1.691840E-05,4.116160E+00,8.138260E-05
1.990000E+02,1.990000E+01,1.531660E-05,4.136950E+00,7.367730E-05
2.000000E+02,2.000000E+01,1.461480E-05,4.157740E+00,7.030170E-05
