﻿time_i05,xxav_i05,xx2av_i05,vvav_i05,vv2av_i05
0.000000E+00,0.000000E+00,0.000000E+00,0.000000E+00,0.000000E+00
5.000000E-01,-2.306850E-03,5.133080E-02,-1.880070E-03,6.533530E-01
1.000000E+00,-4.695090E-03,3.985190E-01,-3.753330E-03,1.013040E+00
1.500000E+00,-5.445410E-03,1.002860E+00,7.351510E-03,9.284730E-01
2.000000E+00,3.358680E-03,1.589890E+00,2.442750E-02,9.032250E-01
2.500000E+00,7.993530E-03,2.018710E+00,-6.535910E-04,9.293770E-01
3.000000E+00,3.321870E-03,2.301030E+00,-1.441450E-02,1.025160E+00
3.500000E+00,-5.270720E-03,2.511040E+00,-2.636240E-02,1.033730E+00
4.000000E+00,-7.629540E-03,2.637380E+00,1.445730E-02,1.029480E+00
4.500000E+00,6.271630E-03,2.758120E+00,2.918730E-02,1.019000E+00
5.000000E+00,2.481040E-02,2.860710E+00,4.966570E-02,1.012390E+00
5.500000E+00,4.411230E-02,2.955290E+00,2.876920E-02,1.009060E+00
6.000000E+00,4.673320E-02,3.091100E+00,-1.361620E-02,9.981810E-01
6.500000E+00,3.569130E-02,3.225440E+00,-2.352730E-02,9.738000E-01
7.000000E+00,2.921760E-02,3.336560E+00,-7.079250E-04,1.019700E+00
7.500000E+00,3.293650E-02,3.454090E+00,4.460080E-03,1.005790E+00
8.000000E+00,3.413340E-02,3.567830E+00,-5.477830E-03,1.001890E+00
8.500000E+00,2.981540E-02,3.667100E+00,-8.836060E-03,1.039160E+00
9.000000E+00,3.297610E-02,3.802280E+00,-8.299200E-04,1.039530E+00
9.500000E+00,2.771430E-02,3.934720E+00,-1.275220E-02,9.998600E-01
1.000000E+01,1.783940E-02,4.010920E+00,-2.471520E-02,1.014310E+00
1.050000E+01,3.632650E-03,4.038420E+00,-2.268440E-02,1.009990E+00
1.102000E+01,-6.212780E-03,4.104380E+00,-1.765480E-02,1.009570E+00
1.157000E+01,-1.395440E-02,4.190970E+00,6.544950E-04,1.012470E+00
1.214000E+01,-3.824750E-03,4.302400E+00,2.498740E-02,1.029380E+00
1.274000E+01,1.503910E-02,4.454720E+00,3.342940E-02,1.019210E+00
1.337000E+01,3.274350E-02,4.642200E+00,2.581920E-02,1.036970E+00
1.403000E+01,4.400590E-02,4.770180E+00,4.463510E-03,1.026220E+00
1.473000E+01,4.076170E-02,4.902150E+00,-7.363900E-03,1.012860E+00
1.546000E+01,3.381040E-02,5.058610E+00,-1.833180E-02,1.016030E+00
1.623000E+01,1.923120E-02,5.161880E+00,-1.503190E-02,1.018810E+00
1.704000E+01,1.012010E-02,5.208060E+00,-1.395210E-02,9.958850E-01
1.789000E+01,1.430550E-02,5.355220E+00,9.652130E-03,9.947540E-01
1.878000E+01,2.471490E-02,5.518680E+00,2.247370E-02,9.875480E-01
1.971000E+01,5.177160E-02,5.647100E+00,5.422860E-03,1.011160E+00
2.069000E+01,3.369670E-02,5.738870E+00,-3.919810E-02,9.944020E-01
2.172000E+01,8.486790E-03,5.953210E+00,-5.344430E-03,9.879100E-01
2.280000E+01,-3.052420E-03,6.163840E+00,-1.653510E-02,1.016310E+00
2.394000E+01,-6.415060E-03,6.168770E+00,1.006220E-02,1.003190E+00
2.513000E+01,6.251860E-03,6.189550E+00,6.395030E-03,1.028410E+00
2.638000E+01,-1.081220E-03,6.367770E+00,-2.020630E-02,9.877360E-01
2.769000E+01,-1.633370E-02,6.640210E+00,-9.046520E-03,9.719550E-01
2.907000E+01,-1.031410E-02,6.706400E+00,1.670780E-02,9.985240E-01
3.052000E+01,8.012870E-03,6.893040E+00,-2.001870E-03,1.037290E+00
3.204000E+01,9.968540E-04,7.178140E+00,3.834280E-03,1.008370E+00
3.364000E+01,2.679120E-02,7.440440E+00,-7.750910E-03,1.021440E+00
3.532000E+01,8.383570E-03,7.613880E+00,-8.712910E-03,1.019570E+00
3.708000E+01,3.503080E-02,7.791010E+00,-5.905740E-03,1.052210E+00
3.893000E+01,1.293820E-02,7.891110E+00,4.563000E-03,9.420020E-01
4.087000E+01,2.777460E-02,8.057970E+00,3.492610E-03,1.009380E+00
4.291000E+01,8.897810E-03,8.270700E+00,-3.350880E-03,1.017560E+00
4.505000E+01,2.276090E-02,8.569970E+00,1.243540E-03,1.030170E+00
4.730000E+01,1.073760E-03,8.748140E+00,-1.823650E-02,1.022960E+00
4.966000E+01,-2.343780E-02,8.898490E+00,-1.574040E-02,1.055010E+00
5.214000E+01,-3.290960E-02,9.134070E+00,7.620720E-03,9.933840E-01
5.474000E+01,-4.929840E-02,9.355340E+00,-1.759380E-02,9.847650E-01
5.747000E+01,1.523480E-02,9.640380E+00,2.136050E-02,1.026280E+00
6.034000E+01,3.243170E-02,9.987860E+00,-6.625490E-03,9.804520E-01
6.335000E+01,-1.126260E-02,1.007810E+01,-8.400860E-03,1.051710E+00
6.651000E+01,-4.131000E-02,1.022470E+01,-6.172830E-03,1.019350E+00
6.983000E+01,-3.268540E-02,1.070890E+01,1.471240E-02,9.772240E-01
7.332000E+01,-3.707680E-02,1.097390E+01,5.548340E-03,1.028940E+00
7.698000E+01,-2.565510E-02,1.099520E+01,-6.596110E-03,1.028870E+00
8.082000E+01,-2.996360E-02,1.112550E+01,-8.252400E-03,1.033470E+00
8.486000E+01,-2.000960E-02,1.167810E+01,-3.989220E-02,1.004210E+00
8.910000E+01,-8.113110E-02,1.177350E+01,4.101940E-02,1.016950E+00
9.355000E+01,-1.011410E-01,1.214390E+01,-1.690330E-02,1.022140E+00
9.822000E+01,-7.649560E-02,1.231100E+01,-5.828530E-05,1.017310E+00
1.031300E+02,-4.818480E-02,1.268080E+01,-3.282810E-03,1.020850E+00
1.082800E+02,-6.835630E-02,1.281640E+01,1.782290E-02,1.045020E+00
1.136900E+02,-1.033070E-01,1.329990E+01,-1.587960E-02,9.905430E-01
1.193700E+02,-1.146100E-01,1.347530E+01,-5.692120E-03,1.027440E+00
1.253300E+02,-6.523300E-02,1.403150E+01,-1.211830E-02,1.008280E+00
1.315900E+02,-8.070440E-02,1.440270E+01,-1.028860E-02,1.017740E+00
1.381600E+02,-9.728780E-02,1.442550E+01,7.175730E-03,1.004360E+00
1.450600E+02,-3.467070E-02,1.494560E+01,7.923220E-03,9.999530E-01
1.523100E+02,-1.031470E-01,1.521730E+01,-3.911100E-02,1.030130E+00
1.599200E+02,-1.167620E-01,1.525930E+01,-2.767640E-02,1.030820E+00
1.679100E+02,-8.513790E-02,1.617230E+01,-1.688340E-02,1.005250E+00
1.763000E+02,-6.883160E-02,1.605660E+01,-6.680280E-03,1.009150E+00
1.851100E+02,-4.163520E-02,1.673320E+01,2.887980E-03,9.907010E-01
1.943600E+02,-5.702470E-02,1.719660E+01,-6.446400E-03,1.026830E+00
2.040700E+02,-4.065540E-02,1.789820E+01,2.506290E-02,1.038490E+00
2.142700E+02,-6.115220E-02,1.826450E+01,7.074820E-03,1.006350E+00
2.249800E+02,-1.061470E-01,1.860390E+01,-1.625460E-02,9.751790E-01
2.362200E+02,-6.631940E-02,1.956040E+01,1.818880E-02,1.039350E+00
2.480300E+02,-1.162540E-01,1.927960E+01,-3.054480E-02,1.009530E+00
2.604300E+02,-1.426110E-01,2.015370E+01,-3.375910E-02,1.005210E+00
2.734500E+02,-1.088820E-01,2.080990E+01,5.324920E-03,1.010870E+00
2.871200E+02,-8.244150E-02,2.150040E+01,3.128100E-02,1.016310E+00
3.014700E+02,-1.381540E-01,2.154120E+01,1.351610E-02,1.011330E+00
3.165400E+02,-4.727390E-02,2.283130E+01,2.144780E-02,1.020430E+00
3.323600E+02,-5.727410E-02,2.322700E+01,2.126970E-03,1.035100E+00
3.489700E+02,-1.011970E-03,2.426720E+01,1.497410E-02,1.019180E+00
3.664100E+02,-1.310790E-02,2.459070E+01,-6.408120E-03,1.008670E+00
3.847300E+02,7.962600E-02,2.549180E+01,-3.465170E-03,1.005160E+00
4.039600E+02,5.780270E-02,2.632790E+01,-1.460270E-02,1.020440E+00
4.241500E+02,9.408380E-02,2.695840E+01,-7.100890E-03,1.050900E+00
4.453500E+02,5.936710E-02,2.750110E+01,-1.151500E-03,9.972450E-01
4.676100E+02,1.008610E-01,2.813610E+01,1.238440E-02,9.844290E-01
4.909900E+02,1.096490E-01,2.916110E+01,-9.627090E-04,9.939490E-01
5.155300E+02,2.034490E-02,2.960090E+01,-9.908880E-03,1.024580E+00
5.413000E+02,7.235460E-02,2.994880E+01,-1.206220E-04,1.007110E+00
5.683600E+02,7.379080E-02,3.063600E+01,1.651670E-02,1.007410E+00
5.967700E+02,-5.015750E-03,3.108990E+01,2.365340E-02,9.867720E-01
6.266000E+02,1.869600E-02,3.192690E+01,-1.577000E-02,1.005950E+00
6.579300E+02,-2.571290E-02,3.331640E+01,-4.858050E-04,1.022480E+00
6.908200E+02,-1.322130E-02,3.411490E+01,-1.119820E-03,9.914480E-01
7.253600E+02,2.621310E-02,3.525970E+01,-7.858770E-03,9.809670E-01
7.616200E+02,-2.212040E-02,3.506390E+01,1.887510E-02,1.036530E+00
7.997000E+02,-1.797670E-02,3.585810E+01,1.661320E-02,1.023260E+00
8.396800E+02,1.759950E-02,3.701650E+01,4.138610E-03,9.983270E-01
8.816600E+02,-1.465910E-02,3.720880E+01,-2.074770E-02,9.681800E-01
9.257400E+02,1.795000E-02,3.822850E+01,4.492720E-02,1.028320E+00
9.720200E+02,2.178890E-02,3.849020E+01,-2.523750E-02,1.011820E+00
1.020620E+03,5.361010E-02,4.024580E+01,2.033050E-02,9.866120E-01
1.071650E+03,9.092350E-02,4.196530E+01,-1.475160E-02,1.003270E+00
1.125230E+03,7.262040E-02,4.274620E+01,9.638390E-03,1.045710E+00
1.181490E+03,-3.299940E-04,4.447560E+01,2.477700E-02,1.010110E+00
1.240560E+03,1.165900E-01,4.474080E+01,-3.387660E-03,1.019920E+00
1.302580E+03,4.308490E-02,4.612720E+01,2.073090E-02,1.024000E+00
1.367700E+03,1.044150E-01,4.688380E+01,-1.059870E-04,1.066410E+00
1.436080E+03,1.218150E-01,4.781480E+01,-1.196340E-02,9.762510E-01
1.507880E+03,4.714250E-02,4.798380E+01,-8.105860E-03,1.040680E+00
1.583270E+03,6.802000E-02,4.904950E+01,-4.396810E-03,1.061310E+00
1.662430E+03,4.831230E-02,5.069490E+01,-9.682400E-03,1.030460E+00
1.745550E+03,1.282840E-01,5.141670E+01,-1.989290E-02,1.038730E+00
1.832820E+03,1.039480E-01,5.256950E+01,-1.051680E-02,1.020070E+00
1.924460E+03,1.158790E-01,5.458190E+01,-5.674760E-04,1.045340E+00
2.020680E+03,2.798130E-02,5.587360E+01,1.662030E-03,1.012140E+00
2.121710E+03,5.147210E-02,5.673700E+01,-9.293320E-03,1.033890E+00
2.227790E+03,-2.035270E-02,5.708500E+01,-2.315540E-03,1.027330E+00
2.339170E+03,-7.927070E-02,5.957950E+01,-7.058450E-03,1.053610E+00
2.456120E+03,-7.379190E-02,5.919210E+01,1.208160E-02,9.956890E-01
2.578920E+03,-1.267620E-01,6.058960E+01,-7.012260E-03,1.030580E+00
2.707860E+03,-1.048650E-01,6.056000E+01,2.379930E-03,1.041670E+00
2.843250E+03,-6.984220E-02,6.349100E+01,-1.559080E-02,9.714320E-01
2.985410E+03,-9.242500E-02,6.571290E+01,-7.602460E-03,1.001460E+00
3.134680E+03,-6.985030E-02,6.566880E+01,1.006200E-02,1.008840E+00
3.291410E+03,-1.627170E-01,6.699780E+01,-8.803320E-03,1.013100E+00
3.455980E+03,-1.372350E-01,6.868790E+01,-2.184880E-02,1.031790E+00
3.628770E+03,-3.870630E-02,7.009840E+01,2.829770E-02,1.031590E+00
3.810200E+03,-1.240870E-01,7.068470E+01,-2.685160E-03,1.021550E+00
4.000710E+03,-7.707200E-02,7.297700E+01,-1.562570E-02,1.031880E+00
4.200740E+03,-2.418480E-01,7.437830E+01,-2.803860E-03,9.840520E-01
4.410770E+03,-1.032280E-01,7.551330E+01,1.635140E-02,9.857180E-01
4.631300E+03,-1.538520E-01,7.667720E+01,-2.395270E-02,1.020040E+00
4.862860E+03,-1.026310E-01,7.881090E+01,-2.845490E-02,1.003450E+00
5.106000E+03,-1.001000E-01,7.938520E+01,5.424330E-03,9.882940E-01
5.361300E+03,-1.899210E-01,8.089690E+01,6.595730E-03,1.006680E+00
5.629360E+03,-3.029100E-01,8.101880E+01,1.696820E-02,9.807780E-01
5.910820E+03,-1.805780E-01,8.109390E+01,-4.582620E-04,1.015560E+00
6.206360E+03,-3.159250E-01,8.268620E+01,1.268690E-02,1.031790E+00
6.516670E+03,-2.193760E-01,8.636250E+01,-3.773280E-02,1.041350E+00
6.842500E+03,-1.071540E-01,8.694810E+01,-6.420270E-03,9.940550E-01
7.184620E+03,-1.802420E-01,8.815200E+01,2.065750E-02,1.039610E+00
7.543850E+03,-9.669730E-02,9.170170E+01,1.772460E-02,9.925480E-01
7.921040E+03,5.047900E-02,9.339050E+01,-4.879950E-03,9.928130E-01
8.317090E+03,4.228420E-02,9.277310E+01,-2.798710E-02,1.018930E+00
8.732940E+03,8.879120E-02,9.257750E+01,7.694920E-03,9.948500E-01
9.169580E+03,9.398410E-02,9.627910E+01,7.911240E-03,1.002610E+00
9.628050E+03,5.960240E-02,9.614680E+01,2.331330E-02,1.036690E+00
1.010950E+04,7.417810E-02,9.705580E+01,9.744240E-03,1.005080E+00
1.061490E+04,3.499620E-02,9.779350E+01,-4.781700E-02,1.007660E+00
1.114570E+04,4.589200E-02,9.969700E+01,-1.293510E-02,1.031200E+00
1.170290E+04,2.557940E-01,1.013420E+02,-2.272770E-02,1.021000E+00
1.228810E+04,4.817970E-02,1.022730E+02,-1.147160E-02,1.027380E+00
1.290250E+04,1.127660E-01,1.031590E+02,-7.122860E-03,9.776550E-01
1.354760E+04,1.094670E-01,1.039350E+02,1.489290E-02,1.066750E+00
1.422500E+04,1.161800E-01,1.057240E+02,5.697730E-03,1.022130E+00
1.493620E+04,9.256210E-02,1.059150E+02,4.093710E-02,1.028150E+00
1.568300E+04,-6.195010E-02,1.092920E+02,4.178830E-04,1.003840E+00
1.646720E+04,-2.314650E-02,1.068400E+02,2.615400E-03,9.756610E-01
1.729050E+04,-1.055510E-01,1.087110E+02,-9.215620E-03,1.016050E+00
1.815500E+04,-1.655640E-01,1.101330E+02,-2.343530E-03,1.013710E+00
1.906280E+04,-5.816550E-02,1.109150E+02,4.933470E-03,1.023260E+00
2.001590E+04,-8.070590E-02,1.119930E+02,1.000990E-02,1.025150E+00
2.101670E+04,-4.418990E-03,1.123540E+02,3.739850E-03,1.018440E+00
2.206760E+04,-3.244790E-02,1.131580E+02,1.984960E-02,1.075140E+00
2.317090E+04,5.054290E-03,1.160080E+02,-1.718760E-03,1.023280E+00
2.432950E+04,9.019810E-02,1.146020E+02,-3.548310E-02,1.006730E+00
2.554590E+04,-1.647860E-01,1.170990E+02,3.423960E-02,1.021400E+00
2.682320E+04,-1.522980E-01,1.141170E+02,-2.120390E-02,1.012540E+00
2.816440E+04,-1.836420E-01,1.177070E+02,-1.790300E-02,1.006760E+00
2.957260E+04,-8.479040E-02,1.187440E+02,9.775570E-03,1.005460E+00
3.105120E+04,-2.527540E-01,1.170950E+02,1.768760E-02,1.042390E+00
3.260380E+04,1.925640E-04,1.197460E+02,-9.272310E-03,1.037970E+00
3.423400E+04,-2.421820E-01,1.198860E+02,1.231850E-02,9.995290E-01
3.594570E+04,-1.975310E-01,1.195760E+02,2.625610E-02,1.046030E+00
3.774290E+04,-2.343780E-01,1.216890E+02,-7.392950E-03,1.023560E+00
3.963010E+04,-3.237820E-01,1.197710E+02,-1.241780E-02,9.832380E-01
4.161160E+04,-1.916580E-01,1.218580E+02,-2.613010E-02,1.030830E+00
4.369220E+04,-2.267880E-01,1.225910E+02,6.765360E-03,1.041620E+00
4.587680E+04,-2.965220E-01,1.218630E+02,-6.935470E-04,1.008930E+00
4.817060E+04,-3.676640E-01,1.222480E+02,-1.790390E-02,1.020160E+00
5.057910E+04,-1.981400E-01,1.280770E+02,-6.216330E-03,1.042380E+00
5.310810E+04,-8.645020E-02,1.253650E+02,7.308220E-03,1.027860E+00
5.576350E+04,-3.814530E-01,1.244910E+02,-1.570010E-02,1.004010E+00
5.855160E+04,-1.071280E-01,1.233140E+02,8.755430E-03,1.013010E+00
6.147920E+04,-9.428720E-02,1.240040E+02,-2.671520E-02,1.026210E+00
6.455320E+04,-2.331210E-01,1.232280E+02,2.935260E-02,1.023000E+00
6.778080E+04,-3.442110E-01,1.259450E+02,-9.485530E-04,9.842550E-01
7.116990E+04,-3.085460E-01,1.257050E+02,8.918630E-03,1.059560E+00
7.472830E+04,-3.885640E-01,1.224250E+02,1.373260E-02,1.018050E+00
7.846480E+04,-2.495000E-01,1.234160E+02,1.112030E-02,1.010810E+00
8.238800E+04,-2.579990E-01,1.271040E+02,4.354930E-03,1.010460E+00
8.650740E+04,-1.874930E-01,1.259870E+02,1.415640E-02,1.027450E+00
9.083270E+04,-2.631000E-01,1.257750E+02,1.200840E-02,9.791060E-01
9.537440E+04,-2.629350E-01,1.260680E+02,-1.942270E-02,1.029360E+00
1.001430E+05,-2.218120E-01,1.262190E+02,1.150520E-05,1.015870E+00
1.051500E+05,-5.974200E-02,1.272720E+02,9.775890E-03,1.018930E+00
1.104080E+05,-5.890370E-02,1.283200E+02,-4.068240E-03,1.011200E+00
1.159280E+05,-1.607040E-02,1.234370E+02,-2.597710E-02,1.073990E+00
1.217250E+05,-6.578560E-02,1.287950E+02,-5.155230E-03,9.783200E-01
1.278110E+05,6.349840E-02,1.294700E+02,-2.724140E-02,1.050140E+00
1.342010E+05,7.516850E-02,1.281930E+02,1.520490E-02,1.003930E+00
1.409110E+05,1.763270E-01,1.316290E+02,2.252470E-02,1.010000E+00
1.479570E+05,1.268790E-01,1.292810E+02,3.173140E-03,9.624260E-01
1.553550E+05,1.146760E-02,1.307160E+02,-7.632760E-04,9.914540E-01
1.631220E+05,1.679290E-01,1.263060E+02,2.112620E-04,9.804490E-01
1.712790E+05,1.140260E-01,1.274230E+02,-1.397180E-02,1.017570E+00
1.798420E+05,2.649750E-01,1.324400E+02,1.934270E-02,9.935840E-01
1.888350E+05,1.402380E-01,1.290640E+02,-1.321030E-02,1.075150E+00
1.982760E+05,1.680920E-01,1.308650E+02,-2.023930E-02,9.683530E-01
2.081900E+05,1.552650E-01,1.342610E+02,1.989920E-02,1.035780E+00
2.186000E+05,1.197020E-01,1.335810E+02,-2.269030E-02,1.026340E+00
2.295300E+05,1.384260E-01,1.288650E+02,5.237880E-03,1.020120E+00
2.410060E+05,1.902730E-01,1.309000E+02,-1.406420E-02,1.021830E+00
2.530560E+05,1.763710E-01,1.331490E+02,1.415100E-02,1.013080E+00
2.657090E+05,1.328930E-01,1.303170E+02,1.603340E-02,1.000010E+00
2.789950E+05,1.111460E-01,1.293420E+02,4.597680E-02,1.020290E+00
2.929440E+05,1.167470E-01,1.301840E+02,5.617730E-03,9.990050E-01
3.075920E+05,-1.816110E-02,1.337410E+02,-3.089720E-03,1.019590E+00
3.229710E+05,-9.702810E-02,1.309400E+02,6.383950E-04,1.001280E+00
3.391200E+05,3.170540E-02,1.310990E+02,-4.068520E-02,1.036190E+00
3.560760E+05,5.157010E-02,1.353540E+02,-2.008660E-02,1.029690E+00
3.738800E+05,-6.666770E-02,1.324560E+02,2.506490E-03,1.085230E+00
3.925740E+05,-5.484860E-02,1.358370E+02,-6.785050E-03,9.891690E-01
4.122020E+05,1.492610E-01,1.313440E+02,4.954120E-03,1.042380E+00
4.328120E+05,9.411290E-02,1.293290E+02,2.046970E-02,1.032280E+00
4.544530E+05,1.874850E-01,1.328670E+02,4.184620E-03,9.645890E-01
4.771760E+05,-1.489010E-01,1.350900E+02,-1.462320E-02,9.860280E-01
5.010340E+05,1.747290E-01,1.344320E+02,-1.528250E-02,9.944020E-01
5.260860E+05,1.207120E-01,1.298580E+02,1.435500E-02,9.968070E-01
5.523900E+05,2.754150E-01,1.318080E+02,-3.317900E-02,1.053250E+00
5.800100E+05,1.949880E-01,1.342670E+02,1.718530E-02,9.914470E-01
6.090100E+05,-2.917300E-02,1.319810E+02,8.349280E-04,1.011320E+00
6.394610E+05,2.340320E-02,1.308230E+02,-4.438570E-03,1.007320E+00
6.710890E+05,1.445890E-01,1.303700E+02,-1.807980E-02,1.010780E+00
