﻿ibin5_6,x=(MAXX*ibin)/NBIN5_6,P(x)5_6,x/sigma5_6,P*sigma5_6,x_squared5_6
-2.400000E+02,-8.000000E+01,0.000000E+00,-3.343129E+00,0.000000E+00,-6.400000E+03
-2.390000E+02,-7.966670E+01,0.000000E+00,-3.329200E+00,0.000000E+00,-6.346783E+03
-2.380000E+02,-7.933330E+01,0.000000E+00,-3.315268E+00,0.000000E+00,-6.293772E+03
-2.370000E+02,-7.900000E+01,0.000000E+00,-3.301340E+00,0.000000E+00,-6.241000E+03
-2.360000E+02,-7.866670E+01,0.000000E+00,-3.287411E+00,0.000000E+00,-6.188450E+03
-2.350000E+02,-7.833330E+01,0.000000E+00,-3.273479E+00,0.000000E+00,-6.136106E+03
-2.340000E+02,-7.800000E+01,0.000000E+00,-3.259550E+00,0.000000E+00,-6.084000E+03
-2.330000E+02,-7.766670E+01,0.000000E+00,-3.245622E+00,0.000000E+00,-6.032116E+03
-2.320000E+02,-7.733330E+01,0.000000E+00,-3.231690E+00,0.000000E+00,-5.980439E+03
-2.310000E+02,-7.700000E+01,0.000000E+00,-3.217761E+00,0.000000E+00,-5.929000E+03
-2.300000E+02,-7.666670E+01,0.000000E+00,-3.203833E+00,0.000000E+00,-5.877783E+03
-2.290000E+02,-7.633330E+01,0.000000E+00,-3.189901E+00,0.000000E+00,-5.826773E+03
-2.280000E+02,-7.600000E+01,0.000000E+00,-3.175972E+00,0.000000E+00,-5.776000E+03
-2.270000E+02,-7.566670E+01,0.000000E+00,-3.162044E+00,0.000000E+00,-5.725449E+03
-2.260000E+02,-7.533330E+01,0.000000E+00,-3.148111E+00,0.000000E+00,-5.675106E+03
-2.250000E+02,-7.500000E+01,0.000000E+00,-3.134183E+00,0.000000E+00,-5.625000E+03
-2.240000E+02,-7.466670E+01,0.000000E+00,-3.120255E+00,0.000000E+00,-5.575116E+03
-2.230000E+02,-7.433330E+01,0.000000E+00,-3.106322E+00,0.000000E+00,-5.525439E+03
-2.220000E+02,-7.400000E+01,0.000000E+00,-3.092394E+00,0.000000E+00,-5.476000E+03
-2.210000E+02,-7.366670E+01,0.000000E+00,-3.078466E+00,0.000000E+00,-5.426783E+03
-2.200000E+02,-7.333330E+01,0.000000E+00,-3.064533E+00,0.000000E+00,-5.377773E+03
-2.190000E+02,-7.300000E+01,0.000000E+00,-3.050605E+00,0.000000E+00,-5.329000E+03
-2.180000E+02,-7.266670E+01,0.000000E+00,-3.036677E+00,0.000000E+00,-5.280449E+03
-2.170000E+02,-7.233330E+01,0.000000E+00,-3.022744E+00,0.000000E+00,-5.232106E+03
-2.160000E+02,-7.200000E+01,0.000000E+00,-3.008816E+00,0.000000E+00,-5.184000E+03
-2.150000E+02,-7.166670E+01,0.000000E+00,-2.994888E+00,0.000000E+00,-5.136116E+03
-2.140000E+02,-7.133330E+01,0.000000E+00,-2.980955E+00,0.000000E+00,-5.088440E+03
-2.130000E+02,-7.100000E+01,0.000000E+00,-2.967027E+00,0.000000E+00,-5.041000E+03
-2.120000E+02,-7.066670E+01,0.000000E+00,-2.953098E+00,0.000000E+00,-4.993782E+03
-2.110000E+02,-7.033330E+01,0.000000E+00,-2.939166E+00,0.000000E+00,-4.946773E+03
-2.100000E+02,-7.000000E+01,0.000000E+00,-2.925238E+00,0.000000E+00,-4.900000E+03
-2.090000E+02,-6.966670E+01,0.000000E+00,-2.911309E+00,0.000000E+00,-4.853449E+03
-2.080000E+02,-6.933330E+01,0.000000E+00,-2.897377E+00,0.000000E+00,-4.807106E+03
-2.070000E+02,-6.900000E+01,0.000000E+00,-2.883449E+00,0.000000E+00,-4.761000E+03
-2.060000E+02,-6.866670E+01,0.000000E+00,-2.869520E+00,0.000000E+00,-4.715116E+03
-2.050000E+02,-6.833330E+01,0.000000E+00,-2.855588E+00,0.000000E+00,-4.669440E+03
-2.040000E+02,-6.800000E+01,0.000000E+00,-2.841659E+00,0.000000E+00,-4.624000E+03
-2.030000E+02,-6.766670E+01,0.000000E+00,-2.827731E+00,0.000000E+00,-4.578782E+03
-2.020000E+02,-6.733330E+01,0.000000E+00,-2.813799E+00,0.000000E+00,-4.533773E+03
-2.010000E+02,-6.700000E+01,0.000000E+00,-2.799870E+00,0.000000E+00,-4.489000E+03
-2.000000E+02,-6.666670E+01,0.000000E+00,-2.785942E+00,0.000000E+00,-4.444449E+03
-1.990000E+02,-6.633330E+01,0.000000E+00,-2.772009E+00,0.000000E+00,-4.400107E+03
-1.980000E+02,-6.600000E+01,0.000000E+00,-2.758081E+00,0.000000E+00,-4.356000E+03
-1.970000E+02,-6.566670E+01,0.000000E+00,-2.744153E+00,0.000000E+00,-4.312115E+03
-1.960000E+02,-6.533330E+01,0.000000E+00,-2.730220E+00,0.000000E+00,-4.268440E+03
-1.950000E+02,-6.500000E+01,0.000000E+00,-2.716292E+00,0.000000E+00,-4.225000E+03
-1.940000E+02,-6.466670E+01,0.000000E+00,-2.702364E+00,0.000000E+00,-4.181782E+03
-1.930000E+02,-6.433330E+01,0.000000E+00,-2.688431E+00,0.000000E+00,-4.138773E+03
-1.920000E+02,-6.400000E+01,0.000000E+00,-2.674503E+00,0.000000E+00,-4.096000E+03
-1.910000E+02,-6.366670E+01,0.000000E+00,-2.660575E+00,0.000000E+00,-4.053449E+03
-1.900000E+02,-6.333330E+01,0.000000E+00,-2.646642E+00,0.000000E+00,-4.011107E+03
-1.890000E+02,-6.300000E+01,0.000000E+00,-2.632714E+00,0.000000E+00,-3.969000E+03
-1.880000E+02,-6.266670E+01,0.000000E+00,-2.618786E+00,0.000000E+00,-3.927115E+03
-1.870000E+02,-6.233330E+01,0.000000E+00,-2.604853E+00,0.000000E+00,-3.885440E+03
-1.860000E+02,-6.200000E+01,0.000000E+00,-2.590925E+00,0.000000E+00,-3.844000E+03
-1.850000E+02,-6.166670E+01,0.000000E+00,-2.576996E+00,0.000000E+00,-3.802782E+03
-1.840000E+02,-6.133330E+01,0.000000E+00,-2.563064E+00,0.000000E+00,-3.761774E+03
-1.830000E+02,-6.100000E+01,0.000000E+00,-2.549136E+00,0.000000E+00,-3.721000E+03
-1.820000E+02,-6.066670E+01,0.000000E+00,-2.535207E+00,0.000000E+00,-3.680448E+03
-1.810000E+02,-6.033330E+01,0.000000E+00,-2.521275E+00,0.000000E+00,-3.640107E+03
-1.800000E+02,-6.000000E+01,0.000000E+00,-2.507347E+00,0.000000E+00,-3.600000E+03
-1.790000E+02,-5.966670E+01,0.000000E+00,-2.493418E+00,0.000000E+00,-3.560115E+03
-1.780000E+02,-5.933330E+01,0.000000E+00,-2.479486E+00,0.000000E+00,-3.520440E+03
-1.770000E+02,-5.900000E+01,0.000000E+00,-2.465557E+00,0.000000E+00,-3.481000E+03
-1.760000E+02,-5.866670E+01,0.000000E+00,-2.451629E+00,0.000000E+00,-3.441782E+03
-1.750000E+02,-5.833330E+01,0.000000E+00,-2.437697E+00,0.000000E+00,-3.402774E+03
-1.740000E+02,-5.800000E+01,0.000000E+00,-2.423768E+00,0.000000E+00,-3.364000E+03
-1.730000E+02,-5.766670E+01,0.000000E+00,-2.409840E+00,0.000000E+00,-3.325448E+03
-1.720000E+02,-5.733330E+01,0.000000E+00,-2.395908E+00,0.000000E+00,-3.287107E+03
-1.710000E+02,-5.700000E+01,0.000000E+00,-2.381979E+00,0.000000E+00,-3.249000E+03
-1.700000E+02,-5.666670E+01,0.000000E+00,-2.368051E+00,0.000000E+00,-3.211115E+03
-1.690000E+02,-5.633330E+01,0.000000E+00,-2.354118E+00,0.000000E+00,-3.173441E+03
-1.680000E+02,-5.600000E+01,0.000000E+00,-2.340190E+00,0.000000E+00,-3.136000E+03
-1.670000E+02,-5.566670E+01,0.000000E+00,-2.326262E+00,0.000000E+00,-3.098781E+03
-1.660000E+02,-5.533330E+01,0.000000E+00,-2.312329E+00,0.000000E+00,-3.061774E+03
-1.650000E+02,-5.500000E+01,0.000000E+00,-2.298401E+00,0.000000E+00,-3.025000E+03
-1.640000E+02,-5.466670E+01,0.000000E+00,-2.284473E+00,0.000000E+00,-2.988448E+03
-1.630000E+02,-5.433330E+01,0.000000E+00,-2.270540E+00,0.000000E+00,-2.952107E+03
-1.620000E+02,-5.400000E+01,0.000000E+00,-2.256612E+00,0.000000E+00,-2.916000E+03
-1.610000E+02,-5.366670E+01,0.000000E+00,-2.242684E+00,0.000000E+00,-2.880115E+03
-1.600000E+02,-5.333330E+01,0.000000E+00,-2.228751E+00,0.000000E+00,-2.844441E+03
-1.590000E+02,-5.300000E+01,0.000000E+00,-2.214823E+00,0.000000E+00,-2.809000E+03
-1.580000E+02,-5.266670E+01,0.000000E+00,-2.200894E+00,0.000000E+00,-2.773781E+03
-1.570000E+02,-5.233330E+01,0.000000E+00,-2.186962E+00,0.000000E+00,-2.738774E+03
-1.560000E+02,-5.200000E+01,0.000000E+00,-2.173034E+00,0.000000E+00,-2.704000E+03
-1.550000E+02,-5.166670E+01,0.000000E+00,-2.159105E+00,0.000000E+00,-2.669448E+03
-1.540000E+02,-5.133330E+01,0.000000E+00,-2.145173E+00,0.000000E+00,-2.635108E+03
-1.530000E+02,-5.100000E+01,0.000000E+00,-2.131245E+00,0.000000E+00,-2.601000E+03
-1.520000E+02,-5.066670E+01,0.000000E+00,-2.117316E+00,0.000000E+00,-2.567114E+03
-1.510000E+02,-5.033330E+01,0.000000E+00,-2.103384E+00,0.000000E+00,-2.533441E+03
-1.500000E+02,-5.000000E+01,0.000000E+00,-2.089455E+00,0.000000E+00,-2.500000E+03
-1.490000E+02,-4.966670E+01,0.000000E+00,-2.075527E+00,0.000000E+00,-2.466781E+03
-1.480000E+02,-4.933330E+01,0.000000E+00,-2.061595E+00,0.000000E+00,-2.433774E+03
-1.470000E+02,-4.900000E+01,0.000000E+00,-2.047666E+00,0.000000E+00,-2.401000E+03
-1.460000E+02,-4.866670E+01,0.000000E+00,-2.033738E+00,0.000000E+00,-2.368448E+03
-1.450000E+02,-4.833330E+01,0.000000E+00,-2.019806E+00,0.000000E+00,-2.336108E+03
-1.440000E+02,-4.800000E+01,0.000000E+00,-2.005877E+00,0.000000E+00,-2.304000E+03
-1.430000E+02,-4.766670E+01,0.000000E+00,-1.991949E+00,0.000000E+00,-2.272114E+03
-1.420000E+02,-4.733330E+01,0.000000E+00,-1.978016E+00,0.000000E+00,-2.240441E+03
-1.410000E+02,-4.700000E+01,0.000000E+00,-1.964088E+00,0.000000E+00,-2.209000E+03
-1.400000E+02,-4.666670E+01,0.000000E+00,-1.950160E+00,0.000000E+00,-2.177781E+03
-1.390000E+02,-4.633330E+01,0.000000E+00,-1.936227E+00,0.000000E+00,-2.146775E+03
-1.380000E+02,-4.600000E+01,0.000000E+00,-1.922299E+00,0.000000E+00,-2.116000E+03
-1.370000E+02,-4.566670E+01,0.000000E+00,-1.908371E+00,0.000000E+00,-2.085447E+03
-1.360000E+02,-4.533330E+01,0.000000E+00,-1.894438E+00,0.000000E+00,-2.055108E+03
-1.350000E+02,-4.500000E+01,0.000000E+00,-1.880510E+00,0.000000E+00,-2.025000E+03
-1.340000E+02,-4.466670E+01,0.000000E+00,-1.866582E+00,0.000000E+00,-1.995114E+03
-1.330000E+02,-4.433330E+01,0.000000E+00,-1.852649E+00,0.000000E+00,-1.965441E+03
-1.320000E+02,-4.400000E+01,0.000000E+00,-1.838721E+00,0.000000E+00,-1.936000E+03
-1.310000E+02,-4.366670E+01,0.000000E+00,-1.824792E+00,0.000000E+00,-1.906781E+03
-1.300000E+02,-4.333330E+01,0.000000E+00,-1.810860E+00,0.000000E+00,-1.877775E+03
-1.290000E+02,-4.300000E+01,0.000000E+00,-1.796932E+00,0.000000E+00,-1.849000E+03
-1.280000E+02,-4.266670E+01,0.000000E+00,-1.783003E+00,0.000000E+00,-1.820447E+03
-1.270000E+02,-4.233330E+01,0.000000E+00,-1.769071E+00,0.000000E+00,-1.792108E+03
-1.260000E+02,-4.200000E+01,0.000000E+00,-1.755143E+00,0.000000E+00,-1.764000E+03
-1.250000E+02,-4.166670E+01,0.000000E+00,-1.741214E+00,0.000000E+00,-1.736114E+03
-1.240000E+02,-4.133330E+01,0.000000E+00,-1.727282E+00,0.000000E+00,-1.708442E+03
-1.230000E+02,-4.100000E+01,0.000000E+00,-1.713353E+00,0.000000E+00,-1.681000E+03
-1.220000E+02,-4.066670E+01,0.000000E+00,-1.699425E+00,0.000000E+00,-1.653780E+03
-1.210000E+02,-4.033330E+01,0.000000E+00,-1.685493E+00,0.000000E+00,-1.626775E+03
-1.200000E+02,-4.000000E+01,0.000000E+00,-1.671564E+00,0.000000E+00,-1.600000E+03
-1.190000E+02,-3.966670E+01,0.000000E+00,-1.657636E+00,0.000000E+00,-1.573447E+03
-1.180000E+02,-3.933330E+01,0.000000E+00,-1.643704E+00,0.000000E+00,-1.547108E+03
-1.170000E+02,-3.900000E+01,0.000000E+00,-1.629775E+00,0.000000E+00,-1.521000E+03
-1.160000E+02,-3.866670E+01,0.000000E+00,-1.615847E+00,0.000000E+00,-1.495114E+03
-1.150000E+02,-3.833330E+01,0.000000E+00,-1.601914E+00,0.000000E+00,-1.469442E+03
-1.140000E+02,-3.800000E+01,0.000000E+00,-1.587986E+00,0.000000E+00,-1.444000E+03
-1.130000E+02,-3.766670E+01,0.000000E+00,-1.574058E+00,0.000000E+00,-1.418780E+03
-1.120000E+02,-3.733330E+01,0.000000E+00,-1.560125E+00,0.000000E+00,-1.393775E+03
-1.110000E+02,-3.700000E+01,0.000000E+00,-1.546197E+00,0.000000E+00,-1.369000E+03
-1.100000E+02,-3.666670E+01,0.000000E+00,-1.532269E+00,0.000000E+00,-1.344447E+03
-1.090000E+02,-3.633330E+01,0.000000E+00,-1.518336E+00,0.000000E+00,-1.320109E+03
-1.080000E+02,-3.600000E+01,0.000000E+00,-1.504408E+00,0.000000E+00,-1.296000E+03
-1.070000E+02,-3.566670E+01,0.000000E+00,-1.490480E+00,0.000000E+00,-1.272113E+03
-1.060000E+02,-3.533330E+01,0.000000E+00,-1.476547E+00,0.000000E+00,-1.248442E+03
-1.050000E+02,-3.500000E+01,0.000000E+00,-1.462619E+00,0.000000E+00,-1.225000E+03
-1.040000E+02,-3.466670E+01,0.000000E+00,-1.448690E+00,0.000000E+00,-1.201780E+03
-1.030000E+02,-3.433330E+01,0.000000E+00,-1.434758E+00,0.000000E+00,-1.178775E+03
-1.020000E+02,-3.400000E+01,0.000000E+00,-1.420830E+00,0.000000E+00,-1.156000E+03
-1.010000E+02,-3.366670E+01,0.000000E+00,-1.406901E+00,0.000000E+00,-1.133447E+03
-1.000000E+02,-3.333330E+01,0.000000E+00,-1.392969E+00,0.000000E+00,-1.111109E+03
-9.900000E+01,-3.300000E+01,0.000000E+00,-1.379041E+00,0.000000E+00,-1.089000E+03
-9.800000E+01,-3.266670E+01,0.000000E+00,-1.365112E+00,0.000000E+00,-1.067113E+03
-9.700000E+01,-3.233330E+01,0.000000E+00,-1.351180E+00,0.000000E+00,-1.045442E+03
-9.600000E+01,-3.200000E+01,0.000000E+00,-1.337251E+00,0.000000E+00,-1.024000E+03
-9.500000E+01,-3.166670E+01,0.000000E+00,-1.323323E+00,0.000000E+00,-1.002780E+03
-9.400000E+01,-3.133330E+01,0.000000E+00,-1.309391E+00,0.000000E+00,-9.817757E+02
-9.300000E+01,-3.100000E+01,0.000000E+00,-1.295462E+00,0.000000E+00,-9.610000E+02
-9.200000E+01,-3.066670E+01,0.000000E+00,-1.281534E+00,0.000000E+00,-9.404465E+02
-9.100000E+01,-3.033330E+01,0.000000E+00,-1.267602E+00,0.000000E+00,-9.201091E+02
-9.000000E+01,-3.000000E+01,0.000000E+00,-1.253673E+00,0.000000E+00,-9.000000E+02
-8.900000E+01,-2.966670E+01,0.000000E+00,-1.239745E+00,0.000000E+00,-8.801131E+02
-8.800000E+01,-2.933330E+01,0.000000E+00,-1.225812E+00,0.000000E+00,-8.604425E+02
-8.700000E+01,-2.900000E+01,0.000000E+00,-1.211884E+00,0.000000E+00,-8.410000E+02
-8.600000E+01,-2.866670E+01,0.000000E+00,-1.197956E+00,0.000000E+00,-8.217797E+02
-8.500000E+01,-2.833330E+01,0.000000E+00,-1.184023E+00,0.000000E+00,-8.027759E+02
-8.400000E+01,-2.800000E+01,0.000000E+00,-1.170095E+00,0.000000E+00,-7.840000E+02
-8.300000E+01,-2.766670E+01,0.000000E+00,-1.156167E+00,0.000000E+00,-7.654463E+02
-8.200000E+01,-2.733330E+01,0.000000E+00,-1.142234E+00,0.000000E+00,-7.471093E+02
-8.100000E+01,-2.700000E+01,0.000000E+00,-1.128306E+00,0.000000E+00,-7.290000E+02
-8.000000E+01,-2.666670E+01,0.000000E+00,-1.114378E+00,0.000000E+00,-7.111129E+02
-7.900000E+01,-2.633330E+01,0.000000E+00,-1.100445E+00,0.000000E+00,-6.934427E+02
-7.800000E+01,-2.600000E+01,0.000000E+00,-1.086517E+00,0.000000E+00,-6.760000E+02
-7.700000E+01,-2.566670E+01,0.000000E+00,-1.072589E+00,0.000000E+00,-6.587795E+02
-7.600000E+01,-2.533330E+01,0.000000E+00,-1.058656E+00,0.000000E+00,-6.417761E+02
-7.500000E+01,-2.500000E+01,0.000000E+00,-1.044728E+00,0.000000E+00,-6.250000E+02
-7.400000E+01,-2.466670E+01,0.000000E+00,-1.030799E+00,0.000000E+00,-6.084461E+02
-7.300000E+01,-2.433330E+01,0.000000E+00,-1.016867E+00,0.000000E+00,-5.921095E+02
-7.200000E+01,-2.400000E+01,0.000000E+00,-1.002939E+00,0.000000E+00,-5.760000E+02
-7.100000E+01,-2.366670E+01,0.000000E+00,-9.890103E-01,0.000000E+00,-5.601127E+02
-7.000000E+01,-2.333330E+01,0.000000E+00,-9.750778E-01,0.000000E+00,-5.444429E+02
-6.900000E+01,-2.300000E+01,0.000000E+00,-9.611495E-01,0.000000E+00,-5.290000E+02
-6.800000E+01,-2.266670E+01,0.000000E+00,-9.472212E-01,0.000000E+00,-5.137793E+02
-6.700000E+01,-2.233330E+01,0.000000E+00,-9.332887E-01,0.000000E+00,-4.987763E+02
-6.600000E+01,-2.200000E+01,0.000000E+00,-9.193604E-01,0.000000E+00,-4.840000E+02
-6.500000E+01,-2.166670E+01,0.000000E+00,-9.054321E-01,0.000000E+00,-4.694459E+02
-6.400000E+01,-2.133330E+01,0.000000E+00,-8.914996E-01,0.000000E+00,-4.551097E+02
-6.300000E+01,-2.100000E+01,0.000000E+00,-8.775713E-01,0.000000E+00,-4.410000E+02
-6.200000E+01,-2.066670E+01,0.000000E+00,-8.636430E-01,0.000000E+00,-4.271125E+02
-6.100000E+01,-2.033330E+01,0.000000E+00,-8.497105E-01,0.000000E+00,-4.134431E+02
-6.000000E+01,-2.000000E+01,0.000000E+00,-8.357822E-01,0.000000E+00,-4.000000E+02
-5.900000E+01,-1.966670E+01,0.000000E+00,-8.218539E-01,0.000000E+00,-3.867791E+02
-5.800000E+01,-1.933330E+01,0.000000E+00,-8.079214E-01,0.000000E+00,-3.737765E+02
-5.700000E+01,-1.900000E+01,0.000000E+00,-7.939931E-01,0.000000E+00,-3.610000E+02
-5.600000E+01,-1.866670E+01,0.000000E+00,-7.800648E-01,0.000000E+00,-3.484457E+02
-5.500000E+01,-1.833330E+01,0.000000E+00,-7.661323E-01,0.000000E+00,-3.361099E+02
-5.400000E+01,-1.800000E+01,0.000000E+00,-7.522040E-01,0.000000E+00,-3.240000E+02
-5.300000E+01,-1.766670E+01,0.000000E+00,-7.382756E-01,0.000000E+00,-3.121123E+02
-5.200000E+01,-1.733330E+01,0.000000E+00,-7.243432E-01,0.000000E+00,-3.004433E+02
-5.100000E+01,-1.700000E+01,0.000000E+00,-7.104148E-01,0.000000E+00,-2.890000E+02
-5.000000E+01,-1.666670E+01,0.000000E+00,-6.964865E-01,0.000000E+00,-2.777789E+02
-4.900000E+01,-1.633330E+01,0.000000E+00,-6.825541E-01,0.000000E+00,-2.667767E+02
-4.800000E+01,-1.600000E+01,0.000000E+00,-6.686257E-01,0.000000E+00,-2.560000E+02
-4.700000E+01,-1.566670E+01,0.000000E+00,-6.546974E-01,0.000000E+00,-2.454455E+02
-4.600000E+01,-1.533330E+01,0.000000E+00,-6.407649E-01,0.000000E+00,-2.351101E+02
-4.500000E+01,-1.500000E+01,0.000000E+00,-6.268366E-01,0.000000E+00,-2.250000E+02
-4.400000E+01,-1.466670E+01,0.000000E+00,-6.129083E-01,0.000000E+00,-2.151121E+02
-4.300000E+01,-1.433330E+01,0.000000E+00,-5.989758E-01,0.000000E+00,-2.054435E+02
-4.200000E+01,-1.400000E+01,0.000000E+00,-5.850475E-01,0.000000E+00,-1.960000E+02
-4.100000E+01,-1.366670E+01,0.000000E+00,-5.711192E-01,0.000000E+00,-1.867787E+02
-4.000000E+01,-1.333330E+01,0.000000E+00,-5.571867E-01,0.000000E+00,-1.777769E+02
-3.900000E+01,-1.300000E+01,0.000000E+00,-5.432584E-01,0.000000E+00,-1.690000E+02
-3.800000E+01,-1.266670E+01,0.000000E+00,-5.293301E-01,0.000000E+00,-1.604453E+02
-3.700000E+01,-1.233330E+01,0.000000E+00,-5.153976E-01,0.000000E+00,-1.521103E+02
-3.600000E+01,-1.200000E+01,0.000000E+00,-5.014693E-01,0.000000E+00,-1.440000E+02
-3.500000E+01,-1.166670E+01,0.000000E+00,-4.875410E-01,0.000000E+00,-1.361119E+02
-3.400000E+01,-1.133330E+01,0.000000E+00,-4.736085E-01,0.000000E+00,-1.284437E+02
-3.300000E+01,-1.100000E+01,0.000000E+00,-4.596802E-01,0.000000E+00,-1.210000E+02
-3.200000E+01,-1.066670E+01,0.000000E+00,-4.457519E-01,0.000000E+00,-1.137785E+02
-3.100000E+01,-1.033330E+01,0.000000E+00,-4.318194E-01,0.000000E+00,-1.067771E+02
-3.000000E+01,-1.000000E+01,0.000000E+00,-4.178911E-01,0.000000E+00,-1.000000E+02
-2.900000E+01,-9.666670E+00,0.000000E+00,-4.039615E-01,0.000000E+00,-9.344451E+01
-2.800000E+01,-9.333330E+00,0.000000E+00,-3.900315E-01,0.000000E+00,-8.711105E+01
-2.700000E+01,-9.000000E+00,0.000000E+00,-3.761020E-01,0.000000E+00,-8.100000E+01
-2.600000E+01,-8.666670E+00,0.000000E+00,-3.621724E-01,0.000000E+00,-7.511117E+01
-2.500000E+01,-8.333330E+00,0.000000E+00,-3.482424E-01,0.000000E+00,-6.944439E+01
-2.400000E+01,-8.000000E+00,0.000000E+00,-3.343129E-01,0.000000E+00,-6.400000E+01
-2.300000E+01,-7.666670E+00,0.000000E+00,-3.203833E-01,0.000000E+00,-5.877783E+01
-2.200000E+01,-7.333330E+00,0.000000E+00,-3.064533E-01,0.000000E+00,-5.377773E+01
-2.100000E+01,-7.000000E+00,0.000000E+00,-2.925238E-01,0.000000E+00,-4.900000E+01
-2.000000E+01,-6.666670E+00,0.000000E+00,-2.785942E-01,0.000000E+00,-4.444449E+01
-1.900000E+01,-6.333330E+00,0.000000E+00,-2.646642E-01,0.000000E+00,-4.011107E+01
-1.800000E+01,-6.000000E+00,0.000000E+00,-2.507347E-01,0.000000E+00,-3.600000E+01
-1.700000E+01,-5.666670E+00,0.000000E+00,-2.368051E-01,0.000000E+00,-3.211115E+01
-1.600000E+01,-5.333330E+00,0.000000E+00,-2.228751E-01,0.000000E+00,-2.844441E+01
-1.500000E+01,-5.000000E+00,0.000000E+00,-2.089455E-01,0.000000E+00,-2.500000E+01
-1.400000E+01,-4.666670E+00,0.000000E+00,-1.950160E-01,0.000000E+00,-2.177781E+01
-1.300000E+01,-4.333330E+00,0.000000E+00,-1.810860E-01,0.000000E+00,-1.877775E+01
-1.200000E+01,-4.000000E+00,0.000000E+00,-1.671564E-01,0.000000E+00,-1.600000E+01
-1.100000E+01,-3.666670E+00,0.000000E+00,-1.532269E-01,0.000000E+00,-1.344447E+01
-1.000000E+01,-3.333330E+00,0.000000E+00,-1.392969E-01,0.000000E+00,-1.111109E+01
-9.000000E+00,-3.000000E+00,0.000000E+00,-1.253673E-01,0.000000E+00,-9.000000E+00
-8.000000E+00,-2.666670E+00,0.000000E+00,-1.114378E-01,0.000000E+00,-7.111129E+00
-7.000000E+00,-2.333330E+00,0.000000E+00,-9.750778E-02,0.000000E+00,-5.444429E+00
-6.000000E+00,-2.000000E+00,0.000000E+00,-8.357822E-02,0.000000E+00,-4.000000E+00
-5.000000E+00,-1.666670E+00,0.000000E+00,-6.964865E-02,0.000000E+00,-2.777789E+00
-4.000000E+00,-1.333330E+00,0.000000E+00,-5.571867E-02,0.000000E+00,-1.777769E+00
-3.000000E+00,-1.000000E+00,0.000000E+00,-4.178911E-02,0.000000E+00,-1.000000E+00
-2.000000E+00,-6.666670E-01,2.594906E-04,-2.785942E-02,6.209528E-03,-4.444449E-01
-1.000000E+00,-3.333330E-01,9.909818E-03,-1.392969E-02,2.371388E-01,-1.111109E-01
0.000000E+00,0.000000E+00,2.901172E-02,0.000000E+00,6.942412E-01,0.000000E+00
1.000000E+00,3.333330E-01,3.762167E-02,1.392969E-02,9.002745E-01,1.111109E-01
2.000000E+00,6.666670E-01,3.988416E-02,2.785942E-02,9.544151E-01,4.444449E-01
3.000000E+00,1.000000E+00,4.034292E-02,4.178911E-02,9.653932E-01,1.000000E+00
4.000000E+00,1.333330E+00,4.022579E-02,5.571867E-02,9.625903E-01,1.777769E+00
5.000000E+00,1.666670E+00,3.994223E-02,6.964865E-02,9.558048E-01,2.777789E+00
6.000000E+00,2.000000E+00,3.957003E-02,8.357822E-02,9.468982E-01,4.000000E+00
7.000000E+00,2.333330E+00,3.913704E-02,9.750778E-02,9.365368E-01,5.444429E+00
8.000000E+00,2.666670E+00,3.871982E-02,1.114378E-01,9.265528E-01,7.111129E+00
9.000000E+00,3.000000E+00,3.835490E-02,1.253673E-01,9.178205E-01,9.000000E+00
1.000000E+01,3.333330E+00,3.796358E-02,1.392969E-01,9.084564E-01,1.111109E+01
1.100000E+01,3.666670E+00,3.758058E-02,1.532269E-01,8.992913E-01,1.344447E+01
1.200000E+01,4.000000E+00,3.718220E-02,1.671564E-01,8.897582E-01,1.600000E+01
1.300000E+01,4.333330E+00,3.680818E-02,1.810860E-01,8.808080E-01,1.877775E+01
1.400000E+01,4.666670E+00,3.639806E-02,1.950160E-01,8.709940E-01,2.177781E+01
1.500000E+01,5.000000E+00,3.606623E-02,2.089455E-01,8.630534E-01,2.500000E+01
1.600000E+01,5.333330E+00,3.567843E-02,2.228751E-01,8.537735E-01,2.844441E+01
1.700000E+01,5.666670E+00,3.534864E-02,2.368051E-01,8.458816E-01,3.211115E+01
1.800000E+01,6.000000E+00,3.500189E-02,2.507347E-01,8.375841E-01,3.600000E+01
1.900000E+01,6.333330E+00,3.465479E-02,2.646642E-01,8.292780E-01,4.011107E+01
2.000000E+01,6.666670E+00,3.429354E-02,2.785942E-01,8.206335E-01,4.444449E+01
2.100000E+01,7.000000E+00,3.398701E-02,2.925238E-01,8.132984E-01,4.900000E+01
2.200000E+01,7.333330E+00,3.371298E-02,3.064533E-01,8.067408E-01,5.377773E+01
2.300000E+01,7.666670E+00,3.335616E-02,3.203833E-01,7.982022E-01,5.877783E+01
2.400000E+01,8.000000E+00,3.302356E-02,3.343129E-01,7.902431E-01,6.400000E+01
2.500000E+01,8.333330E+00,3.270643E-02,3.482424E-01,7.826544E-01,6.944439E+01
2.600000E+01,8.666670E+00,3.234353E-02,3.621724E-01,7.739703E-01,7.511117E+01
2.700000E+01,9.000000E+00,3.197445E-02,3.761020E-01,7.651383E-01,8.100000E+01
2.800000E+01,9.333330E+00,3.165140E-02,3.900315E-01,7.574079E-01,8.711105E+01
2.900000E+01,9.666670E+00,3.129945E-02,4.039615E-01,7.489858E-01,9.344451E+01
3.000000E+01,1.000000E+01,3.098065E-02,4.178911E-01,7.413570E-01,1.000000E+02
3.100000E+01,1.033330E+01,3.061599E-02,4.318194E-01,7.326309E-01,1.067771E+02
3.200000E+01,1.066670E+01,3.028206E-02,4.457519E-01,7.246399E-01,1.137785E+02
3.300000E+01,1.100000E+01,2.991429E-02,4.596802E-01,7.158393E-01,1.210000E+02
3.400000E+01,1.133330E+01,2.957778E-02,4.736085E-01,7.077867E-01,1.284437E+02
3.500000E+01,1.166670E+01,2.921503E-02,4.875410E-01,6.991064E-01,1.361119E+02
3.600000E+01,1.200000E+01,2.891462E-02,5.014693E-01,6.919176E-01,1.440000E+02
3.700000E+01,1.233330E+01,2.853793E-02,5.153976E-01,6.829036E-01,1.521103E+02
3.800000E+01,1.266670E+01,2.821013E-02,5.293301E-01,6.750593E-01,1.604453E+02
3.900000E+01,1.300000E+01,2.779375E-02,5.432584E-01,6.650956E-01,1.690000E+02
4.000000E+01,1.333330E+01,2.746721E-02,5.571867E-01,6.572815E-01,1.777769E+02
4.100000E+01,1.366670E+01,2.713389E-02,5.711192E-01,6.493054E-01,1.867787E+02
4.200000E+01,1.400000E+01,2.680693E-02,5.850475E-01,6.414812E-01,1.960000E+02
4.300000E+01,1.433330E+01,2.648768E-02,5.989758E-01,6.338418E-01,2.054435E+02
4.400000E+01,1.466670E+01,2.617608E-02,6.129083E-01,6.263851E-01,2.151121E+02
4.500000E+01,1.500000E+01,2.587904E-02,6.268366E-01,6.192771E-01,2.250000E+02
4.600000E+01,1.533330E+01,2.554169E-02,6.407649E-01,6.112044E-01,2.351101E+02
4.700000E+01,1.566670E+01,2.529199E-02,6.546974E-01,6.052292E-01,2.454455E+02
4.800000E+01,1.600000E+01,2.493108E-02,6.686257E-01,5.965928E-01,2.560000E+02
4.900000E+01,1.633330E+01,2.459864E-02,6.825541E-01,5.886377E-01,2.667767E+02
5.000000E+01,1.666670E+01,2.432687E-02,6.964865E-01,5.821342E-01,2.777789E+02
5.100000E+01,1.700000E+01,2.403801E-02,7.104148E-01,5.752219E-01,2.890000E+02
5.200000E+01,1.733330E+01,2.368805E-02,7.243432E-01,5.668474E-01,3.004433E+02
5.300000E+01,1.766670E+01,2.339274E-02,7.382756E-01,5.597808E-01,3.121123E+02
5.400000E+01,1.800000E+01,2.307178E-02,7.522040E-01,5.521004E-01,3.240000E+02
5.500000E+01,1.833330E+01,2.275495E-02,7.661323E-01,5.445188E-01,3.361099E+02
5.600000E+01,1.866670E+01,2.244666E-02,7.800648E-01,5.371413E-01,3.484457E+02
5.700000E+01,1.900000E+01,2.218132E-02,7.939931E-01,5.307920E-01,3.610000E+02
5.800000E+01,1.933330E+01,2.185660E-02,8.079214E-01,5.230214E-01,3.737765E+02
5.900000E+01,1.966670E+01,2.154193E-02,8.218539E-01,5.154916E-01,3.867791E+02
6.000000E+01,2.000000E+01,2.125295E-02,8.357822E-01,5.085763E-01,4.000000E+02
6.100000E+01,2.033330E+01,2.093172E-02,8.497105E-01,5.008894E-01,4.134431E+02
6.200000E+01,2.066670E+01,2.064256E-02,8.636430E-01,4.939698E-01,4.271125E+02
6.300000E+01,2.100000E+01,2.036820E-02,8.775713E-01,4.874045E-01,4.410000E+02
6.400000E+01,2.133330E+01,2.009871E-02,8.914996E-01,4.809558E-01,4.551097E+02
6.500000E+01,2.166670E+01,1.981249E-02,9.054321E-01,4.741065E-01,4.694459E+02
6.600000E+01,2.200000E+01,1.951311E-02,9.193604E-01,4.669426E-01,4.840000E+02
6.700000E+01,2.233330E+01,1.923151E-02,9.332887E-01,4.602038E-01,4.987763E+02
6.800000E+01,2.266670E+01,1.894810E-02,9.472212E-01,4.534220E-01,5.137793E+02
6.900000E+01,2.300000E+01,1.867373E-02,9.611495E-01,4.468564E-01,5.290000E+02
7.000000E+01,2.333330E+01,1.839299E-02,9.750778E-01,4.401384E-01,5.444429E+02
7.100000E+01,2.366670E+01,1.807328E-02,9.890103E-01,4.324878E-01,5.601127E+02
7.200000E+01,2.400000E+01,1.779201E-02,1.002939E+00,4.257572E-01,5.760000E+02
7.300000E+01,2.433330E+01,1.754168E-02,1.016867E+00,4.197669E-01,5.921095E+02
7.400000E+01,2.466670E+01,1.724942E-02,1.030799E+00,4.127731E-01,6.084461E+02
7.500000E+01,2.500000E+01,1.697165E-02,1.044728E+00,4.061261E-01,6.250000E+02
7.600000E+01,2.533330E+01,1.671817E-02,1.058656E+00,4.000605E-01,6.417761E+02
7.700000E+01,2.566670E+01,1.645835E-02,1.072589E+00,3.938430E-01,6.587795E+02
7.800000E+01,2.600000E+01,1.623075E-02,1.086517E+00,3.883967E-01,6.760000E+02
7.900000E+01,2.633330E+01,1.596593E-02,1.100445E+00,3.820597E-01,6.934427E+02
8.000000E+01,2.666670E+01,1.575648E-02,1.114378E+00,3.770475E-01,7.111129E+02
8.100000E+01,2.700000E+01,1.549509E-02,1.128306E+00,3.707925E-01,7.290000E+02
8.200000E+01,2.733330E+01,1.528913E-02,1.142234E+00,3.658641E-01,7.471093E+02
8.300000E+01,2.766670E+01,1.502281E-02,1.156167E+00,3.594910E-01,7.654463E+02
8.400000E+01,2.800000E+01,1.478883E-02,1.170095E+00,3.538920E-01,7.840000E+02
8.500000E+01,2.833330E+01,1.454203E-02,1.184023E+00,3.479862E-01,8.027759E+02
8.600000E+01,2.866670E+01,1.428780E-02,1.197956E+00,3.419025E-01,8.217797E+02
8.700000E+01,2.900000E+01,1.405093E-02,1.211884E+00,3.362343E-01,8.410000E+02
8.800000E+01,2.933330E+01,1.381489E-02,1.225812E+00,3.305859E-01,8.604425E+02
8.900000E+01,2.966670E+01,1.360757E-02,1.239745E+00,3.256249E-01,8.801131E+02
9.000000E+01,3.000000E+01,1.336723E-02,1.253673E+00,3.198736E-01,9.000000E+02
9.100000E+01,3.033330E+01,1.315455E-02,1.267602E+00,3.147841E-01,9.201091E+02
9.200000E+01,3.066670E+01,1.295420E-02,1.281534E+00,3.099899E-01,9.404465E+02
9.300000E+01,3.100000E+01,1.270586E-02,1.295462E+00,3.040472E-01,9.610000E+02
9.400000E+01,3.133330E+01,1.250032E-02,1.309391E+00,2.991287E-01,9.817757E+02
9.500000E+01,3.166670E+01,1.226984E-02,1.323323E+00,2.936133E-01,1.002780E+03
9.600000E+01,3.200000E+01,1.204564E-02,1.337251E+00,2.882483E-01,1.024000E+03
9.700000E+01,3.233330E+01,1.186548E-02,1.351180E+00,2.839371E-01,1.045442E+03
9.800000E+01,3.266670E+01,1.164778E-02,1.365112E+00,2.787276E-01,1.067113E+03
9.900000E+01,3.300000E+01,1.143709E-02,1.379041E+00,2.736860E-01,1.089000E+03
1.000000E+02,3.333330E+01,1.123282E-02,1.392969E+00,2.687977E-01,1.111109E+03
1.010000E+02,3.366670E+01,1.102682E-02,1.406901E+00,2.638684E-01,1.133447E+03
1.020000E+02,3.400000E+01,1.079937E-02,1.420830E+00,2.584255E-01,1.156000E+03
1.030000E+02,3.433330E+01,1.061371E-02,1.434758E+00,2.539828E-01,1.178775E+03
1.040000E+02,3.466670E+01,1.040000E-02,1.448690E+00,2.488687E-01,1.201780E+03
1.050000E+02,3.500000E+01,1.023221E-02,1.462619E+00,2.448535E-01,1.225000E+03
1.060000E+02,3.533330E+01,1.002326E-02,1.476547E+00,2.398535E-01,1.248442E+03
1.070000E+02,3.566670E+01,9.796299E-03,1.490480E+00,2.344223E-01,1.272113E+03
1.080000E+02,3.600000E+01,9.595764E-03,1.504408E+00,2.296236E-01,1.296000E+03
1.090000E+02,3.633330E+01,9.408501E-03,1.518336E+00,2.251424E-01,1.320109E+03
1.100000E+02,3.666670E+01,9.247855E-03,1.532269E+00,2.212982E-01,1.344447E+03
1.110000E+02,3.700000E+01,9.058853E-03,1.546197E+00,2.167755E-01,1.369000E+03
1.120000E+02,3.733330E+01,8.868850E-03,1.560125E+00,2.122287E-01,1.393775E+03
1.130000E+02,3.766670E+01,8.693618E-03,1.574058E+00,2.080355E-01,1.418780E+03
1.140000E+02,3.800000E+01,8.530218E-03,1.587986E+00,2.041254E-01,1.444000E+03
1.150000E+02,3.833330E+01,8.338195E-03,1.601914E+00,1.995303E-01,1.469442E+03
1.160000E+02,3.866670E+01,8.181330E-03,1.615847E+00,1.957766E-01,1.495114E+03
1.170000E+02,3.900000E+01,8.047328E-03,1.629775E+00,1.925700E-01,1.521000E+03
1.180000E+02,3.933330E+01,7.891173E-03,1.643704E+00,1.888332E-01,1.547108E+03
1.190000E+02,3.966670E+01,7.736992E-03,1.657636E+00,1.851437E-01,1.573447E+03
1.200000E+02,4.000000E+01,7.580185E-03,1.671564E+00,1.813914E-01,1.600000E+03
1.210000E+02,4.033330E+01,7.414386E-03,1.685493E+00,1.774239E-01,1.626775E+03
1.220000E+02,4.066670E+01,7.250560E-03,1.699425E+00,1.735036E-01,1.653780E+03
1.230000E+02,4.100000E+01,7.095717E-03,1.713353E+00,1.697982E-01,1.681000E+03
1.240000E+02,4.133330E+01,6.966652E-03,1.727282E+00,1.667098E-01,1.708442E+03
1.250000E+02,4.166670E+01,6.829243E-03,1.741214E+00,1.634216E-01,1.736114E+03
1.260000E+02,4.200000E+01,6.695073E-03,1.755143E+00,1.602110E-01,1.764000E+03
1.270000E+02,4.233330E+01,6.553104E-03,1.769071E+00,1.568137E-01,1.792108E+03
1.280000E+02,4.266670E+01,6.400297E-03,1.783003E+00,1.531571E-01,1.820447E+03
1.290000E+02,4.300000E+01,6.255303E-03,1.796932E+00,1.496874E-01,1.849000E+03
1.300000E+02,4.333330E+01,6.122174E-03,1.810860E+00,1.465017E-01,1.877775E+03
1.310000E+02,4.366670E+01,5.973198E-03,1.824792E+00,1.429367E-01,1.906781E+03
1.320000E+02,4.400000E+01,5.820969E-03,1.838721E+00,1.392939E-01,1.936000E+03
1.330000E+02,4.433330E+01,5.697066E-03,1.852649E+00,1.363290E-01,1.965441E+03
1.340000E+02,4.466670E+01,5.576644E-03,1.866582E+00,1.334473E-01,1.995114E+03
1.350000E+02,4.500000E+01,5.463659E-03,1.880510E+00,1.307436E-01,2.025000E+03
1.360000E+02,4.533330E+01,5.355946E-03,1.894438E+00,1.281661E-01,2.055108E+03
1.370000E+02,4.566670E+01,5.214881E-03,1.908371E+00,1.247904E-01,2.085447E+03
1.380000E+02,4.600000E+01,5.093312E-03,1.922299E+00,1.218813E-01,2.116000E+03
1.390000E+02,4.633330E+01,4.979239E-03,1.936227E+00,1.191516E-01,2.146775E+03
1.400000E+02,4.666670E+01,4.890691E-03,1.950160E+00,1.170327E-01,2.177781E+03
1.410000E+02,4.700000E+01,4.774824E-03,1.964088E+00,1.142600E-01,2.209000E+03
1.420000E+02,4.733330E+01,4.672923E-03,1.978016E+00,1.118215E-01,2.240441E+03
1.430000E+02,4.766670E+01,4.564542E-03,1.991949E+00,1.092280E-01,2.272114E+03
1.440000E+02,4.800000E+01,4.468994E-03,2.005877E+00,1.069416E-01,2.304000E+03
1.450000E+02,4.833330E+01,4.364017E-03,2.019806E+00,1.044295E-01,2.336108E+03
1.460000E+02,4.866670E+01,4.251541E-03,2.033738E+00,1.017380E-01,2.368448E+03
1.470000E+02,4.900000E+01,4.168773E-03,2.047666E+00,9.975740E-02,2.401000E+03
1.480000E+02,4.933330E+01,4.060303E-03,2.061595E+00,9.716175E-02,2.433774E+03
1.490000E+02,4.966670E+01,3.963334E-03,2.075527E+00,9.484132E-02,2.466781E+03
1.500000E+02,5.000000E+01,3.857148E-03,2.089455E+00,9.230031E-02,2.500000E+03
1.510000E+02,5.033330E+01,3.756690E-03,2.103384E+00,8.989639E-02,2.533441E+03
1.520000E+02,5.066670E+01,3.663419E-03,2.117316E+00,8.766445E-02,2.567114E+03
1.530000E+02,5.100000E+01,3.572765E-03,2.131245E+00,8.549512E-02,2.601000E+03
1.540000E+02,5.133330E+01,3.468103E-03,2.145173E+00,8.299060E-02,2.635108E+03
1.550000E+02,5.166670E+01,3.374828E-03,2.159105E+00,8.075855E-02,2.669448E+03
1.560000E+02,5.200000E+01,3.285435E-03,2.173034E+00,7.861940E-02,2.704000E+03
1.570000E+02,5.233330E+01,3.202027E-03,2.186962E+00,7.662347E-02,2.738774E+03
1.580000E+02,5.266670E+01,3.125403E-03,2.200894E+00,7.478990E-02,2.773781E+03
1.590000E+02,5.300000E+01,3.049336E-03,2.214823E+00,7.296963E-02,2.809000E+03
1.600000E+02,5.333330E+01,2.961957E-03,2.228751E+00,7.087869E-02,2.844441E+03
1.610000E+02,5.366670E+01,2.891152E-03,2.242684E+00,6.918433E-02,2.880115E+03
1.620000E+02,5.400000E+01,2.829750E-03,2.256612E+00,6.771502E-02,2.916000E+03
1.630000E+02,5.433330E+01,2.764040E-03,2.270540E+00,6.614260E-02,2.952107E+03
1.640000E+02,5.466670E+01,2.682473E-03,2.284473E+00,6.419073E-02,2.988448E+03
1.650000E+02,5.500000E+01,2.620372E-03,2.298401E+00,6.270466E-02,3.025000E+03
1.660000E+02,5.533330E+01,2.561623E-03,2.312329E+00,6.129882E-02,3.061774E+03
1.670000E+02,5.566670E+01,2.494364E-03,2.326262E+00,5.968932E-02,3.098781E+03
1.680000E+02,5.600000E+01,2.415245E-03,2.340190E+00,5.779604E-02,3.136000E+03
1.690000E+02,5.633330E+01,2.351622E-03,2.354118E+00,5.627355E-02,3.173441E+03
1.700000E+02,5.666670E+01,2.282518E-03,2.368051E+00,5.461993E-02,3.211115E+03
1.710000E+02,5.700000E+01,2.209939E-03,2.381979E+00,5.288313E-02,3.249000E+03
1.720000E+02,5.733330E+01,2.148106E-03,2.395908E+00,5.140350E-02,3.287107E+03
1.730000E+02,5.766670E+01,2.087687E-03,2.409840E+00,4.995769E-02,3.325448E+03
1.740000E+02,5.800000E+01,2.037276E-03,2.423768E+00,4.875135E-02,3.364000E+03
1.750000E+02,5.833330E+01,1.982070E-03,2.437697E+00,4.743029E-02,3.402774E+03
1.760000E+02,5.866670E+01,1.927147E-03,2.451629E+00,4.611602E-02,3.441782E+03
1.770000E+02,5.900000E+01,1.875412E-03,2.465557E+00,4.487802E-02,3.481000E+03
1.780000E+02,5.933330E+01,1.820557E-03,2.479486E+00,4.356535E-02,3.520440E+03
1.790000E+02,5.966670E+01,1.764624E-03,2.493418E+00,4.222688E-02,3.560115E+03
1.800000E+02,6.000000E+01,1.714563E-03,2.507347E+00,4.102894E-02,3.600000E+03
1.810000E+02,6.033330E+01,1.669848E-03,2.521275E+00,3.995894E-02,3.640107E+03
1.820000E+02,6.066670E+01,1.624398E-03,2.535207E+00,3.887132E-02,3.680448E+03
1.830000E+02,6.100000E+01,1.575151E-03,2.549136E+00,3.769286E-02,3.721000E+03
1.840000E+02,6.133330E+01,1.510936E-03,2.563064E+00,3.615621E-02,3.761774E+03
1.850000E+02,6.166670E+01,1.470142E-03,2.576996E+00,3.518004E-02,3.802782E+03
1.860000E+02,6.200000E+01,1.434830E-03,2.590925E+00,3.433503E-02,3.844000E+03
1.870000E+02,6.233330E+01,1.380368E-03,2.604853E+00,3.303176E-02,3.885440E+03
1.880000E+02,6.266670E+01,1.343402E-03,2.618786E+00,3.214719E-02,3.927115E+03
1.890000E+02,6.300000E+01,1.318824E-03,2.632714E+00,3.155903E-02,3.969000E+03
1.900000E+02,6.333330E+01,1.282639E-03,2.646642E+00,3.069313E-02,4.011107E+03
1.910000E+02,6.366670E+01,1.245697E-03,2.660575E+00,2.980912E-02,4.053449E+03
1.920000E+02,6.400000E+01,1.214263E-03,2.674503E+00,2.905693E-02,4.096000E+03
1.930000E+02,6.433330E+01,1.180138E-03,2.688431E+00,2.824032E-02,4.138773E+03
1.940000E+02,6.466670E+01,1.149600E-03,2.702364E+00,2.750957E-02,4.181782E+03
1.950000E+02,6.500000E+01,1.113634E-03,2.716292E+00,2.664891E-02,4.225000E+03
1.960000E+02,6.533330E+01,1.086649E-03,2.730220E+00,2.600315E-02,4.268440E+03
1.970000E+02,6.566670E+01,1.055792E-03,2.744153E+00,2.526476E-02,4.312115E+03
1.980000E+02,6.600000E+01,1.025793E-03,2.758081E+00,2.454689E-02,4.356000E+03
1.990000E+02,6.633330E+01,9.962932E-04,2.772009E+00,2.384098E-02,4.400107E+03
2.000000E+02,6.666670E+01,9.648880E-04,2.785942E+00,2.308946E-02,4.444449E+03
2.010000E+02,6.700000E+01,9.364892E-04,2.799870E+00,2.240989E-02,4.489000E+03
2.020000E+02,6.733330E+01,8.967784E-04,2.813799E+00,2.145962E-02,4.533773E+03
2.030000E+02,6.766670E+01,8.673396E-04,2.827731E+00,2.075516E-02,4.578782E+03
2.040000E+02,6.800000E+01,8.443256E-04,2.841659E+00,2.020444E-02,4.624000E+03
2.050000E+02,6.833330E+01,8.101057E-04,2.855588E+00,1.938557E-02,4.669440E+03
2.060000E+02,6.866670E+01,7.828201E-04,2.869520E+00,1.873263E-02,4.715116E+03
2.070000E+02,6.900000E+01,7.587999E-04,2.883449E+00,1.815784E-02,4.761000E+03
2.080000E+02,6.933330E+01,7.396871E-04,2.897377E+00,1.770047E-02,4.807106E+03
2.090000E+02,6.966670E+01,7.133208E-04,2.911309E+00,1.706954E-02,4.853449E+03
2.100000E+02,7.000000E+01,6.850799E-04,2.925238E+00,1.639374E-02,4.900000E+03
2.110000E+02,7.033330E+01,6.603194E-04,2.939166E+00,1.580123E-02,4.946773E+03
2.120000E+02,7.066670E+01,6.381244E-04,2.953098E+00,1.527011E-02,4.993782E+03
2.130000E+02,7.100000E+01,6.135032E-04,2.967027E+00,1.468094E-02,5.041000E+03
2.140000E+02,7.133330E+01,5.995889E-04,2.980955E+00,1.434797E-02,5.088440E+03
2.150000E+02,7.166670E+01,5.700332E-04,2.994888E+00,1.364071E-02,5.136116E+03
2.160000E+02,7.200000E+01,5.494295E-04,3.008816E+00,1.314767E-02,5.184000E+03
2.170000E+02,7.233330E+01,5.346386E-04,3.022744E+00,1.279373E-02,5.232106E+03
2.180000E+02,7.266670E+01,5.183972E-04,3.036677E+00,1.240508E-02,5.280449E+03
2.190000E+02,7.300000E+01,4.972715E-04,3.050605E+00,1.189955E-02,5.329000E+03
2.200000E+02,7.333330E+01,4.813441E-04,3.064533E+00,1.151841E-02,5.377773E+03
2.210000E+02,7.366670E+01,4.631940E-04,3.078466E+00,1.108408E-02,5.426783E+03
2.220000E+02,7.400000E+01,4.439751E-04,3.092394E+00,1.062418E-02,5.476000E+03
2.230000E+02,7.433330E+01,4.308362E-04,3.106322E+00,1.030977E-02,5.525439E+03
2.240000E+02,7.466670E+01,4.163941E-04,3.120255E+00,9.964178E-03,5.575116E+03
2.250000E+02,7.500000E+01,3.981764E-04,3.134183E+00,9.528234E-03,5.625000E+03
2.260000E+02,7.533330E+01,3.879570E-04,3.148111E+00,9.283688E-03,5.675106E+03
2.270000E+02,7.566670E+01,3.746022E-04,3.162044E+00,8.964112E-03,5.725449E+03
2.280000E+02,7.600000E+01,3.589089E-04,3.175972E+00,8.588576E-03,5.776000E+03
2.290000E+02,7.633330E+01,3.483296E-04,3.189901E+00,8.335417E-03,5.826773E+03
2.300000E+02,7.666670E+01,3.374583E-04,3.203833E+00,8.075269E-03,5.877783E+03
2.310000E+02,7.700000E+01,3.228562E-04,3.217761E+00,7.725846E-03,5.929000E+03
2.320000E+02,7.733330E+01,3.134402E-04,3.231690E+00,7.500524E-03,5.980439E+03
2.330000E+02,7.766670E+01,3.052280E-04,3.245622E+00,7.304008E-03,6.032116E+03
2.340000E+02,7.800000E+01,2.926620E-04,3.259550E+00,7.003308E-03,6.084000E+03
2.350000E+02,7.833330E+01,2.816099E-04,3.273479E+00,6.738835E-03,6.136106E+03
2.360000E+02,7.866670E+01,2.705435E-04,3.287411E+00,6.474019E-03,6.188450E+03
2.370000E+02,7.900000E+01,2.590848E-04,3.301340E+00,6.199816E-03,6.241000E+03
2.380000E+02,7.933330E+01,2.479024E-04,3.315268E+00,5.932226E-03,6.293772E+03
2.390000E+02,7.966670E+01,2.434614E-04,3.329200E+00,5.825954E-03,6.346783E+03
2.400000E+02,8.000000E+01,2.332679E-04,3.343129E+00,5.582027E-03,6.400000E+03
