﻿ibin5_6,x=(MAXX*ibin)/NBIN5_6,P(x)5_6,x/sigma5_6,P*sigma5_6
-2.40000E+02,-8.00000E+01,0.00000E+00,-3.34313E+00,0.00000E+00
-2.39000E+02,-7.96667E+01,0.00000E+00,-3.32920E+00,0.00000E+00
-2.38000E+02,-7.93333E+01,0.00000E+00,-3.31527E+00,0.00000E+00
-2.37000E+02,-7.90000E+01,0.00000E+00,-3.30134E+00,0.00000E+00
-2.36000E+02,-7.86667E+01,0.00000E+00,-3.28741E+00,0.00000E+00
-2.35000E+02,-7.83333E+01,0.00000E+00,-3.27348E+00,0.00000E+00
-2.34000E+02,-7.80000E+01,0.00000E+00,-3.25955E+00,0.00000E+00
-2.33000E+02,-7.76667E+01,0.00000E+00,-3.24562E+00,0.00000E+00
-2.32000E+02,-7.73333E+01,0.00000E+00,-3.23169E+00,0.00000E+00
-2.31000E+02,-7.70000E+01,0.00000E+00,-3.21776E+00,0.00000E+00
-2.30000E+02,-7.66667E+01,0.00000E+00,-3.20383E+00,0.00000E+00
-2.29000E+02,-7.63333E+01,0.00000E+00,-3.18990E+00,0.00000E+00
-2.28000E+02,-7.60000E+01,0.00000E+00,-3.17597E+00,0.00000E+00
-2.27000E+02,-7.56667E+01,0.00000E+00,-3.16204E+00,0.00000E+00
-2.26000E+02,-7.53333E+01,0.00000E+00,-3.14811E+00,0.00000E+00
-2.25000E+02,-7.50000E+01,0.00000E+00,-3.13418E+00,0.00000E+00
-2.24000E+02,-7.46667E+01,0.00000E+00,-3.12025E+00,0.00000E+00
-2.23000E+02,-7.43333E+01,0.00000E+00,-3.10632E+00,0.00000E+00
-2.22000E+02,-7.40000E+01,0.00000E+00,-3.09239E+00,0.00000E+00
-2.21000E+02,-7.36667E+01,0.00000E+00,-3.07847E+00,0.00000E+00
-2.20000E+02,-7.33333E+01,0.00000E+00,-3.06453E+00,0.00000E+00
-2.19000E+02,-7.30000E+01,0.00000E+00,-3.05060E+00,0.00000E+00
-2.18000E+02,-7.26667E+01,0.00000E+00,-3.03668E+00,0.00000E+00
-2.17000E+02,-7.23333E+01,0.00000E+00,-3.02274E+00,0.00000E+00
-2.16000E+02,-7.20000E+01,0.00000E+00,-3.00882E+00,0.00000E+00
-2.15000E+02,-7.16667E+01,0.00000E+00,-2.99489E+00,0.00000E+00
-2.14000E+02,-7.13333E+01,0.00000E+00,-2.98096E+00,0.00000E+00
-2.13000E+02,-7.10000E+01,0.00000E+00,-2.96703E+00,0.00000E+00
-2.12000E+02,-7.06667E+01,0.00000E+00,-2.95310E+00,0.00000E+00
-2.11000E+02,-7.03333E+01,0.00000E+00,-2.93917E+00,0.00000E+00
-2.10000E+02,-7.00000E+01,0.00000E+00,-2.92524E+00,0.00000E+00
-2.09000E+02,-6.96667E+01,0.00000E+00,-2.91131E+00,0.00000E+00
-2.08000E+02,-6.93333E+01,0.00000E+00,-2.89738E+00,0.00000E+00
-2.07000E+02,-6.90000E+01,0.00000E+00,-2.88345E+00,0.00000E+00
-2.06000E+02,-6.86667E+01,0.00000E+00,-2.86952E+00,0.00000E+00
-2.05000E+02,-6.83333E+01,0.00000E+00,-2.85559E+00,0.00000E+00
-2.04000E+02,-6.80000E+01,0.00000E+00,-2.84166E+00,0.00000E+00
-2.03000E+02,-6.76667E+01,0.00000E+00,-2.82773E+00,0.00000E+00
-2.02000E+02,-6.73333E+01,0.00000E+00,-2.81380E+00,0.00000E+00
-2.01000E+02,-6.70000E+01,0.00000E+00,-2.79987E+00,0.00000E+00
-2.00000E+02,-6.66667E+01,0.00000E+00,-2.78594E+00,0.00000E+00
-1.99000E+02,-6.63333E+01,0.00000E+00,-2.77201E+00,0.00000E+00
-1.98000E+02,-6.60000E+01,0.00000E+00,-2.75808E+00,0.00000E+00
-1.97000E+02,-6.56667E+01,0.00000E+00,-2.74415E+00,0.00000E+00
-1.96000E+02,-6.53333E+01,0.00000E+00,-2.73022E+00,0.00000E+00
-1.95000E+02,-6.50000E+01,0.00000E+00,-2.71629E+00,0.00000E+00
-1.94000E+02,-6.46667E+01,0.00000E+00,-2.70236E+00,0.00000E+00
-1.93000E+02,-6.43333E+01,0.00000E+00,-2.68843E+00,0.00000E+00
-1.92000E+02,-6.40000E+01,0.00000E+00,-2.67450E+00,0.00000E+00
-1.91000E+02,-6.36667E+01,0.00000E+00,-2.66057E+00,0.00000E+00
-1.90000E+02,-6.33333E+01,0.00000E+00,-2.64664E+00,0.00000E+00
-1.89000E+02,-6.30000E+01,0.00000E+00,-2.63271E+00,0.00000E+00
-1.88000E+02,-6.26667E+01,0.00000E+00,-2.61879E+00,0.00000E+00
-1.87000E+02,-6.23333E+01,0.00000E+00,-2.60485E+00,0.00000E+00
-1.86000E+02,-6.20000E+01,0.00000E+00,-2.59092E+00,0.00000E+00
-1.85000E+02,-6.16667E+01,0.00000E+00,-2.57700E+00,0.00000E+00
-1.84000E+02,-6.13333E+01,0.00000E+00,-2.56306E+00,0.00000E+00
-1.83000E+02,-6.10000E+01,0.00000E+00,-2.54914E+00,0.00000E+00
-1.82000E+02,-6.06667E+01,0.00000E+00,-2.53521E+00,0.00000E+00
-1.81000E+02,-6.03333E+01,0.00000E+00,-2.52127E+00,0.00000E+00
-1.80000E+02,-6.00000E+01,0.00000E+00,-2.50735E+00,0.00000E+00
-1.79000E+02,-5.96667E+01,0.00000E+00,-2.49342E+00,0.00000E+00
-1.78000E+02,-5.93333E+01,0.00000E+00,-2.47949E+00,0.00000E+00
-1.77000E+02,-5.90000E+01,0.00000E+00,-2.46556E+00,0.00000E+00
-1.76000E+02,-5.86667E+01,0.00000E+00,-2.45163E+00,0.00000E+00
-1.75000E+02,-5.83333E+01,0.00000E+00,-2.43770E+00,0.00000E+00
-1.74000E+02,-5.80000E+01,0.00000E+00,-2.42377E+00,0.00000E+00
-1.73000E+02,-5.76667E+01,0.00000E+00,-2.40984E+00,0.00000E+00
-1.72000E+02,-5.73333E+01,0.00000E+00,-2.39591E+00,0.00000E+00
-1.71000E+02,-5.70000E+01,0.00000E+00,-2.38198E+00,0.00000E+00
-1.70000E+02,-5.66667E+01,0.00000E+00,-2.36805E+00,0.00000E+00
-1.69000E+02,-5.63333E+01,0.00000E+00,-2.35412E+00,0.00000E+00
-1.68000E+02,-5.60000E+01,0.00000E+00,-2.34019E+00,0.00000E+00
-1.67000E+02,-5.56667E+01,0.00000E+00,-2.32626E+00,0.00000E+00
-1.66000E+02,-5.53333E+01,0.00000E+00,-2.31233E+00,0.00000E+00
-1.65000E+02,-5.50000E+01,0.00000E+00,-2.29840E+00,0.00000E+00
-1.64000E+02,-5.46667E+01,0.00000E+00,-2.28447E+00,0.00000E+00
-1.63000E+02,-5.43333E+01,0.00000E+00,-2.27054E+00,0.00000E+00
-1.62000E+02,-5.40000E+01,0.00000E+00,-2.25661E+00,0.00000E+00
-1.61000E+02,-5.36667E+01,0.00000E+00,-2.24268E+00,0.00000E+00
-1.60000E+02,-5.33333E+01,0.00000E+00,-2.22875E+00,0.00000E+00
-1.59000E+02,-5.30000E+01,0.00000E+00,-2.21482E+00,0.00000E+00
-1.58000E+02,-5.26667E+01,0.00000E+00,-2.20089E+00,0.00000E+00
-1.57000E+02,-5.23333E+01,0.00000E+00,-2.18696E+00,0.00000E+00
-1.56000E+02,-5.20000E+01,0.00000E+00,-2.17303E+00,0.00000E+00
-1.55000E+02,-5.16667E+01,0.00000E+00,-2.15911E+00,0.00000E+00
-1.54000E+02,-5.13333E+01,0.00000E+00,-2.14517E+00,0.00000E+00
-1.53000E+02,-5.10000E+01,0.00000E+00,-2.13124E+00,0.00000E+00
-1.52000E+02,-5.06667E+01,0.00000E+00,-2.11732E+00,0.00000E+00
-1.51000E+02,-5.03333E+01,0.00000E+00,-2.10338E+00,0.00000E+00
-1.50000E+02,-5.00000E+01,0.00000E+00,-2.08946E+00,0.00000E+00
-1.49000E+02,-4.96667E+01,0.00000E+00,-2.07553E+00,0.00000E+00
-1.48000E+02,-4.93333E+01,0.00000E+00,-2.06159E+00,0.00000E+00
-1.47000E+02,-4.90000E+01,0.00000E+00,-2.04767E+00,0.00000E+00
-1.46000E+02,-4.86667E+01,0.00000E+00,-2.03374E+00,0.00000E+00
-1.45000E+02,-4.83333E+01,0.00000E+00,-2.01981E+00,0.00000E+00
-1.44000E+02,-4.80000E+01,0.00000E+00,-2.00588E+00,0.00000E+00
-1.43000E+02,-4.76667E+01,0.00000E+00,-1.99195E+00,0.00000E+00
-1.42000E+02,-4.73333E+01,0.00000E+00,-1.97802E+00,0.00000E+00
-1.41000E+02,-4.70000E+01,0.00000E+00,-1.96409E+00,0.00000E+00
-1.40000E+02,-4.66667E+01,0.00000E+00,-1.95016E+00,0.00000E+00
-1.39000E+02,-4.63333E+01,0.00000E+00,-1.93623E+00,0.00000E+00
-1.38000E+02,-4.60000E+01,0.00000E+00,-1.92230E+00,0.00000E+00
-1.37000E+02,-4.56667E+01,0.00000E+00,-1.90837E+00,0.00000E+00
-1.36000E+02,-4.53333E+01,0.00000E+00,-1.89444E+00,0.00000E+00
-1.35000E+02,-4.50000E+01,0.00000E+00,-1.88051E+00,0.00000E+00
-1.34000E+02,-4.46667E+01,0.00000E+00,-1.86658E+00,0.00000E+00
-1.33000E+02,-4.43333E+01,0.00000E+00,-1.85265E+00,0.00000E+00
-1.32000E+02,-4.40000E+01,0.00000E+00,-1.83872E+00,0.00000E+00
-1.31000E+02,-4.36667E+01,0.00000E+00,-1.82479E+00,0.00000E+00
-1.30000E+02,-4.33333E+01,0.00000E+00,-1.81086E+00,0.00000E+00
-1.29000E+02,-4.30000E+01,0.00000E+00,-1.79693E+00,0.00000E+00
-1.28000E+02,-4.26667E+01,0.00000E+00,-1.78300E+00,0.00000E+00
-1.27000E+02,-4.23333E+01,0.00000E+00,-1.76907E+00,0.00000E+00
-1.26000E+02,-4.20000E+01,0.00000E+00,-1.75514E+00,0.00000E+00
-1.25000E+02,-4.16667E+01,0.00000E+00,-1.74121E+00,0.00000E+00
-1.24000E+02,-4.13333E+01,0.00000E+00,-1.72728E+00,0.00000E+00
-1.23000E+02,-4.10000E+01,0.00000E+00,-1.71335E+00,0.00000E+00
-1.22000E+02,-4.06667E+01,0.00000E+00,-1.69943E+00,0.00000E+00
-1.21000E+02,-4.03333E+01,0.00000E+00,-1.68549E+00,0.00000E+00
-1.20000E+02,-4.00000E+01,0.00000E+00,-1.67156E+00,0.00000E+00
-1.19000E+02,-3.96667E+01,0.00000E+00,-1.65764E+00,0.00000E+00
-1.18000E+02,-3.93333E+01,0.00000E+00,-1.64370E+00,0.00000E+00
-1.17000E+02,-3.90000E+01,0.00000E+00,-1.62978E+00,0.00000E+00
-1.16000E+02,-3.86667E+01,0.00000E+00,-1.61585E+00,0.00000E+00
-1.15000E+02,-3.83333E+01,0.00000E+00,-1.60191E+00,0.00000E+00
-1.14000E+02,-3.80000E+01,0.00000E+00,-1.58799E+00,0.00000E+00
-1.13000E+02,-3.76667E+01,0.00000E+00,-1.57406E+00,0.00000E+00
-1.12000E+02,-3.73333E+01,0.00000E+00,-1.56013E+00,0.00000E+00
-1.11000E+02,-3.70000E+01,0.00000E+00,-1.54620E+00,0.00000E+00
-1.10000E+02,-3.66667E+01,0.00000E+00,-1.53227E+00,0.00000E+00
-1.09000E+02,-3.63333E+01,0.00000E+00,-1.51834E+00,0.00000E+00
-1.08000E+02,-3.60000E+01,0.00000E+00,-1.50441E+00,0.00000E+00
-1.07000E+02,-3.56667E+01,0.00000E+00,-1.49048E+00,0.00000E+00
-1.06000E+02,-3.53333E+01,0.00000E+00,-1.47655E+00,0.00000E+00
-1.05000E+02,-3.50000E+01,0.00000E+00,-1.46262E+00,0.00000E+00
-1.04000E+02,-3.46667E+01,0.00000E+00,-1.44869E+00,0.00000E+00
-1.03000E+02,-3.43333E+01,0.00000E+00,-1.43476E+00,0.00000E+00
-1.02000E+02,-3.40000E+01,0.00000E+00,-1.42083E+00,0.00000E+00
-1.01000E+02,-3.36667E+01,0.00000E+00,-1.40690E+00,0.00000E+00
-1.00000E+02,-3.33333E+01,0.00000E+00,-1.39297E+00,0.00000E+00
-9.90000E+01,-3.30000E+01,0.00000E+00,-1.37904E+00,0.00000E+00
-9.80000E+01,-3.26667E+01,0.00000E+00,-1.36511E+00,0.00000E+00
-9.70000E+01,-3.23333E+01,0.00000E+00,-1.35118E+00,0.00000E+00
-9.60000E+01,-3.20000E+01,0.00000E+00,-1.33725E+00,0.00000E+00
-9.50000E+01,-3.16667E+01,0.00000E+00,-1.32332E+00,0.00000E+00
-9.40000E+01,-3.13333E+01,0.00000E+00,-1.30939E+00,0.00000E+00
-9.30000E+01,-3.10000E+01,0.00000E+00,-1.29546E+00,0.00000E+00
-9.20000E+01,-3.06667E+01,0.00000E+00,-1.28153E+00,0.00000E+00
-9.10000E+01,-3.03333E+01,0.00000E+00,-1.26760E+00,0.00000E+00
-9.00000E+01,-3.00000E+01,0.00000E+00,-1.25367E+00,0.00000E+00
-8.90000E+01,-2.96667E+01,0.00000E+00,-1.23974E+00,0.00000E+00
-8.80000E+01,-2.93333E+01,0.00000E+00,-1.22581E+00,0.00000E+00
-8.70000E+01,-2.90000E+01,0.00000E+00,-1.21188E+00,0.00000E+00
-8.60000E+01,-2.86667E+01,0.00000E+00,-1.19796E+00,0.00000E+00
-8.50000E+01,-2.83333E+01,0.00000E+00,-1.18402E+00,0.00000E+00
-8.40000E+01,-2.80000E+01,0.00000E+00,-1.17010E+00,0.00000E+00
-8.30000E+01,-2.76667E+01,0.00000E+00,-1.15617E+00,0.00000E+00
-8.20000E+01,-2.73333E+01,0.00000E+00,-1.14223E+00,0.00000E+00
-8.10000E+01,-2.70000E+01,0.00000E+00,-1.12831E+00,0.00000E+00
-8.00000E+01,-2.66667E+01,0.00000E+00,-1.11438E+00,0.00000E+00
-7.90000E+01,-2.63333E+01,0.00000E+00,-1.10045E+00,0.00000E+00
-7.80000E+01,-2.60000E+01,0.00000E+00,-1.08652E+00,0.00000E+00
-7.70000E+01,-2.56667E+01,0.00000E+00,-1.07259E+00,0.00000E+00
-7.60000E+01,-2.53333E+01,0.00000E+00,-1.05866E+00,0.00000E+00
-7.50000E+01,-2.50000E+01,0.00000E+00,-1.04473E+00,0.00000E+00
-7.40000E+01,-2.46667E+01,0.00000E+00,-1.03080E+00,0.00000E+00
-7.30000E+01,-2.43333E+01,0.00000E+00,-1.01687E+00,0.00000E+00
-7.20000E+01,-2.40000E+01,0.00000E+00,-1.00294E+00,0.00000E+00
-7.10000E+01,-2.36667E+01,0.00000E+00,-9.89010E-01,0.00000E+00
-7.00000E+01,-2.33333E+01,0.00000E+00,-9.75078E-01,0.00000E+00
-6.90000E+01,-2.30000E+01,0.00000E+00,-9.61150E-01,0.00000E+00
-6.80000E+01,-2.26667E+01,0.00000E+00,-9.47221E-01,0.00000E+00
-6.70000E+01,-2.23333E+01,0.00000E+00,-9.33289E-01,0.00000E+00
-6.60000E+01,-2.20000E+01,0.00000E+00,-9.19360E-01,0.00000E+00
-6.50000E+01,-2.16667E+01,0.00000E+00,-9.05432E-01,0.00000E+00
-6.40000E+01,-2.13333E+01,0.00000E+00,-8.91500E-01,0.00000E+00
-6.30000E+01,-2.10000E+01,0.00000E+00,-8.77571E-01,0.00000E+00
-6.20000E+01,-2.06667E+01,0.00000E+00,-8.63643E-01,0.00000E+00
-6.10000E+01,-2.03333E+01,0.00000E+00,-8.49710E-01,0.00000E+00
-6.00000E+01,-2.00000E+01,0.00000E+00,-8.35782E-01,0.00000E+00
-5.90000E+01,-1.96667E+01,0.00000E+00,-8.21854E-01,0.00000E+00
-5.80000E+01,-1.93333E+01,0.00000E+00,-8.07921E-01,0.00000E+00
-5.70000E+01,-1.90000E+01,0.00000E+00,-7.93993E-01,0.00000E+00
-5.60000E+01,-1.86667E+01,0.00000E+00,-7.80065E-01,0.00000E+00
-5.50000E+01,-1.83333E+01,0.00000E+00,-7.66132E-01,0.00000E+00
-5.40000E+01,-1.80000E+01,0.00000E+00,-7.52204E-01,0.00000E+00
-5.30000E+01,-1.76667E+01,0.00000E+00,-7.38276E-01,0.00000E+00
-5.20000E+01,-1.73333E+01,0.00000E+00,-7.24343E-01,0.00000E+00
-5.10000E+01,-1.70000E+01,0.00000E+00,-7.10415E-01,0.00000E+00
-5.00000E+01,-1.66667E+01,0.00000E+00,-6.96487E-01,0.00000E+00
-4.90000E+01,-1.63333E+01,0.00000E+00,-6.82554E-01,0.00000E+00
-4.80000E+01,-1.60000E+01,0.00000E+00,-6.68626E-01,0.00000E+00
-4.70000E+01,-1.56667E+01,0.00000E+00,-6.54697E-01,0.00000E+00
-4.60000E+01,-1.53333E+01,0.00000E+00,-6.40765E-01,0.00000E+00
-4.50000E+01,-1.50000E+01,0.00000E+00,-6.26837E-01,0.00000E+00
-4.40000E+01,-1.46667E+01,0.00000E+00,-6.12908E-01,0.00000E+00
-4.30000E+01,-1.43333E+01,0.00000E+00,-5.98976E-01,0.00000E+00
-4.20000E+01,-1.40000E+01,0.00000E+00,-5.85048E-01,0.00000E+00
-4.10000E+01,-1.36667E+01,0.00000E+00,-5.71119E-01,0.00000E+00
-4.00000E+01,-1.33333E+01,0.00000E+00,-5.57187E-01,0.00000E+00
-3.90000E+01,-1.30000E+01,0.00000E+00,-5.43258E-01,0.00000E+00
-3.80000E+01,-1.26667E+01,0.00000E+00,-5.29330E-01,0.00000E+00
-3.70000E+01,-1.23333E+01,0.00000E+00,-5.15398E-01,0.00000E+00
-3.60000E+01,-1.20000E+01,0.00000E+00,-5.01469E-01,0.00000E+00
-3.50000E+01,-1.16667E+01,0.00000E+00,-4.87541E-01,0.00000E+00
-3.40000E+01,-1.13333E+01,0.00000E+00,-4.73609E-01,0.00000E+00
-3.30000E+01,-1.10000E+01,0.00000E+00,-4.59680E-01,0.00000E+00
-3.20000E+01,-1.06667E+01,0.00000E+00,-4.45752E-01,0.00000E+00
-3.10000E+01,-1.03333E+01,0.00000E+00,-4.31819E-01,0.00000E+00
-3.00000E+01,-1.00000E+01,0.00000E+00,-4.17891E-01,0.00000E+00
-2.90000E+01,-9.66667E+00,0.00000E+00,-4.03962E-01,0.00000E+00
-2.80000E+01,-9.33333E+00,0.00000E+00,-3.90032E-01,0.00000E+00
-2.70000E+01,-9.00000E+00,0.00000E+00,-3.76102E-01,0.00000E+00
-2.60000E+01,-8.66667E+00,0.00000E+00,-3.62172E-01,0.00000E+00
-2.50000E+01,-8.33333E+00,0.00000E+00,-3.48242E-01,0.00000E+00
-2.40000E+01,-8.00000E+00,0.00000E+00,-3.34313E-01,0.00000E+00
-2.30000E+01,-7.66667E+00,0.00000E+00,-3.20383E-01,0.00000E+00
-2.20000E+01,-7.33333E+00,0.00000E+00,-3.06453E-01,0.00000E+00
-2.10000E+01,-7.00000E+00,0.00000E+00,-2.92524E-01,0.00000E+00
-2.00000E+01,-6.66667E+00,0.00000E+00,-2.78594E-01,0.00000E+00
-1.90000E+01,-6.33333E+00,0.00000E+00,-2.64664E-01,0.00000E+00
-1.80000E+01,-6.00000E+00,0.00000E+00,-2.50735E-01,0.00000E+00
-1.70000E+01,-5.66667E+00,0.00000E+00,-2.36805E-01,0.00000E+00
-1.60000E+01,-5.33333E+00,0.00000E+00,-2.22875E-01,0.00000E+00
-1.50000E+01,-5.00000E+00,0.00000E+00,-2.08946E-01,0.00000E+00
-1.40000E+01,-4.66667E+00,0.00000E+00,-1.95016E-01,0.00000E+00
-1.30000E+01,-4.33333E+00,0.00000E+00,-1.81086E-01,0.00000E+00
-1.20000E+01,-4.00000E+00,0.00000E+00,-1.67156E-01,0.00000E+00
-1.10000E+01,-3.66667E+00,0.00000E+00,-1.53227E-01,0.00000E+00
-1.00000E+01,-3.33333E+00,0.00000E+00,-1.39297E-01,0.00000E+00
-9.00000E+00,-3.00000E+00,0.00000E+00,-1.25367E-01,0.00000E+00
-8.00000E+00,-2.66667E+00,0.00000E+00,-1.11438E-01,0.00000E+00
-7.00000E+00,-2.33333E+00,0.00000E+00,-9.75078E-02,0.00000E+00
-6.00000E+00,-2.00000E+00,0.00000E+00,-8.35782E-02,0.00000E+00
-5.00000E+00,-1.66667E+00,0.00000E+00,-6.96487E-02,0.00000E+00
-4.00000E+00,-1.33333E+00,0.00000E+00,-5.57187E-02,0.00000E+00
-3.00000E+00,-1.00000E+00,0.00000E+00,-4.17891E-02,0.00000E+00
-2.00000E+00,-6.66667E-01,2.59491E-04,-2.78594E-02,6.20953E-03
-1.00000E+00,-3.33333E-01,9.90982E-03,-1.39297E-02,2.37139E-01
0.00000E+00,0.00000000000000 2,.901172000E-002 0,.00000000000000 6.,9.42412E+07
1.00000E+00,3.333330000E-001 3,.762167000E-002 1,.392968899E-002 9.,2.74524E+05
2.00000E+00,6.666670000E-001 3,.988415667E-002 2,.785941977E-002 9.,5.44151E+07
3.00000E+00,1.000000000E+000 4,.034292000E-002 4,.178910876E-002 9.,6.53932E+07
4.00000E+00,1.333330000E+000 4,.022579000E-002 5,.571867238E-002 9.,6.25903E+07
5.00000E+00,1.666670000E+000 3,.994223000E-002 6,.964865389E-002 9.,5.58048E+07
6.00000E+00,2.000000000E+000 3,.957003000E-002 8,.357821751E-002 9.,4.68982E+07
7.00000E+00,2.333330000E+000 3,.913703667E-002 9,.750778113E-002 9.,3.65368E+07
8.00000E+00,2.666670000E+000 3,.871981667E-002 1,.114377626E-001 9.,2.65528E+07
9.00000E+00,3.000000000E+000 3,.835490000E-002 1,.253673263E-001 9.,1.78205E+07
1.00000E+01,3.333330000E+000 3,.796358333E-002 1,.392968899E-001 9.,8.45640E+06
1.10000E+01,3.666670000E+000 3,.758058000E-002 1,.532268714E-001 8.,9.92913E+07
1.20000E+01,4.000000000E+000 3,.718220333E-002 1,.671564350E-001 8.,8.97582E+07
1.30000E+01,4.333330000E+000 3,.680818333E-002 1,.810859986E-001 8.,8.08080E+07
1.40000E+01,4.666670000E+000 3,.639806333E-002 1,.950159802E-001 8.,7.09940E+07
1.50000E+01,5.000000000E+000 3,.606623333E-002 2,.089455438E-001 8.,6.30534E+07
1.60000E+01,5.333330000E+000 3,.567843333E-002 2,.228751074E-001 8.,5.37735E+07
1.70000E+01,5.666670000E+000 3,.534864000E-002 2,.368050889E-001 8.,4.58816E+07
1.80000E+01,6.000000000E+000 3,.500189333E-002 2,.507346525E-001 8.,3.75841E+07
1.90000E+01,6.333330000E+000 3,.465478667E-002 2,.646642162E-001 8.,2.92780E+07
2.00000E+01,6.666670000E+000 3,.429354333E-002 2,.785941977E-001 8.,2.06335E+07
2.10000E+01,7.000000000E+000 3,.398701333E-002 2,.925237613E-001 8.,1.32984E+07
2.20000E+01,7.333330000E+000 3,.371298000E-002 3,.064533249E-001 8.,6.74082E+06
2.30000E+01,7.666670000E+000 3,.335616000E-002 3,.203833064E-001 7.,9.82022E+07
2.40000E+01,8.000000000E+000 3,.302355667E-002 3,.343128700E-001 7.,9.02431E+07
2.50000E+01,8.333330000E+000 3,.270643000E-002 3,.482424337E-001 7.,8.26544E+07
2.60000E+01,8.666670000E+000 3,.234353000E-002 3,.621724152E-001 7.,7.39703E+07
2.70000E+01,9.000000000E+000 3,.197444667E-002 3,.761019788E-001 7.,6.51383E+07
2.80000E+01,9.333330000E+000 3,.165140000E-002 3,.900315424E-001 7.,5.74079E+07
2.90000E+01,9.666670000E+000 3,.129945000E-002 4,.039615239E-001 7.,4.89858E+07
3.00000E+01,1.000000000E+001 3,.098065000E-002 4,.178910876E-001 7.,4.13570E+07
3.10000E+01,1.033330000E+001 3,.061599333E-002 4,.318193975E-001 7.,3.26309E+07
3.20000E+01,1.066670000E+001 3,.028205667E-002 4,.457518864E-001 7.,2.46399E+07
3.30000E+01,1.100000000E+001 2,.991428667E-002 4,.596801963E-001 7.,1.58393E+07
3.40000E+01,1.133330000E+001 2,.957777667E-002 4,.736085063E-001 7.,7.78673E+06
3.50000E+01,1.166670000E+001 2,.921503333E-002 4,.875409951E-001 6.,9.91064E+07
3.60000E+01,1.200000000E+001 2,.891462000E-002 5,.014693051E-001 6.,9.19176E+07
3.70000E+01,1.233330000E+001 2,.853793333E-002 5,.153976150E-001 6.,8.29036E+07
3.80000E+01,1.266670000E+001 2,.821012667E-002 5,.293301039E-001 6.,7.50593E+07
3.90000E+01,1.300000000E+001 2,.779375333E-002 5,.432584138E-001 6.,6.50956E+07
4.00000E+01,1.333330000E+001 2,.746721000E-002 5,.571867238E-001 6.,5.72815E+07
4.10000E+01,1.366670000E+001 2,.713389333E-002 5,.711192126E-001 6.,4.93054E+07
4.20000E+01,1.400000000E+001 2,.680692667E-002 5,.850475226E-001 6.,4.14812E+07
4.30000E+01,1.433330000E+001 2,.648768333E-002 5,.989758325E-001 6.,3.38418E+07
4.40000E+01,1.466670000E+001 2,.617607667E-002 6,.129083214E-001 6.,2.63851E+07
4.50000E+01,1.500000000E+001 2,.587903667E-002 6,.268366313E-001 6.,1.92771E+07
4.60000E+01,1.533330000E+001 2,.554168667E-002 6,.407649413E-001 6.,1.12044E+07
4.70000E+01,1.566670000E+001 2,.529199000E-002 6,.546974301E-001 6.,5.22923E+06
4.80000E+01,1.600000000E+001 2,.493108000E-002 6,.686257401E-001 5.,9.65928E+07
4.90000E+01,1.633330000E+001 2,.459864333E-002 6,.825540500E-001 5.,8.86377E+07
5.00000E+01,1.666670000E+001 2,.432687000E-002 6,.964865389E-001 5.,8.21342E+07
5.10000E+01,1.700000000E+001 2,.403801000E-002 7,.104148488E-001 5.,7.52219E+07
5.20000E+01,1.733330000E+001 2,.368804667E-002 7,.243431588E-001 5.,6.68474E+07
5.30000E+01,1.766670000E+001 2,.339274000E-002 7,.382756476E-001 5.,5.97808E+07
5.40000E+01,1.800000000E+001 2,.307178333E-002 7,.522039576E-001 5.,5.21004E+07
5.50000E+01,1.833330000E+001 2,.275495333E-002 7,.661322675E-001 5.,4.45188E+07
5.60000E+01,1.866670000E+001 2,.244665667E-002 7,.800647564E-001 5.,3.71413E+07
5.70000E+01,1.900000000E+001 2,.218132333E-002 7,.939930664E-001 5.,3.07920E+07
5.80000E+01,1.933330000E+001 2,.185659667E-002 8,.079213763E-001 5.,2.30214E+07
5.90000E+01,1.966670000E+001 2,.154193333E-002 8,.218538652E-001 5.,1.54916E+07
6.00000E+01,2.000000000E+001 2,.125295000E-002 8,.357821751E-001 5.,8.57629E+06
6.10000E+01,2.033330000E+001 2,.093172333E-002 8,.497104851E-001 5.,8.89441E+05
6.20000E+01,2.066670000E+001 2,.064255667E-002 8,.636429739E-001 4.,9.39698E+07
6.30000E+01,2.100000000E+001 2,.036820000E-002 8,.775712839E-001 4.,8.74045E+07
6.40000E+01,2.133330000E+001 2,.009871333E-002 8,.914995938E-001 4.,8.09558E+07
6.50000E+01,2.166670000E+001 1,.981248667E-002 9,.054320827E-001 4.,7.41065E+07
6.60000E+01,2.200000000E+001 1,.951311333E-002 9,.193603926E-001 4.,6.69426E+07
6.70000E+01,2.233330000E+001 1,.923150667E-002 9,.332887026E-001 4.,6.02038E+07
6.80000E+01,2.266670000E+001 1,.894810000E-002 9,.472211914E-001 4.,5.34220E+07
6.90000E+01,2.300000000E+001 1,.867373000E-002 9,.611495014E-001 4.,4.68564E+07
7.00000E+01,2.333330000E+001 1,.839299333E-002 9,.750778113E-001 4.,4.01384E+07
7.10000E+01,2.366670000E+001 1,.807328000E-002 9,.890103002E-001 4.,3.24878E+07
7.20000E+01,2.400000000E+001 1,.779201333E-002 1,.002938610E+000 4.,2.57572E+07
7.30000E+01,2.433330000E+001 1,.754168333E-002 1,.016866920E+000 4.,1.97669E+07
7.40000E+01,2.466670000E+001 1,.724942000E-002 1,.030799409E+000 4.,1.27731E+07
7.50000E+01,2.500000000E+001 1,.697164667E-002 1,.044727719E+000 4.,6.12607E+06
7.60000E+01,2.533330000E+001 1,.671817000E-002 1,.058656029E+000 4.,6.04583E+04
7.70000E+01,2.566670000E+001 1,.645834667E-002 1,.072588518E+000 3.,9.38430E+07
7.80000E+01,2.600000000E+001 1,.623075000E-002 1,.086516828E+000 3.,8.83967E+07
7.90000E+01,2.633330000E+001 1,.596593333E-002 1,.100445138E+000 3.,8.20597E+07
8.00000E+01,2.666670000E+001 1,.575648000E-002 1,.114377626E+000 3.,7.70475E+07
8.10000E+01,2.700000000E+001 1,.549508667E-002 1,.128305936E+000 3.,7.07925E+07
8.20000E+01,2.733330000E+001 1,.528913333E-002 1,.142234246E+000 3.,6.58641E+07
8.30000E+01,2.766670000E+001 1,.502280667E-002 1,.156166735E+000 3.,5.94910E+07
8.40000E+01,2.800000000E+001 1,.478883000E-002 1,.170095045E+000 3.,5.38920E+07
8.50000E+01,2.833330000E+001 1,.454203333E-002 1,.184023355E+000 3.,4.79862E+07
8.60000E+01,2.866670000E+001 1,.428780000E-002 1,.197955844E+000 3.,4.19025E+07
8.70000E+01,2.900000000E+001 1,.405093000E-002 1,.211884154E+000 3.,3.62343E+07
8.80000E+01,2.933330000E+001 1,.381489000E-002 1,.225812464E+000 3.,3.05859E+07
8.90000E+01,2.966670000E+001 1,.360757333E-002 1,.239744953E+000 3.,2.56249E+07
9.00000E+01,3.000000000E+001 1,.336723333E-002 1,.253673263E+000 3.,1.98736E+07
9.10000E+01,3.033330000E+001 1,.315454667E-002 1,.267601573E+000 3.,1.47841E+07
9.20000E+01,3.066670000E+001 1,.295420000E-002 1,.281534061E+000 3.,9.98986E+06
9.30000E+01,3.100000000E+001 1,.270586000E-002 1,.295462371E+000 3.,4.04716E+06
9.40000E+01,3.133330000E+001 1,.250032000E-002 1,.309390681E+000 2.,9.91287E+07
9.50000E+01,3.166670000E+001 1,.226984000E-002 1,.323323170E+000 2.,9.36133E+07
9.60000E+01,3.200000000E+001 1,.204564000E-002 1,.337251480E+000 2.,8.82483E+07
9.70000E+01,3.233330000E+001 1,.186547667E-002 1,.351179790E+000 2.,8.39371E+07
9.80000E+01,3.266670000E+001 1,.164777667E-002 1,.365112279E+000 2.,7.87276E+07
9.90000E+01,3.300000000E+001 1,.143709333E-002 1,.379040589E+000 2.,7.36860E+07
1.00000E+02,3.333330000E+001 1,.123281667E-002 1,.392968899E+000 2.,6.87977E+07
1.01000E+02,3.366670000E+001 1,.102682333E-002 1,.406901388E+000 2.,6.38684E+07
1.02000E+02,3.400000000E+001 1,.079937333E-002 1,.420829698E+000 2.,5.84255E+07
1.03000E+02,3.433330000E+001 1,.061371333E-002 1,.434758008E+000 2.,5.39828E+07
1.04000E+02,3.466670000E+001 1,.040000000E-002 1,.448690496E+000 2.,4.88687E+07
1.05000E+02,3.500000000E+001 1,.023221000E-002 1,.462618806E+000 2.,4.48535E+07
1.06000E+02,3.533330000E+001 1,.002326333E-002 1,.476547116E+000 2.,3.98535E+07
1.07000E+02,3.566670000E+001 9,.796299000E-003 1,.490479605E+000 2.,3.44223E+07
1.08000E+02,3.600000000E+001 9,.595764000E-003 1,.504407915E+000 2.,2.96236E+07
1.09000E+02,3.633330000E+001 9,.408500667E-003 1,.518336225E+000 2.,2.51424E+07
1.10000E+02,3.666670000E+001 9,.247855000E-003 1,.532268714E+000 2.,2.12982E+07
1.11000E+02,3.700000000E+001 9,.058853000E-003 1,.546197024E+000 2.,1.67755E+07
1.12000E+02,3.733330000E+001 8,.868850000E-003 1,.560125334E+000 2.,1.22287E+07
1.13000E+02,3.766670000E+001 8,.693618000E-003 1,.574057823E+000 2.,8.03550E+06
1.14000E+02,3.800000000E+001 8,.530217667E-003 1,.587986133E+000 2.,4.12538E+06
1.15000E+02,3.833330000E+001 8,.338194667E-003 1,.601914443E+000 1.,9.95303E+07
1.16000E+02,3.866670000E+001 8,.181330333E-003 1,.615846932E+000 1.,9.57766E+07
1.17000E+02,3.900000000E+001 8,.047328000E-003 1,.629775241E+000 1.,9.25700E+07
1.18000E+02,3.933330000E+001 7,.891172667E-003 1,.643703551E+000 1.,8.88332E+07
1.19000E+02,3.966670000E+001 7,.736992000E-003 1,.657636040E+000 1.,8.51437E+07
1.20000E+02,4.000000000E+001 7,.580185000E-003 1,.671564350E+000 1.,8.13914E+07
1.21000E+02,4.033330000E+001 7,.414386333E-003 1,.685492660E+000 1.,7.74239E+07
1.22000E+02,4.066670000E+001 7,.250560333E-003 1,.699425149E+000 1.,7.35036E+07
1.23000E+02,4.100000000E+001 7,.095717333E-003 1,.713353459E+000 1.,6.97982E+07
1.24000E+02,4.133330000E+001 6,.966652000E-003 1,.727281769E+000 1.,6.67098E+07
1.25000E+02,4.166670000E+001 6,.829243000E-003 1,.741214258E+000 1.,6.34216E+07
1.26000E+02,4.200000000E+001 6,.695073000E-003 1,.755142568E+000 1.,6.02110E+07
1.27000E+02,4.233330000E+001 6,.553103667E-003 1,.769070878E+000 1.,5.68137E+07
1.28000E+02,4.266670000E+001 6,.400297000E-003 1,.783003367E+000 1.,5.31571E+07
1.29000E+02,4.300000000E+001 6,.255303333E-003 1,.796931676E+000 1.,4.96874E+07
1.30000E+02,4.333330000E+001 6,.122174000E-003 1,.810859986E+000 1.,4.65017E+07
1.31000E+02,4.366670000E+001 5,.973197667E-003 1,.824792475E+000 1.,4.29367E+07
1.32000E+02,4.400000000E+001 5,.820969000E-003 1,.838720785E+000 1.,3.92939E+07
1.33000E+02,4.433330000E+001 5,.697066333E-003 1,.852649095E+000 1.,3.63290E+07
1.34000E+02,4.466670000E+001 5,.576643667E-003 1,.866581584E+000 1.,3.34473E+07
1.35000E+02,4.500000000E+001 5,.463659333E-003 1,.880509894E+000 1.,3.07436E+07
1.36000E+02,4.533330000E+001 5,.355946000E-003 1,.894438204E+000 1.,2.81661E+07
1.37000E+02,4.566670000E+001 5,.214881000E-003 1,.908370693E+000 1.,2.47904E+07
1.38000E+02,4.600000000E+001 5,.093311667E-003 1,.922299003E+000 1.,2.18813E+07
1.39000E+02,4.633330000E+001 4,.979239000E-003 1,.936227313E+000 1.,1.91516E+07
1.40000E+02,4.666670000E+001 4,.890691000E-003 1,.950159802E+000 1.,1.70327E+07
1.41000E+02,4.700000000E+001 4,.774824333E-003 1,.964088112E+000 1.,1.42600E+07
1.42000E+02,4.733330000E+001 4,.672922667E-003 1,.978016421E+000 1.,1.18215E+07
1.43000E+02,4.766670000E+001 4,.564542333E-003 1,.991948910E+000 1.,9.22804E+06
1.44000E+02,4.800000000E+001 4,.468994000E-003 2,.005877220E+000 1.,6.94160E+06
1.45000E+02,4.833330000E+001 4,.364016667E-003 2,.019805530E+000 1.,4.42952E+06
1.46000E+02,4.866670000E+001 4,.251541333E-003 2,.033738019E+000 1.,1.73802E+06
1.47000E+02,4.900000000E+001 4,.168773000E-003 2,.047666329E+000 9.,9.75740E+06
1.48000E+02,4.933330000E+001 4,.060303000E-003 2,.061594639E+000 9.,7.16175E+06
1.49000E+02,4.966670000E+001 3,.963334333E-003 2,.075527128E+000 9.,4.84132E+06
1.50000E+02,5.000000000E+001 3,.857147667E-003 2,.089455438E+000 9.,2.30031E+06
1.51000E+02,5.033330000E+001 3,.756690000E-003 2,.103383748E+000 8.,9.89639E+06
1.52000E+02,5.066670000E+001 3,.663419333E-003 2,.117316237E+000 8.,7.66445E+06
1.53000E+02,5.100000000E+001 3,.572764667E-003 2,.131244547E+000 8.,5.49512E+06
1.54000E+02,5.133330000E+001 3,.468103000E-003 2,.145172856E+000 8.,2.99060E+06
1.55000E+02,5.166670000E+001 3,.374828000E-003 2,.159105345E+000 8.,7.58554E+05
1.56000E+02,5.200000000E+001 3,.285434667E-003 2,.173033655E+000 7.,8.61940E+06
1.57000E+02,5.233330000E+001 3,.202026667E-003 2,.186961965E+000 7.,6.62347E+06
1.58000E+02,5.266670000E+001 3,.125403333E-003 2,.200894454E+000 7.,4.78990E+06
1.59000E+02,5.300000000E+001 3,.049336000E-003 2,.214822764E+000 7.,2.96963E+06
1.60000E+02,5.333330000E+001 2,.961957333E-003 2,.228751074E+000 7.,8.78691E+05
1.61000E+02,5.366670000E+001 2,.891151667E-003 2,.242683563E+000 6.,9.18433E+06
1.62000E+02,5.400000000E+001 2,.829750333E-003 2,.256611873E+000 6.,7.71502E+06
1.63000E+02,5.433330000E+001 2,.764040333E-003 2,.270540183E+000 6.,6.14260E+06
1.64000E+02,5.466670000E+001 2,.682473333E-003 2,.284472672E+000 6.,4.19073E+06
1.65000E+02,5.500000000E+001 2,.620371667E-003 2,.298400982E+000 6.,2.70466E+06
1.66000E+02,5.533330000E+001 2,.561623000E-003 2,.312329291E+000 6.,1.29882E+06
1.67000E+02,5.566670000E+001 2,.494363667E-003 2,.326261780E+000 5.,9.68932E+06
1.68000E+02,5.600000000E+001 2,.415245000E-003 2,.340190090E+000 5.,7.79604E+06
1.69000E+02,5.633330000E+001 2,.351621667E-003 2,.354118400E+000 5.,6.27355E+06
1.70000E+02,5.666670000E+001 2,.282518000E-003 2,.368050889E+000 5.,4.61993E+06
1.71000E+02,5.700000000E+001 2,.209939000E-003 2,.381979199E+000 5.,2.88313E+06
1.72000E+02,5.733330000E+001 2,.148106333E-003 2,.395907509E+000 5.,1.40350E+06
1.73000E+02,5.766670000E+001 2,.087687333E-003 2,.409839998E+000 4.,9.95769E+06
1.74000E+02,5.800000000E+001 2,.037275667E-003 2,.423768308E+000 4.,8.75135E+06
1.75000E+02,5.833330000E+001 1,.982069667E-003 2,.437696618E+000 4.,7.43029E+06
1.76000E+02,5.866670000E+001 1,.927147333E-003 2,.451629107E+000 4.,6.11602E+06
1.77000E+02,5.900000000E+001 1,.875412333E-003 2,.465557417E+000 4.,4.87802E+06
1.78000E+02,5.933330000E+001 1,.820557333E-003 2,.479485727E+000 4.,3.56535E+06
1.79000E+02,5.966670000E+001 1,.764623667E-003 2,.493418215E+000 4.,2.22688E+06
1.80000E+02,6.000000000E+001 1,.714563000E-003 2,.507346525E+000 4.,1.02894E+06
1.81000E+02,6.033330000E+001 1,.669848333E-003 2,.521274835E+000 3.,9.95894E+06
1.82000E+02,6.066670000E+001 1,.624397667E-003 2,.535207324E+000 3.,8.87132E+06
1.83000E+02,6.100000000E+001 1,.575151000E-003 2,.549135634E+000 3.,7.69286E+06
1.84000E+02,6.133330000E+001 1,.510935667E-003 2,.563063944E+000 3.,6.15621E+06
1.85000E+02,6.166670000E+001 1,.470142333E-003 2,.576996433E+000 3.,5.18004E+06
1.86000E+02,6.200000000E+001 1,.434830333E-003 2,.590924743E+000 3.,4.33503E+06
1.87000E+02,6.233330000E+001 1,.380368000E-003 2,.604853053E+000 3.,3.03176E+06
1.88000E+02,6.266670000E+001 1,.343402333E-003 2,.618785542E+000 3.,2.14719E+06
1.89000E+02,6.300000000E+001 1,.318823667E-003 2,.632713852E+000 3.,1.55903E+06
1.90000E+02,6.333330000E+001 1,.282638667E-003 2,.646642162E+000 3.,6.93133E+05
1.91000E+02,6.366670000E+001 1,.245696667E-003 2,.660574650E+000 2.,9.80912E+06
1.92000E+02,6.400000000E+001 1,.214263333E-003 2,.674502960E+000 2.,9.05693E+06
1.93000E+02,6.433330000E+001 1,.180138000E-003 2,.688431270E+000 2.,8.24032E+06
1.94000E+02,6.466670000E+001 1,.149600333E-003 2,.702363759E+000 2.,7.50957E+06
1.95000E+02,6.500000000E+001 1,.113634000E-003 2,.716292069E+000 2.,6.64891E+06
1.96000E+02,6.533330000E+001 1,.086648667E-003 2,.730220379E+000 2.,6.00315E+06
1.97000E+02,6.566670000E+001 1,.055791667E-003 2,.744152868E+000 2.,5.26476E+06
1.98000E+02,6.600000000E+001 1,.025792667E-003 2,.758081178E+000 2.,4.54689E+06
1.99000E+02,6.633330000E+001 9,.962931667E-004 2,.772009488E+000 2.,3.84098E+06
2.00000E+02,6.666670000E+001 9,.648879667E-004 2,.785941977E+000 2.,3.08946E+06
2.01000E+02,6.700000000E+001 9,.364892000E-004 2,.799870287E+000 2.,2.40989E+06
2.02000E+02,6.733330000E+001 8,.967784333E-004 2,.813798597E+000 2.,1.45962E+06
2.03000E+02,6.766670000E+001 8,.673396333E-004 2,.827731085E+000 2.,7.55160E+05
2.04000E+02,6.800000000E+001 8,.443255667E-004 2,.841659395E+000 2.,2.04441E+05
2.05000E+02,6.833330000E+001 8,.101057000E-004 2,.855587705E+000 1.,9.38557E+06
2.06000E+02,6.866670000E+001 7,.828201000E-004 2,.869520194E+000 1.,8.73263E+06
2.07000E+02,6.900000000E+001 7,.587999000E-004 2,.883448504E+000 1.,8.15784E+06
2.08000E+02,6.933330000E+001 7,.396870667E-004 2,.897376814E+000 1.,7.70047E+06
2.09000E+02,6.966670000E+001 7,.133207667E-004 2,.911309303E+000 1.,7.06954E+06
2.10000E+02,7.000000000E+001 6,.850799333E-004 2,.925237613E+000 1.,6.39374E+06
2.11000E+02,7.033330000E+001 6,.603194000E-004 2,.939165923E+000 1.,5.80123E+06
2.12000E+02,7.066670000E+001 6,.381243667E-004 2,.953098412E+000 1.,5.27011E+06
2.13000E+02,7.100000000E+001 6,.135032000E-004 2,.967026722E+000 1.,4.68094E+06
2.14000E+02,7.133330000E+001 5,.995889000E-004 2,.980955032E+000 1.,4.34797E+06
2.15000E+02,7.166670000E+001 5,.700331667E-004 2,.994887520E+000 1.,3.64071E+06
2.16000E+02,7.200000000E+001 5,.494294667E-004 3,.008815830E+000 1.,3.14767E+06
2.17000E+02,7.233330000E+001 5,.346386000E-004 3,.022744140E+000 1.,2.79373E+06
2.18000E+02,7.266670000E+001 5,.183972333E-004 3,.036676629E+000 1.,2.40508E+06
2.19000E+02,7.300000000E+001 4,.972714667E-004 3,.050604939E+000 1.,1.89955E+06
2.20000E+02,7.333330000E+001 4,.813441000E-004 3,.064533249E+000 1.,1.51841E+06
2.21000E+02,7.366670000E+001 4,.631939667E-004 3,.078465738E+000 1.,1.08408E+06
2.22000E+02,7.400000000E+001 4,.439751333E-004 3,.092394048E+000 1.,6.24183E+05
2.23000E+02,7.433330000E+001 4,.308362000E-004 3,.106322358E+000 1.,3.09772E+05
2.24000E+02,7.466670000E+001 4,.163941333E-004 3,.120254847E+000 9.,9.64178E+05
2.25000E+02,7.500000000E+001 3,.981764000E-004 3,.134183157E+000 9.,5.28234E+05
2.26000E+02,7.533330000E+001 3,.879570333E-004 3,.148111467E+000 9.,2.83688E+05
2.27000E+02,7.566670000E+001 3,.746022333E-004 3,.162043955E+000 8.,9.64112E+05
2.28000E+02,7.600000000E+001 3,.589089333E-004 3,.175972265E+000 8.,5.88576E+05
2.29000E+02,7.633330000E+001 3,.483296333E-004 3,.189900575E+000 8.,3.35417E+05
2.30000E+02,7.666670000E+001 3,.374583000E-004 3,.203833064E+000 8.,7.52691E+04
2.31000E+02,7.700000000E+001 3,.228562333E-004 3,.217761374E+000 7.,7.25846E+05
2.32000E+02,7.733330000E+001 3,.134402333E-004 3,.231689684E+000 7.,5.00524E+05
2.33000E+02,7.766670000E+001 3,.052279667E-004 3,.245622173E+000 7.,3.04008E+05
2.34000E+02,7.800000000E+001 2,.926620000E-004 3,.259550483E+000 7.,3.30801E+03
2.35000E+02,7.833330000E+001 2,.816099000E-004 3,.273478793E+000 6.,7.38835E+05
2.36000E+02,7.866670000E+001 2,.705435000E-004 3,.287411282E+000 6.,4.74019E+05
2.37000E+02,7.900000000E+001 2,.590848000E-004 3,.301339592E+000 6.,1.99816E+05
2.38000E+02,7.933330000E+001 2,.479024333E-004 3,.315267902E+000 5.,9.32226E+05
2.39000E+02,7.966670000E+001 2,.434614333E-004 3,.329200390E+000 5.,8.25954E+05
2.40000E+02,8.000000000E+001 2,.332679333E-004 3,.343128700E+000 5.,5.82027E+05
